25
4
2.44948974278
5
unknown
19
195
81
164
111.427106217
0.0
0.0
0.0
0.0513513513514
0.0945945945946
0.0621621621622
0.0540540540541
0.0513513513514
0.0513513513514
0.0486486486486
0.0459459459459
0.0486486486486
0.0459459459459
0.102702702703
0.0648648648649
0.0648648648649
0.0243243243243
0.0216216216216
0.0243243243243
0.0216216216216
0.0216216216216
0.0243243243243
0.0216216216216
0.0243243243243
0.027027027027
0.0577409390695
0.0513513513514
0.072972972973
0.116216216216
0.140540540541
0.0567567567568
0.0351351351351
0.0216216216216
0.0189189189189
0.0162162162162
0.0135135135135
0.0108108108108
0.0108108108108
0.0108108108108
0.00540540540541
0.00540540540541
0.00540540540541
0.00540540540541
0.00540540540541
0.00540540540541
0.0108108108108
0.0108108108108
0.0135135135135
0.0216216216216
0.0351351351351
0.0567567567568
3
unknown
16
191
73
118
113.0
0.0
0.0
0.0
0.103535353535
0.0631313131313
0.0580808080808
0.0505050505051
0.0505050505051
0.0505050505051
0.0479797979798
0.0479797979798
0.0505050505051
0.040404040404
0.113636363636
0.0808080808081
0.0277777777778
0.0227272727273
0.0227272727273
0.0227272727273
0.0252525252525
0.020202020202
0.0252525252525
0.020202020202
0.0252525252525
0.0277777777778
0.0601336966365
0.186868686869
0.161616161616
0.0707070707071
0.0353535353535
0.0277777777778
0.0227272727273
0.0126262626263
0.0126262626263
0.010101010101
0.0126262626263
0.010101010101
0.010101010101
0.00252525252525
0.00505050505051
0.00505050505051
0.00757575757576
0.00505050505051
0.00757575757576
0.00757575757576
0.0126262626263
0.0176767676768
0.0252525252525
0.0530303030303
0.0277777777778
0.0176767676768
4
unknown
16
223
75
341
181.796589627
0.0
0.0
0.0
0.0
0.0
0.0
0.0
0.0
0.0
0.0
0.0
0.0
0.041248606466
0.117056856187
0.0624303232999
0.217391304348
0.130434782609
0.103678929766
0.0992196209588
0.0914158305463
0.0512820512821
0.0289855072464
0.0178372352285
0.0178372352285
0.0200668896321
0.170390920159
0.0278706800446
0.0267558528428
0.0312151616499
0.0312151616499
0.0379041248606
0.0468227424749
0.056856187291
0.0624303232999
0.0557413600892
0.0457079152731
0.0379041248606
0.0334448160535
0.0211817168339
0.0133779264214
0.0111482720178
0.0122630992196
0.0111482720178
0.0111482720178
0.0122630992196
0.0791527313266
0.0211817168339
0.0189520624303
0.0167224080268
0.0167224080268
0.0144927536232
2
rectangle
16
222
16
69
106.230880633
0.0
0.0
0.0
0.0
0.0
0.0
0.112840466926
0.0544747081712
0.0544747081712
0.0389105058366
0.0389105058366
0.0389105058366
0.0389105058366
0.0389105058366
0.0389105058366
0.0311284046693
0.0389105058366
0.0311284046693
0.0389105058366
0.0311284046693
0.0389105058366
0.0311284046693
0.0389105058366
0.0311284046693
0.229571984436
0.1187865014
0.0525291828794
0.0544747081712
0.140077821012
0.0700389105058
0.0466926070039
0.0311284046693
0.0233463035019
0.0194552529183
0.0155642023346
0.0155642023346
0.0155642023346
0.011673151751
0.00778210116732
0.00583657587549
0.00778210116732
0.00778210116732
0.00778210116732
0.00972762645914
0.011673151751
0.0155642023346
0.0233463035019
0.0350194552529
0.0700389105058
0.0272373540856
0.0233463035019
3
3
5
1
1
0.882828701783
touch
4
5
1
1
0.108759148783
floor
2
3
1
1
0.399343339587
touch
