contour_details : [560 1685],[560 2129],[1369 2129],[1369 1685] : sejour : [1086,1946]
contour_details : [905 1370],[905 1439],[924 1439],[925 1440],[925 1453],[924 1454],[924 1499],[923 1500],[923 1545],[922 1546],[922 1591],[921 1592],[921 1637],[920 1638],[920 1669],[1374 1669],[1374 1485],[1260 1485],[1259 1484],[1259 1370] : repas : [1121,1645]
contour_details : [770 1365],[770 1559],[769 1560],[665 1560],[665 1574],[769 1574],[770 1575],[770 1669],[889 1669],[889 1628],[888 1627],[888 1567],[887 1566],[887 1506],[886 1505],[886 1445],[885 1444],[885 1384],[884 1383],[884 1365] : degt : [835,1612]
contour_details : [565 1360],[565 1454],[744 1454],[744 1360] : wc : [686,1402]
contour_details : [905 1125],[905 1354],[1254 1354],[1254 1125] : cuisine : [1072,1302]
contour_details : [565 1125],[565 1349],[889 1349],[889 1319],[888 1318],[888 1274],[887 1273],[887 1229],[886 1228],[886 1184],[885 1183],[885 1139],[884 1138],[884 1125] : cellier : [710,1234]
