25
2
3.59646228932
3
ellipse
34
110
23
75
38.0131556175
0.0
0.0
0.0
0.0
0.0
0.0
0.0
0.0
0.0
0.0
0.0
0.0
0.0
0.0
0.0
0.000446428571429
0.00154532967033
0.00199175824176
0.00103021978022
0.000995879120879
0.000995879120879
0.000789835164835
0.000927197802198
0.0012706043956
0.00168269230769
0.0
0.0
0.0
0.0
0.0
0.0
0.0
0.0
0.0
0.0
0.0
0.0
0.0
0.0
0.0
0.000446428571429
0.00154532967033
0.00199175824176
0.00103021978022
0.000995879120879
0.000995879120879
0.000789835164835
0.000927197802198
0.0012706043956
0.00168269230769
0.0391576474762
0.000618131868132
0.000549450549451
0.00051510989011
0.000446428571429
0.000412087912088
0.00051510989011
0.000480769230769
0.000446428571429
0.000480769230769
0.000412087912088
0.000412087912088
0.000412087912088
0.000274725274725
0.000206043956044
0.000171703296703
0.000240384615385
0.000206043956044
0.000240384615385
0.000206043956044
0.000240384615385
0.000240384615385
0.000206043956044
0.000274725274725
0.000240384615385
0.000274725274725
0.000618131868132
0.000549450549451
0.00051510989011
0.000446428571429
0.000412087912088
0.00051510989011
0.000480769230769
0.000446428571429
0.000480769230769
0.000412087912088
0.000412087912088
0.000412087912088
0.000274725274725
0.000206043956044
0.000171703296703
0.000240384615385
0.000206043956044
0.000240384615385
0.000206043956044
0.000240384615385
0.000240384615385
0.000206043956044
0.000274725274725
0.000240384615385
0.000274725274725
2
rectangle
19
124
14
84
62.6817357769
0.0
0.0
0.0
0.0
0.0
0.0
0.0
0.0
0.0
0.0
0.0
0.0
0.0
0.000329449818803
0.000569049687023
0.000329449818803
0.000374374794094
0.000793674563479
0.000628949654078
0.000509149719968
0.00100332444817
0.000973374464644
0.000793674563479
0.000823624547006
0.000898499505825
0.0
0.0
0.0
0.0
0.0
0.0
0.0
0.0
0.0
0.0
0.0
0.0
0.0
0.000329449818803
0.000569049687023
0.000329449818803
0.000374374794094
0.000793674563479
0.000628949654078
0.000509149719968
0.00100332444817
0.000973374464644
0.000793674563479
0.000823624547006
0.000898499505825
0.0643260045801
0.000329449818803
0.00035939980233
0.000329449818803
0.00035939980233
0.000419299769385
0.000434274761149
0.000374374794094
0.000299499835275
0.000284524843511
0.000254574859984
0.00023959986822
0.00023959986822
0.000164724909401
0.00011979993411
0.00011979993411
0.00011979993411
0.000134774925874
0.000164724909401
0.000179699901165
0.000194674892929
0.000224624876456
0.000164724909401
0.000164724909401
0.000179699901165
0.000149749917638
0.000329449818803
0.00035939980233
0.000329449818803
0.00035939980233
0.000419299769385
0.000434274761149
0.000374374794094
0.000299499835275
0.000284524843511
0.000254574859984
0.00023959986822
0.00023959986822
0.000164724909401
0.00011979993411
0.00011979993411
0.00011979993411
0.000134774925874
0.000164724909401
0.000179699901165
0.000194674892929
0.000224624876456
0.000164724909401
0.000164724909401
0.000179699901165
0.000149749917638
1
2
3
1
1
0.416387959866
floor
