contour_details : [1406 1452],[1406 1647],[1767 1647],[1767 1582],[1766 1581],[1766 1484],[1765 1483],[1765 1452] : hall : [1543,1543]
contour_details : [1064 1112],[1064 1211],[1407 1211],[1408 1212],[1408 1433],[1507 1433],[1507 1112] : degt : [1298,1180]
contour_details : [1204 1006],[1204 1097],[1399 1097],[1399 1006] : wc : [1272,1039]
