contour_details : [1120 2190],[1120 2289],[1534 2289],[1534 2190]
contour_details : [1065 1800],[1065 1899],[1164 1899],[1164 1800]
contour_details : [1305 1750],[1305 1849],[1464 1849],[1464 1750]
contour_details : [1065 1620],[1065 1714],[1164 1714],[1164 1620]
