<?xml version="1.0" encoding="UTF-8" standalone="no"?>
<!-- Created with Inkscape (http://www.inkscape.org/) -->

<svg
   xmlns:dc="http://purl.org/dc/elements/1.1/"
   xmlns:cc="http://creativecommons.org/ns#"
   xmlns:rdf="http://www.w3.org/1999/02/22-rdf-syntax-ns#"
   xmlns:svg="http://www.w3.org/2000/svg"
   xmlns="http://www.w3.org/2000/svg"
   xmlns:xlink="http://www.w3.org/1999/xlink"
   xmlns:sodipodi="http://sodipodi.sourceforge.net/DTD/sodipodi-0.dtd"
   xmlns:inkscape="http://www.inkscape.org/namespaces/inkscape"
   id="svg7004"
   version="1.1"
   inkscape:version="0.91 r13725"
   width="750"
   height="1220"
   viewBox="0 0 750 1220"
   sodipodi:docname="file_278_230.svg">
  <metadata
     id="metadata7010">
    <rdf:RDF>
      <cc:Work
         rdf:about="">
        <dc:format>image/svg+xml</dc:format>
        <dc:type
           rdf:resource="http://purl.org/dc/dcmitype/StillImage" />
        <dc:title></dc:title>
      </cc:Work>
    </rdf:RDF>
  </metadata>
  <defs
     id="defs7008" />
  <sodipodi:namedview
     pagecolor="#ffffff"
     bordercolor="#666666"
     borderopacity="1"
     objecttolerance="10"
     gridtolerance="10"
     guidetolerance="10"
     inkscape:pageopacity="0"
     inkscape:pageshadow="2"
     inkscape:window-width="1920"
     inkscape:window-height="997"
     id="namedview7006"
     showgrid="false"
     inkscape:zoom="0.77377049"
     inkscape:cx="118.46398"
     inkscape:cy="610"
     inkscape:window-x="-9"
     inkscape:window-y="-9"
     inkscape:window-maximized="1"
     inkscape:current-layer="svg7004" />
  <image
     sodipodi:absref="C:\Users\pierpaolo\Dropbox\Romani-15\Object Recognition New\file_278_230_bath.png"
     xlink:href="file_278_230_bath.png"
     y="0"
     x="0"
     id="image7012"
     preserveAspectRatio="none"
     height="1220"
     width="750" />
  <rect
     style="fill:none;fill-opacity:1;stroke:#400000;stroke-width:2;stroke-linecap:round;stroke-linejoin:round;stroke-miterlimit:4;stroke-dasharray:none;stroke-opacity:1"
     id="rect7014"
     width="102.09746"
     height="49.110168"
     x="281.73727"
     y="117.60593"
     ry="3.34096" />
  <rect
     style="fill:none;fill-opacity:1;stroke:#b00000;stroke-width:2;stroke-linecap:round;stroke-linejoin:round;stroke-miterlimit:4;stroke-dasharray:none;stroke-opacity:1"
     id="rect7556"
     width="49.110168"
     height="27.13983"
     x="325.67798"
     y="182.22458"
     ry="3.34096" />
  <rect
     style="fill:none;fill-opacity:1;stroke:#b00000;stroke-width:2;stroke-linecap:round;stroke-linejoin:round;stroke-miterlimit:4;stroke-dasharray:none;stroke-opacity:1"
     id="rect7558"
     width="27.13983"
     height="49.110168"
     x="624.21613"
     y="403.22034"
     ry="3.34096" />
  <rect
     style="fill:none;fill-opacity:1;stroke:#ff0000;stroke-width:2;stroke-linecap:round;stroke-linejoin:round;stroke-miterlimit:4;stroke-dasharray:none;stroke-opacity:1"
     id="rect7560"
     width="31.016949"
     height="28.432203"
     x="547.96613"
     y="405.80508"
     ry="3.34096" />
  <rect
     style="fill:none;fill-opacity:1;stroke:#ff0000;stroke-width:2;stroke-linecap:round;stroke-linejoin:round;stroke-miterlimit:4;stroke-dasharray:none;stroke-opacity:1"
     id="rect7562"
     width="31.016949"
     height="33.601696"
     x="342.47882"
     y="242.96609"
     ry="3.34096" />
  <rect
     style="fill:none;fill-opacity:1;stroke:#008000;stroke-width:2;stroke-linecap:round;stroke-linejoin:round;stroke-miterlimit:4;stroke-dasharray:none;stroke-opacity:1"
     id="rect7564"
     width="211.94916"
     height="199.02542"
     x="279.15256"
     y="501.44067"
     ry="3.34096" />
  <rect
     style="fill:none;fill-opacity:1;stroke:#000040;stroke-width:2;stroke-linecap:round;stroke-linejoin:round;stroke-miterlimit:4;stroke-dasharray:none;stroke-opacity:1"
     id="rect7566"
     width="51.694916"
     height="55.572033"
     x="613.87714"
     y="504.02542"
     ry="3.34096" />
</svg>
