<?xml version="1.0" encoding="UTF-8" standalone="no"?>
<!-- Created with Inkscape (http://www.inkscape.org/) -->

<svg
   xmlns:dc="http://purl.org/dc/elements/1.1/"
   xmlns:cc="http://creativecommons.org/ns#"
   xmlns:rdf="http://www.w3.org/1999/02/22-rdf-syntax-ns#"
   xmlns:svg="http://www.w3.org/2000/svg"
   xmlns="http://www.w3.org/2000/svg"
   xmlns:xlink="http://www.w3.org/1999/xlink"
   xmlns:sodipodi="http://sodipodi.sourceforge.net/DTD/sodipodi-0.dtd"
   xmlns:inkscape="http://www.inkscape.org/namespaces/inkscape"
   id="svg9989"
   version="1.1"
   inkscape:version="0.91 r13725"
   width="3166"
   height="1706"
   viewBox="0 0 3166 1706"
   sodipodi:docname="file_335_230.svg">
  <metadata
     id="metadata9995">
    <rdf:RDF>
      <cc:Work
         rdf:about="">
        <dc:format>image/svg+xml</dc:format>
        <dc:type
           rdf:resource="http://purl.org/dc/dcmitype/StillImage" />
        <dc:title />
      </cc:Work>
    </rdf:RDF>
  </metadata>
  <defs
     id="defs9993" />
  <sodipodi:namedview
     pagecolor="#ffffff"
     bordercolor="#666666"
     borderopacity="1"
     objecttolerance="10"
     gridtolerance="10"
     guidetolerance="10"
     inkscape:pageopacity="0"
     inkscape:pageshadow="2"
     inkscape:window-width="1920"
     inkscape:window-height="997"
     id="namedview9991"
     showgrid="false"
     inkscape:zoom="0.39127128"
     inkscape:cx="1291.7096"
     inkscape:cy="853"
     inkscape:window-x="-9"
     inkscape:window-y="-9"
     inkscape:window-maximized="1"
     inkscape:current-layer="svg9989" />
  <image
     sodipodi:absref="C:\Users\pierpaolo\Dropbox\Romani-15\GT_Files\..\Object Recognition New\file_335_230_bath.png"
     xlink:href="..\Object Recognition New\file_335_230_bath.png"
     width="3166"
     height="1706"
     preserveAspectRatio="none"
     id="image9997"
     x="0"
     y="0" />
  <rect
     style="fill:none;fill-opacity:1;stroke:#400000;stroke-width:2;stroke-linecap:round;stroke-linejoin:round;stroke-miterlimit:4;stroke-dasharray:none;stroke-opacity:1"
     id="rect9999"
     width="92.007774"
     height="230.01944"
     x="135.45589"
     y="601.90668"
     ry="3.2483399" />
  <rect
     style="fill:none;fill-opacity:1;stroke:#400000;stroke-width:2;stroke-linecap:round;stroke-linejoin:round;stroke-miterlimit:4;stroke-dasharray:none;stroke-opacity:1"
     id="rect10541"
     width="92.007774"
     height="222.35213"
     x="983.97205"
     y="934.15698"
     ry="3.2483399" />
  <rect
     style="fill:none;fill-opacity:1;stroke:#400000;stroke-width:2;stroke-linecap:round;stroke-linejoin:round;stroke-miterlimit:4;stroke-dasharray:none;stroke-opacity:1"
     id="rect10543"
     width="84.340462"
     height="230.01944"
     x="2108.5115"
     y="926.48969"
     ry="3.2483399" />
  <rect
     style="fill:none;fill-opacity:1;stroke:#400000;stroke-width:2;stroke-linecap:round;stroke-linejoin:round;stroke-miterlimit:4;stroke-dasharray:none;stroke-opacity:1"
     id="rect10545"
     width="94.563545"
     height="237.68675"
     x="2944.2488"
     y="601.90668"
     ry="3.2483399" />
  <rect
     style="fill:none;fill-opacity:1;stroke:#ff0000;stroke-width:2;stroke-linecap:round;stroke-linejoin:round;stroke-miterlimit:4;stroke-dasharray:none;stroke-opacity:1"
     id="rect10547"
     width="53.671204"
     height="76.673149"
     x="894.52002"
     y="1079.8359"
     ry="3.2483399" />
  <rect
     style="fill:none;fill-opacity:1;stroke:#ff0000;stroke-width:2;stroke-linecap:round;stroke-linejoin:round;stroke-miterlimit:4;stroke-dasharray:none;stroke-opacity:1"
     id="rect10549"
     width="74.117378"
     height="53.671204"
     x="787.17761"
     y="941.82428"
     ry="3.2483399" />
  <rect
     style="fill:none;fill-opacity:1;stroke:#ff0000;stroke-width:2;stroke-linecap:round;stroke-linejoin:round;stroke-miterlimit:4;stroke-dasharray:none;stroke-opacity:1"
     id="rect10551"
     width="58.782745"
     height="69.005829"
     x="268.35602"
     y="612.12976"
     ry="3.2483399" />
  <rect
     style="fill:none;fill-opacity:1;stroke:#ff0000;stroke-width:2;stroke-linecap:round;stroke-linejoin:round;stroke-miterlimit:4;stroke-dasharray:none;stroke-opacity:1"
     id="rect10553"
     width="63.894287"
     height="48.559658"
     x="401.25613"
     y="762.92029"
     ry="3.2483399" />
  <rect
     style="fill:none;fill-opacity:1;stroke:#ff0000;stroke-width:2;stroke-linecap:round;stroke-linejoin:round;stroke-miterlimit:4;stroke-dasharray:none;stroke-opacity:1"
     id="rect10555"
     width="115.00972"
     height="56.226974"
     x="419.14655"
     y="1560.321"
     ry="3.2483399" />
  <rect
     style="fill:none;fill-opacity:1;stroke:#ff0000;stroke-width:2;stroke-linecap:round;stroke-linejoin:round;stroke-miterlimit:4;stroke-dasharray:none;stroke-opacity:1"
     id="rect10557"
     width="112.45395"
     height="61.338516"
     x="2632.4446"
     y="1550.0979"
     ry="3.2483399" />
  <rect
     style="fill:none;fill-opacity:1;stroke:#ff0000;stroke-width:2;stroke-linecap:round;stroke-linejoin:round;stroke-miterlimit:4;stroke-dasharray:none;stroke-opacity:1"
     id="rect10559"
     width="61.338516"
     height="51.115433"
     x="2706.562"
     y="768.03186"
     ry="3.2483399" />
  <rect
     style="fill:none;fill-opacity:1;stroke:#ff0000;stroke-width:2;stroke-linecap:round;stroke-linejoin:round;stroke-miterlimit:4;stroke-dasharray:none;stroke-opacity:1"
     id="rect10561"
     width="38.3367"
     height="51.115417"
     x="2852.241"
     y="619.79712"
     ry="3.2483399" />
  <rect
     style="fill:none;fill-opacity:1;stroke:#ff0000;stroke-width:2;stroke-linecap:round;stroke-linejoin:round;stroke-miterlimit:4;stroke-dasharray:none;stroke-opacity:1"
     id="rect10563"
     width="33.224941"
     height="56.227032"
     x="2226.0771"
     y="1082.3917"
     ry="3.2483399" />
  <rect
     style="fill:none;fill-opacity:1;stroke:#b00000;stroke-width:2;stroke-linecap:round;stroke-linejoin:round;stroke-miterlimit:4;stroke-dasharray:none;stroke-opacity:1"
     id="rect10565"
     width="51.115433"
     height="86.896233"
     x="276.02332"
     y="739.91833"
     ry="3.2483399" />
  <rect
     style="fill:none;fill-opacity:1;stroke:#b00000;stroke-width:2;stroke-linecap:round;stroke-linejoin:round;stroke-miterlimit:4;stroke-dasharray:none;stroke-opacity:1"
     id="rect10567"
     width="58.782745"
     height="86.896233"
     x="891.96429"
     y="931.6012"
     ry="3.2483399" />
  <rect
     style="fill:none;fill-opacity:1;stroke:#b00000;stroke-width:2;stroke-linecap:round;stroke-linejoin:round;stroke-miterlimit:4;stroke-dasharray:none;stroke-opacity:1"
     id="rect10569"
     width="56.226974"
     height="89.452003"
     x="2215.854"
     y="934.15698"
     ry="3.2483399" />
  <rect
     style="fill:none;fill-opacity:1;stroke:#b00000;stroke-width:2;stroke-linecap:round;stroke-linejoin:round;stroke-miterlimit:4;stroke-dasharray:none;stroke-opacity:1"
     id="rect10571"
     width="69.005829"
     height="86.896233"
     x="2836.9065"
     y="739.91833"
     ry="3.2483399" />
  <rect
     style="fill:none;fill-opacity:1;stroke:#ff0000;stroke-width:2;stroke-linecap:round;stroke-linejoin:round;stroke-miterlimit:4;stroke-dasharray:none;stroke-opacity:1"
     id="rect10573"
     width="66.450012"
     height="38.336578"
     x="2307.8618"
     y="949.49164"
     ry="3.2483399" />
  <rect
     style="fill:none;fill-opacity:1;stroke:#00b000;stroke-width:2;stroke-linecap:round;stroke-linejoin:round;stroke-miterlimit:4;stroke-dasharray:none;stroke-opacity:1"
     id="rect10575"
     width="189.12709"
     height="250.46561"
     x="329.69452"
     y="200.65056"
     ry="3.2483399" />
  <rect
     style="fill:none;fill-opacity:1;stroke:#00b000;stroke-width:2;stroke-linecap:round;stroke-linejoin:round;stroke-miterlimit:4;stroke-dasharray:none;stroke-opacity:1"
     id="rect10577"
     width="245.35406"
     height="112.45395"
     x="830.62573"
     y="584.0163"
     ry="3.2483399" />
  <rect
     style="fill:none;fill-opacity:1;stroke:#00b000;stroke-width:2;stroke-linecap:round;stroke-linejoin:round;stroke-miterlimit:4;stroke-dasharray:none;stroke-opacity:1"
     id="rect10579"
     width="245.35406"
     height="112.45395"
     x="828.07001"
     y="392.33344"
     ry="3.2483399" />
  <rect
     style="fill:none;fill-opacity:1;stroke:#00b000;stroke-width:2;stroke-linecap:round;stroke-linejoin:round;stroke-miterlimit:4;stroke-dasharray:none;stroke-opacity:1"
     id="rect10581"
     width="127.78857"
     height="245.35406"
     x="263.24448"
     y="1059.3898"
     ry="3.2483399" />
  <rect
     style="fill:none;fill-opacity:1;stroke:#00b000;stroke-width:2;stroke-linecap:round;stroke-linejoin:round;stroke-miterlimit:4;stroke-dasharray:none;stroke-opacity:1"
     id="rect10583"
     width="127.78857"
     height="245.35406"
     x="447.26001"
     y="1064.5013"
     ry="3.2483399" />
  <rect
     style="fill:none;fill-opacity:1;stroke:#00b000;stroke-width:2;stroke-linecap:round;stroke-linejoin:round;stroke-miterlimit:4;stroke-dasharray:none;stroke-opacity:1"
     id="rect10585"
     width="120.12126"
     height="242.79829"
     x="2596.6638"
     y="1054.2782"
     ry="3.2483399" />
  <rect
     style="fill:none;fill-opacity:1;stroke:#00b000;stroke-width:2;stroke-linecap:round;stroke-linejoin:round;stroke-miterlimit:4;stroke-dasharray:none;stroke-opacity:1"
     id="rect10587"
     width="120.12126"
     height="240.24252"
     x="2788.3467"
     y="1056.834"
     ry="3.2483399" />
  <rect
     style="fill:none;fill-opacity:1;stroke:#00b000;stroke-width:2;stroke-linecap:round;stroke-linejoin:round;stroke-miterlimit:4;stroke-dasharray:none;stroke-opacity:1"
     id="rect10589"
     width="178.90401"
     height="255.57715"
     x="2655.4465"
     y="200.65056"
     ry="3.2483399" />
  <rect
     style="fill:none;fill-opacity:1;stroke:#00b000;stroke-width:2;stroke-linecap:round;stroke-linejoin:round;stroke-miterlimit:4;stroke-dasharray:none;stroke-opacity:1"
     id="rect10591"
     width="224.9079"
     height="117.56549"
     x="2116.179"
     y="573.79321"
     ry="3.2483399" />
  <rect
     style="fill:none;fill-opacity:1;stroke:#00b000;stroke-width:2;stroke-linecap:round;stroke-linejoin:round;stroke-miterlimit:4;stroke-dasharray:none;stroke-opacity:1"
     id="rect10593"
     width="235.13098"
     height="109.89818"
     x="2105.9558"
     y="387.22189"
     ry="3.2483399" />
  <rect
     style="fill:none;fill-opacity:1;stroke:#00ff00;stroke-width:2;stroke-linecap:round;stroke-linejoin:round;stroke-miterlimit:4;stroke-dasharray:none;stroke-opacity:1"
     id="rect10597"
     width="161.01361"
     height="92.007774"
     x="1707.2554"
     y="676.02405"
     ry="3.2483399" />
  <rect
     style="fill:none;fill-opacity:1;stroke:#00ff00;stroke-width:2;stroke-linecap:round;stroke-linejoin:round;stroke-miterlimit:4;stroke-dasharray:none;stroke-opacity:1"
     id="rect10599"
     width="94.563545"
     height="237.68675"
     x="1612.6919"
     y="438.33731"
     ry="3.2483399" />
  <rect
     style="fill:none;fill-opacity:1;stroke:#00ff00;stroke-width:2;stroke-linecap:round;stroke-linejoin:round;stroke-miterlimit:4;stroke-dasharray:none;stroke-opacity:1"
     id="rect10601"
     width="92.007774"
     height="219.79636"
     x="1459.3456"
     y="443.44885"
     ry="3.2483399" />
  <rect
     style="fill:none;fill-opacity:1;stroke:#00ff00;stroke-width:2;stroke-linecap:round;stroke-linejoin:round;stroke-miterlimit:4;stroke-dasharray:none;stroke-opacity:1"
     id="rect10603"
     width="163.56938"
     height="94.563545"
     x="1300.8877"
     y="670.91254"
     ry="3.2483399" />
  <rect
     style="fill:none;fill-opacity:1;stroke:#000080;stroke-width:2;stroke-linecap:round;stroke-linejoin:round;stroke-miterlimit:4;stroke-dasharray:none;stroke-opacity:1"
     id="rect10605"
     width="207.0175"
     height="245.35406"
     x="1311.1108"
     y="908.5993"
     ry="3.2483399" />
  <rect
     style="fill:none;fill-opacity:1;stroke:#000080;stroke-width:2;stroke-linecap:round;stroke-linejoin:round;stroke-miterlimit:4;stroke-dasharray:none;stroke-opacity:1"
     id="rect10607"
     width="219.79636"
     height="247.90984"
     x="1653.5842"
     y="911.15503"
     ry="3.2483399" />
  <rect
     style="fill:none;fill-opacity:1;stroke:#000080;stroke-width:2;stroke-linecap:round;stroke-linejoin:round;stroke-miterlimit:4;stroke-dasharray:none;stroke-opacity:1"
     id="rect10609"
     width="97.119316"
     height="99.675087"
     x="1760.9266"
     y="515.01044"
     ry="3.2483399" />
  <rect
     style="fill:none;fill-opacity:1;stroke:#000080;stroke-width:2;stroke-linecap:round;stroke-linejoin:round;stroke-miterlimit:4;stroke-dasharray:none;stroke-opacity:1"
     id="rect10611"
     width="74.117378"
     height="74.117378"
     x="1617.8033"
     y="683.69141"
     ry="3.2483399" />
  <rect
     style="fill:none;fill-opacity:1;stroke:#000080;stroke-width:2;stroke-linecap:round;stroke-linejoin:round;stroke-miterlimit:4;stroke-dasharray:none;stroke-opacity:1"
     id="rect10613"
     width="79.22892"
     height="69.005829"
     x="1615.2476"
     y="356.55261"
     ry="3.2483399" />
  <rect
     style="fill:none;fill-opacity:1;stroke:#000080;stroke-width:2;stroke-linecap:round;stroke-linejoin:round;stroke-miterlimit:4;stroke-dasharray:none;stroke-opacity:1"
     id="rect10615"
     width="76.673149"
     height="71.5616"
     x="1479.7917"
     y="356.55261"
     ry="3.2483399" />
  <rect
     style="fill:none;fill-opacity:1;stroke:#000080;stroke-width:2;stroke-linecap:round;stroke-linejoin:round;stroke-miterlimit:4;stroke-dasharray:none;stroke-opacity:1"
     id="rect10617"
     width="84.340462"
     height="69.005829"
     x="1477.236"
     y="693.91449"
     ry="3.2483399" />
  <rect
     style="fill:none;fill-opacity:1;stroke:#000080;stroke-width:2;stroke-linecap:round;stroke-linejoin:round;stroke-miterlimit:4;stroke-dasharray:none;stroke-opacity:1"
     id="rect10619"
     width="107.34241"
     height="107.34241"
     x="1305.9993"
     y="509.89893"
     ry="3.2483399" />
  <rect
     style="fill:none;fill-opacity:1;stroke:#000080;stroke-width:2;stroke-linecap:round;stroke-linejoin:round;stroke-miterlimit:4;stroke-dasharray:none;stroke-opacity:1"
     id="rect10621"
     width="122.67714"
     height="122.67702"
     x="2913.5796"
     y="192.98325"
     ry="3.2483399" />
  <rect
     style="fill:none;fill-opacity:1;stroke:#000080;stroke-width:2;stroke-linecap:round;stroke-linejoin:round;stroke-miterlimit:4;stroke-dasharray:none;stroke-opacity:1"
     id="rect10623"
     width="122.67703"
     height="127.78857"
     x="2911.0237"
     y="1169.288"
     ry="3.2483399" />
  <rect
     style="fill:none;fill-opacity:1;stroke:#000080;stroke-width:2;stroke-linecap:round;stroke-linejoin:round;stroke-miterlimit:4;stroke-dasharray:none;stroke-opacity:1"
     id="rect10625"
     width="120.12126"
     height="132.90012"
     x="132.90012"
     y="1171.8438"
     ry="3.2483399" />
  <rect
     style="fill:none;fill-opacity:1;stroke:#000080;stroke-width:1.56539392;stroke-linecap:round;stroke-linejoin:round;stroke-miterlimit:4;stroke-dasharray:none;stroke-opacity:1"
     id="rect10627"
     width="115.44432"
     height="107.77702"
     x="137.79436"
     y="205.5448"
     ry="3.2600925" />
  <rect
     style="fill:none;fill-opacity:1;stroke:#000080;stroke-width:2;stroke-linecap:round;stroke-linejoin:round;stroke-miterlimit:4;stroke-dasharray:none;stroke-opacity:1"
     id="rect10629"
     width="122.6771"
     height="168.68092"
     x="955.85852"
     y="221.09673"
     ry="3.2483399" />
  <rect
     style="fill:none;fill-opacity:1;stroke:#008000;stroke-width:2;stroke-linecap:round;stroke-linejoin:round;stroke-miterlimit:4;stroke-dasharray:none;stroke-opacity:1"
     id="rect10631"
     width="631.27551"
     height="301.58102"
     x="342.47339"
     y="1317.5227"
     ry="3.2483399" />
  <rect
     style="fill:none;fill-opacity:1;stroke:#008000;stroke-width:2;stroke-linecap:round;stroke-linejoin:round;stroke-miterlimit:4;stroke-dasharray:none;stroke-opacity:1"
     id="rect10633"
     width="674.72369"
     height="281.13486"
     x="2197.9636"
     y="1335.4131"
     ry="3.2483399" />
  <rect
     style="fill:none;fill-opacity:1;stroke:#0000ff;stroke-width:2;stroke-linecap:round;stroke-linejoin:round;stroke-miterlimit:4;stroke-dasharray:none;stroke-opacity:1"
     id="rect10635"
     width="447.26001"
     height="184.01555"
     x="1116.8722"
     y="111.19855"
     ry="3.2483399" />
  <rect
     style="fill:none;fill-opacity:1;stroke:#0000ff;stroke-width:2;stroke-linecap:round;stroke-linejoin:round;stroke-miterlimit:4;stroke-dasharray:none;stroke-opacity:1"
     id="rect10637"
     width="138.01166"
     height="270.91177"
     x="125.2328"
     y="1343.0804"
     ry="3.2483399" />
  <rect
     style="fill:none;fill-opacity:1;stroke:#0000ff;stroke-width:2;stroke-linecap:round;stroke-linejoin:round;stroke-miterlimit:4;stroke-dasharray:none;stroke-opacity:1"
     id="rect10639"
     width="135.45589"
     height="276.02332"
     x="2908.468"
     y="1343.0804"
     ry="3.2483399" />
  <rect
     style="fill:none;fill-opacity:1;stroke:#000080;stroke-width:2;stroke-linecap:round;stroke-linejoin:round;stroke-miterlimit:4;stroke-dasharray:none;stroke-opacity:1"
     id="rect6044"
     width="79.22892"
     height="48.559658"
     x="250.46561"
     y="198.09479"
     ry="3.2600901" />
  <rect
     style="fill:none;fill-opacity:1;stroke:#000080;stroke-width:2;stroke-linecap:round;stroke-linejoin:round;stroke-miterlimit:4;stroke-dasharray:none;stroke-opacity:1"
     id="rect6046"
     width="48.559658"
     height="51.115429"
     x="1024.8644"
     y="517.56622"
     ry="3.2483399" />
  <rect
     style="fill:none;fill-opacity:1;stroke:#000080;stroke-width:2;stroke-linecap:round;stroke-linejoin:round;stroke-miterlimit:4;stroke-dasharray:none;stroke-opacity:1"
     id="rect6048"
     width="48.559658"
     height="48.559658"
     x="1022.3086"
     y="709.24908"
     ry="3.2483399" />
  <rect
     style="fill:none;fill-opacity:1;stroke:#000080;stroke-width:2;stroke-linecap:round;stroke-linejoin:round;stroke-miterlimit:4;stroke-dasharray:none;stroke-opacity:1"
     id="rect6050"
     width="56.226974"
     height="40.892345"
     x="388.47726"
     y="1256.1842"
     ry="3.2483399" />
  <rect
     style="fill:none;fill-opacity:1;stroke:#000080;stroke-width:2;stroke-linecap:round;stroke-linejoin:round;stroke-miterlimit:4;stroke-dasharray:none;stroke-opacity:1"
     id="rect6052"
     width="61.338516"
     height="35.7808"
     x="2724.4524"
     y="1256.1842"
     ry="3.2483399" />
  <rect
     style="fill:none;fill-opacity:1;stroke:#000080;stroke-width:2;stroke-linecap:round;stroke-linejoin:round;stroke-miterlimit:4;stroke-dasharray:none;stroke-opacity:1"
     id="rect6054"
     width="69.005829"
     height="43.448116"
     x="2581.3293"
     y="200.65056"
     ry="3.2483399" />
  <rect
     style="fill:none;fill-opacity:1;stroke:#000080;stroke-width:2;stroke-linecap:round;stroke-linejoin:round;stroke-miterlimit:4;stroke-dasharray:none;stroke-opacity:1"
     id="rect6056"
     width="102.23086"
     height="148.23476"
     x="2113.623"
     y="228.76405"
     ry="3.2483399" />
  <rect
     style="fill:none;fill-opacity:1;stroke:#000080;stroke-width:2;stroke-linecap:round;stroke-linejoin:round;stroke-miterlimit:4;stroke-dasharray:none;stroke-opacity:1"
     id="rect6058"
     width="38.336575"
     height="48.559658"
     x="2111.0674"
     y="706.69336"
     ry="3.2483399" />
  <rect
     style="fill:none;fill-opacity:1;stroke:#000080;stroke-width:2;stroke-linecap:round;stroke-linejoin:round;stroke-miterlimit:4;stroke-dasharray:none;stroke-opacity:1"
     id="rect6060"
     width="38.336613"
     height="53.671204"
     x="2105.9556"
     y="512.45471"
     ry="3.2483399" />
  <rect
     style="fill:none;fill-opacity:1;stroke:#000080;stroke-width:2;stroke-linecap:round;stroke-linejoin:round;stroke-miterlimit:4;stroke-dasharray:none;stroke-opacity:1"
     id="rect6062"
     width="74.117378"
     height="46.003887"
     x="518.82159"
     y="203.20634"
     ry="3.2600901" />
</svg>
