<?xml version="1.0" encoding="UTF-8" standalone="no"?>
<!-- Created with Inkscape (http://www.inkscape.org/) -->

<svg
   xmlns:dc="http://purl.org/dc/elements/1.1/"
   xmlns:cc="http://creativecommons.org/ns#"
   xmlns:rdf="http://www.w3.org/1999/02/22-rdf-syntax-ns#"
   xmlns:svg="http://www.w3.org/2000/svg"
   xmlns="http://www.w3.org/2000/svg"
   xmlns:xlink="http://www.w3.org/1999/xlink"
   xmlns:sodipodi="http://sodipodi.sourceforge.net/DTD/sodipodi-0.dtd"
   xmlns:inkscape="http://www.inkscape.org/namespaces/inkscape"
   id="svg12738"
   version="1.1"
   inkscape:version="0.91 r13725"
   width="1400"
   height="1124"
   viewBox="0 0 1400 1124"
   sodipodi:docname="file_222_160.svg">
  <metadata
     id="metadata12744">
    <rdf:RDF>
      <cc:Work
         rdf:about="">
        <dc:format>image/svg+xml</dc:format>
        <dc:type
           rdf:resource="http://purl.org/dc/dcmitype/StillImage" />
        <dc:title></dc:title>
      </cc:Work>
    </rdf:RDF>
  </metadata>
  <defs
     id="defs12742" />
  <sodipodi:namedview
     pagecolor="#ffffff"
     bordercolor="#666666"
     borderopacity="1"
     objecttolerance="10"
     gridtolerance="10"
     guidetolerance="10"
     inkscape:pageopacity="0"
     inkscape:pageshadow="2"
     inkscape:window-width="1920"
     inkscape:window-height="997"
     id="namedview12740"
     showgrid="false"
     inkscape:zoom="0.59386904"
     inkscape:cx="365.75122"
     inkscape:cy="562"
     inkscape:window-x="-9"
     inkscape:window-y="-9"
     inkscape:window-maximized="1"
     inkscape:current-layer="svg12738" />
  <image
     sodipodi:absref="C:\Users\pierpaolo\Dropbox\Romani-15\Object Recognition New\file_222_160_bath.png"
     xlink:href="file_222_160_bath.png"
     y="0"
     x="0"
     id="image12746"
     preserveAspectRatio="none"
     height="1124"
     width="1400" />
  <rect
     style="fill:none;fill-opacity:1;stroke:#40000f;stroke-width:2;stroke-linecap:round;stroke-linejoin:round;stroke-miterlimit:4;stroke-dasharray:none;stroke-opacity:0.94117647"
     id="rect12748"
     width="80.825897"
     height="171.75504"
     x="31.993586"
     y="923.61914" />
  <rect
     style="fill:none;fill-opacity:1;stroke:#ff000f;stroke-width:2;stroke-linecap:round;stroke-linejoin:round;stroke-miterlimit:4;stroke-dasharray:none;stroke-opacity:0.94117647"
     id="rect13290"
     width="55.567806"
     height="52.200062"
     x="267.73581"
     y="905.0965" />
  <rect
     style="fill:none;fill-opacity:1;stroke:#ff000f;stroke-width:2;stroke-linecap:round;stroke-linejoin:round;stroke-miterlimit:4;stroke-dasharray:none;stroke-opacity:0.94117647"
     id="rect13292"
     width="47.148441"
     height="50.51619"
     x="1313.4209"
     y="179.34729" />
  <rect
     style="fill:none;fill-opacity:1;stroke:#b0000f;stroke-width:2;stroke-linecap:round;stroke-linejoin:round;stroke-miterlimit:4;stroke-dasharray:none;stroke-opacity:0.94117647"
     id="rect13296"
     width="77.458153"
     height="53.883934"
     x="252.58093"
     y="1026.3353" />
  <rect
     style="fill:none;fill-opacity:1;stroke:#00800f;stroke-width:2;stroke-linecap:round;stroke-linejoin:round;stroke-miterlimit:4;stroke-dasharray:none;stroke-opacity:0.94117647"
     id="rect13298"
     width="318.25198"
     height="321.61972"
     x="1047.369"
     y="34.534214" />
  <rect
     style="fill:none;fill-opacity:1;stroke:#0000b0;stroke-width:2;stroke-linecap:round;stroke-linejoin:round;stroke-miterlimit:4;stroke-dasharray:none;stroke-opacity:1"
     id="rect13300"
     width="42.096825"
     height="141.44533"
     x="1075.9948"
     y="378.04428" />
  <rect
     style="fill:none;fill-opacity:1;stroke:#0000b0;stroke-width:2;stroke-linecap:round;stroke-linejoin:round;stroke-miterlimit:4;stroke-dasharray:none;stroke-opacity:1"
     id="rect13302"
     width="254.26482"
     height="170.07117"
     x="1121.4594"
     y="918.5675" />
  <rect
     style="fill:none;fill-opacity:1;stroke:#0000b0;stroke-width:2;stroke-linecap:round;stroke-linejoin:round;stroke-miterlimit:4;stroke-dasharray:none;stroke-opacity:1"
     id="rect13304"
     width="38.729076"
     height="112.81949"
     x="255.94867"
     y="556.53479" />
  <rect
     style="fill:none;fill-opacity:1;stroke:#0000b0;stroke-width:2;stroke-linecap:round;stroke-linejoin:round;stroke-miterlimit:4;stroke-dasharray:none;stroke-opacity:1"
     id="rect13306"
     width="30.309711"
     height="149.86469"
     x="72.406532"
     y="703.0318" />
</svg>
