<?xml version="1.0" encoding="UTF-8" standalone="no"?>
<!-- Created with Inkscape (http://www.inkscape.org/) -->

<svg
   xmlns:dc="http://purl.org/dc/elements/1.1/"
   xmlns:cc="http://creativecommons.org/ns#"
   xmlns:rdf="http://www.w3.org/1999/02/22-rdf-syntax-ns#"
   xmlns:svg="http://www.w3.org/2000/svg"
   xmlns="http://www.w3.org/2000/svg"
   xmlns:xlink="http://www.w3.org/1999/xlink"
   xmlns:sodipodi="http://sodipodi.sourceforge.net/DTD/sodipodi-0.dtd"
   xmlns:inkscape="http://www.inkscape.org/namespaces/inkscape"
   id="svg5846"
   version="1.1"
   inkscape:version="0.91 r13725"
   width="824"
   height="1671"
   viewBox="0 0 824 1671"
   sodipodi:docname="file_66_240.svg">
  <metadata
     id="metadata5852">
    <rdf:RDF>
      <cc:Work
         rdf:about="">
        <dc:format>image/svg+xml</dc:format>
        <dc:type
           rdf:resource="http://purl.org/dc/dcmitype/StillImage" />
        <dc:title />
      </cc:Work>
    </rdf:RDF>
  </metadata>
  <defs
     id="defs5850" />
  <sodipodi:namedview
     pagecolor="#ffffff"
     bordercolor="#666666"
     borderopacity="1"
     objecttolerance="10"
     gridtolerance="10"
     guidetolerance="10"
     inkscape:pageopacity="0"
     inkscape:pageshadow="2"
     inkscape:window-width="1920"
     inkscape:window-height="997"
     id="namedview5848"
     showgrid="false"
     inkscape:zoom="1.1298624"
     inkscape:cx="60.62977"
     inkscape:cy="764.69491"
     inkscape:window-x="-9"
     inkscape:window-y="-9"
     inkscape:window-maximized="1"
     inkscape:current-layer="svg5846" />
  <image
     sodipodi:absref="C:\Users\pierpaolo\Dropbox\Romani-15\GT_Files\..\Object Recognition New\file_66_240_bath.png"
     xlink:href="..\Object Recognition New\file_66_240_bath.png"
     width="824"
     height="1671"
     preserveAspectRatio="none"
     id="image5854"
     x="0"
     y="0" />
  <rect
     style="fill:none;fill-opacity:1;stroke:#400000;stroke-width:2;stroke-linecap:round;stroke-linejoin:round;stroke-miterlimit:4;stroke-dasharray:none;stroke-opacity:1"
     id="rect5856"
     width="30.092161"
     height="75.2304"
     x="213.30032"
     y="517.76221"
     ry="1.92357" />
  <rect
     style="fill:none;fill-opacity:1;stroke:#400000;stroke-width:2;stroke-linecap:round;stroke-linejoin:round;stroke-miterlimit:4;stroke-dasharray:none;stroke-opacity:1"
     id="rect6398"
     width="31.862288"
     height="72.575211"
     x="211.5302"
     y="619.54449"
     ry="1.92357" />
  <rect
     style="fill:none;fill-opacity:1;stroke:#400000;stroke-width:2;stroke-linecap:round;stroke-linejoin:round;stroke-miterlimit:4;stroke-dasharray:none;stroke-opacity:1"
     id="rect6400"
     width="31.862288"
     height="77.000526"
     x="623.08472"
     y="815.14355"
     ry="1.92357" />
  <rect
     style="fill:none;fill-opacity:1;stroke:#b00000;stroke-width:2;stroke-linecap:round;stroke-linejoin:round;stroke-miterlimit:4;stroke-dasharray:none;stroke-opacity:1"
     id="rect6402"
     width="23.011652"
     height="24.78178"
     x="297.38135"
     y="614.23413"
     ry="1.92357" />
  <rect
     style="fill:none;fill-opacity:1;stroke:#b00000;stroke-width:2;stroke-linecap:round;stroke-linejoin:round;stroke-miterlimit:4;stroke-dasharray:none;stroke-opacity:1"
     id="rect6404"
     width="18.586334"
     height="24.78178"
     x="299.15149"
     y="576.17639"
     ry="1.92357" />
  <rect
     style="fill:none;fill-opacity:1;stroke:#b00000;stroke-width:2;stroke-linecap:round;stroke-linejoin:round;stroke-miterlimit:4;stroke-dasharray:none;stroke-opacity:1"
     id="rect6406"
     width="16.816208"
     height="26.551907"
     x="576.17639"
     y="811.60327"
     ry="1.92357" />
  <rect
     style="fill:none;fill-opacity:1;stroke:#ff0000;stroke-width:2;stroke-linecap:round;stroke-linejoin:round;stroke-miterlimit:4;stroke-dasharray:none;stroke-opacity:1"
     id="rect6408"
     width="32.747353"
     height="23.011652"
     x="266.40414"
     y="679.72882"
     ry="1.92357" />
  <rect
     style="fill:none;fill-opacity:1;stroke:#ff0000;stroke-width:2;stroke-linecap:round;stroke-linejoin:round;stroke-miterlimit:4;stroke-dasharray:none;stroke-opacity:1"
     id="rect6410"
     width="17.701271"
     height="27.43697"
     x="267.28918"
     y="613.34906"
     ry="1.92357" />
  <rect
     style="fill:none;fill-opacity:1;stroke:#ff0000;stroke-width:2;stroke-linecap:round;stroke-linejoin:round;stroke-miterlimit:4;stroke-dasharray:none;stroke-opacity:1"
     id="rect6412"
     width="17.701271"
     height="25.666843"
     x="268.17426"
     y="575.29132"
     ry="1.92357" />
  <rect
     style="fill:none;fill-opacity:1;stroke:#ff0000;stroke-width:2;stroke-linecap:round;stroke-linejoin:round;stroke-miterlimit:4;stroke-dasharray:none;stroke-opacity:1"
     id="rect6414"
     width="38.057732"
     height="19.471397"
     x="263.74893"
     y="517.76221"
     ry="1.92357" />
  <rect
     style="fill:none;fill-opacity:1;stroke:#ff0000;stroke-width:2;stroke-linecap:round;stroke-linejoin:round;stroke-miterlimit:4;stroke-dasharray:none;stroke-opacity:1"
     id="rect6416"
     width="19.471397"
     height="26.551907"
     x="539.00372"
     y="811.60327"
     ry="1.92357" />
  <rect
     style="fill:none;fill-opacity:1;stroke:#ff0000;stroke-width:2;stroke-linecap:round;stroke-linejoin:round;stroke-miterlimit:4;stroke-dasharray:none;stroke-opacity:1"
     id="rect6418"
     width="34.517479"
     height="21.241526"
     x="564.67053"
     y="872.67267"
     ry="1.92357" />
  <rect
     style="fill:none;fill-opacity:1;stroke:#0000ff;stroke-width:2;stroke-linecap:round;stroke-linejoin:round;stroke-miterlimit:4;stroke-dasharray:none;stroke-opacity:1"
     id="rect6420"
     width="146.92056"
     height="122.13879"
     x="59.299259"
     y="869.13245"
     ry="0" />
  <rect
     style="fill:none;fill-opacity:1;stroke:#0000ff;stroke-width:2;stroke-linecap:round;stroke-linejoin:round;stroke-miterlimit:4;stroke-dasharray:none;stroke-opacity:1"
     id="rect6422"
     width="103.55244"
     height="167.27701"
     x="554.93488"
     y="513.33685" />
  <rect
     style="fill:none;fill-opacity:1;stroke:#000080;stroke-width:2;stroke-linecap:round;stroke-linejoin:round;stroke-miterlimit:4;stroke-dasharray:none;stroke-opacity:1"
     id="rect6424"
     width="70.805084"
     height="69.920021"
     x="77.000526"
     y="746.99365" />
  <rect
     style="fill:none;fill-opacity:1;stroke:#000080;stroke-width:2;stroke-linecap:round;stroke-linejoin:round;stroke-miterlimit:4;stroke-dasharray:none;stroke-opacity:1"
     id="rect6426"
     width="51.333687"
     height="34.517479"
     x="339.86441"
     y="973.56989" />
  <rect
     style="fill:none;fill-opacity:1;stroke:#000080;stroke-width:2;stroke-linecap:round;stroke-linejoin:round;stroke-miterlimit:4;stroke-dasharray:none;stroke-opacity:1"
     id="rect6428"
     width="30.092161"
     height="28.322035"
     x="212.41525"
     y="881.52332" />
  <rect
     style="fill:none;fill-opacity:1;stroke:#000040;stroke-width:2;stroke-linecap:round;stroke-linejoin:round;stroke-miterlimit:4;stroke-dasharray:none;stroke-opacity:1"
     id="rect6430"
     width="141.61017"
     height="244.27751"
     x="60.184322"
     y="457.57785" />
  <rect
     style="fill:none;fill-opacity:1;stroke:#00b000;stroke-width:2;stroke-linecap:round;stroke-linejoin:round;stroke-miterlimit:4;stroke-dasharray:none;stroke-opacity:1"
     id="rect6432"
     width="101.78231"
     height="84.081039"
     x="444.30191"
     y="532.80829" />
  <rect
     style="fill:none;fill-opacity:1;stroke:#00b000;stroke-width:2;stroke-linecap:round;stroke-linejoin:round;stroke-miterlimit:4;stroke-dasharray:none;stroke-opacity:1"
     id="rect6434"
     width="100.01218"
     height="83.195976"
     x="558.4751"
     y="989.50104" />
  <rect
     style="fill:none;fill-opacity:1;stroke:#00b000;stroke-width:2;stroke-linecap:round;stroke-linejoin:round;stroke-miterlimit:4;stroke-dasharray:none;stroke-opacity:1"
     id="rect6436"
     width="79.655724"
     height="97.356995"
     x="187.63347"
     y="762.03973" />
  <rect
     style="fill:none;fill-opacity:1;stroke:#00ff00;stroke-width:2;stroke-linecap:round;stroke-linejoin:round;stroke-miterlimit:4;stroke-dasharray:none;stroke-opacity:1"
     id="rect6438"
     width="93.816734"
     height="35.402542"
     x="254.8983"
     y="873.55774" />
  <rect
     style="fill:none;fill-opacity:1;stroke:#00ff00;stroke-width:2;stroke-linecap:round;stroke-linejoin:round;stroke-miterlimit:4;stroke-dasharray:none;stroke-opacity:1"
     id="rect6440"
     width="38.942795"
     height="62.839512"
     x="414.20975"
     y="944.36279" />
  <rect
     style="fill:none;fill-opacity:1;stroke:#000040;stroke-width:2;stroke-linecap:round;stroke-linejoin:round;stroke-miterlimit:4;stroke-dasharray:none;stroke-opacity:1"
     id="rect6442"
     width="137.18484"
     height="116.82839"
     x="58.414196"
     y="1026.6737" />
  <rect
     style="fill:none;fill-opacity:1;stroke:#000080;stroke-width:2;stroke-linecap:round;stroke-linejoin:round;stroke-miterlimit:4;stroke-dasharray:none;stroke-opacity:1"
     id="rect4157"
     width="22.126589"
     height="18.586334"
     x="636.36066"
     y="1072.697"
     ry="2.3354599" />
  <rect
     style="fill:none;fill-opacity:1;stroke:#000080;stroke-width:2;stroke-linecap:round;stroke-linejoin:round;stroke-miterlimit:4;stroke-dasharray:none;stroke-opacity:1"
     id="rect4159"
     width="21.241524"
     height="19.471397"
     x="638.1308"
     y="969.14465"
     ry="2.3354599" />
  <rect
     style="fill:none;fill-opacity:1;stroke:#000080;stroke-width:2;stroke-linecap:round;stroke-linejoin:round;stroke-miterlimit:4;stroke-dasharray:none;stroke-opacity:1"
     id="rect4161"
     width="21.241524"
     height="18.586334"
     x="164.62181"
     y="841.6955"
     ry="2.3354599" />
  <rect
     style="fill:none;fill-opacity:1;stroke:#000080;stroke-width:2;stroke-linecap:round;stroke-linejoin:round;stroke-miterlimit:4;stroke-dasharray:none;stroke-opacity:1"
     id="rect4163"
     width="21.241531"
     height="19.47142"
     x="267.28918"
     y="840.81042"
     ry="2.3354599" />
  <rect
     style="fill:none;fill-opacity:1;stroke:#000080;stroke-width:2;stroke-linecap:round;stroke-linejoin:round;stroke-miterlimit:4;stroke-dasharray:none;stroke-opacity:1"
     id="rect4165"
     width="23.011652"
     height="18.586334"
     x="523.95758"
     y="616.88934"
     ry="2.3354599" />
  <rect
     style="fill:none;fill-opacity:1;stroke:#000080;stroke-width:2;stroke-linecap:round;stroke-linejoin:round;stroke-miterlimit:4;stroke-dasharray:none;stroke-opacity:1"
     id="rect4167"
     width="21.241524"
     height="18.586334"
     x="523.95758"
     y="514.22198"
     ry="2.3354599" />
  <rect
     style="fill:none;fill-opacity:1;stroke:#000040;stroke-width:2;stroke-linecap:round;stroke-linejoin:round;stroke-miterlimit:4;stroke-dasharray:none;stroke-opacity:1"
     id="rect4169"
     width="138.95497"
     height="120.36864"
     x="60.184319"
     y="1026.6737"
     ry="2.3354599" />
</svg>
