<?xml version="1.0" encoding="UTF-8" standalone="no"?>
<!-- Created with Inkscape (http://www.inkscape.org/) -->

<svg
   xmlns:dc="http://purl.org/dc/elements/1.1/"
   xmlns:cc="http://creativecommons.org/ns#"
   xmlns:rdf="http://www.w3.org/1999/02/22-rdf-syntax-ns#"
   xmlns:svg="http://www.w3.org/2000/svg"
   xmlns="http://www.w3.org/2000/svg"
   xmlns:xlink="http://www.w3.org/1999/xlink"
   xmlns:sodipodi="http://sodipodi.sourceforge.net/DTD/sodipodi-0.dtd"
   xmlns:inkscape="http://www.inkscape.org/namespaces/inkscape"
   id="svg14123"
   version="1.1"
   inkscape:version="0.91 r13725"
   width="1653"
   height="2339"
   viewBox="0 0 1653 2339"
   sodipodi:docname="italy_026_250.svg">
  <metadata
     id="metadata14129">
    <rdf:RDF>
      <cc:Work
         rdf:about="">
        <dc:format>image/svg+xml</dc:format>
        <dc:type
           rdf:resource="http://purl.org/dc/dcmitype/StillImage" />
        <dc:title />
      </cc:Work>
    </rdf:RDF>
  </metadata>
  <defs
     id="defs14127" />
  <sodipodi:namedview
     pagecolor="#ffffff"
     bordercolor="#666666"
     borderopacity="1"
     objecttolerance="10"
     gridtolerance="10"
     guidetolerance="10"
     inkscape:pageopacity="0"
     inkscape:pageshadow="2"
     inkscape:window-width="1920"
     inkscape:window-height="997"
     id="namedview14125"
     showgrid="false"
     inkscape:zoom="0.80718256"
     inkscape:cx="576.80716"
     inkscape:cy="930.22693"
     inkscape:window-x="-9"
     inkscape:window-y="-9"
     inkscape:window-maximized="1"
     inkscape:current-layer="svg14123" />
  <image
     sodipodi:absref="C:\Users\pierpaolo\Dropbox\Romani-15\GT_Files\italy_026_250.png"
     xlink:href="italy_026_250.png"
     width="1653"
     height="2339"
     preserveAspectRatio="none"
     id="image14131"
     x="0"
     y="0" />
  <rect
     style="fill:none;fill-opacity:1;stroke:#00b000;stroke-width:2.08471513;stroke-linecap:round;stroke-linejoin:round;stroke-miterlimit:4;stroke-dasharray:none;stroke-opacity:1"
     id="rect14135"
     width="37.946938"
     height="95.976707"
     x="913.3667"
     y="1699.549"
     ry="2.3012898" />
  <rect
     style="fill:none;fill-opacity:1;stroke:#00b000;stroke-width:2;stroke-linecap:round;stroke-linejoin:round;stroke-miterlimit:4;stroke-dasharray:none;stroke-opacity:1"
     id="rect14137"
     width="52.561104"
     height="89.353882"
     x="1016.1813"
     y="1697.7545"
     ry="2.1845" />
  <rect
     style="fill:none;fill-opacity:1;stroke:#00b000;stroke-width:2;stroke-linecap:round;stroke-linejoin:round;stroke-miterlimit:4;stroke-dasharray:none;stroke-opacity:1"
     id="rect14139"
     width="36.792774"
     height="96.362022"
     x="914.56323"
     y="1820.3971"
     ry="2.1845" />
  <rect
     style="fill:none;fill-opacity:1;stroke:#00b000;stroke-width:2;stroke-linecap:round;stroke-linejoin:round;stroke-miterlimit:4;stroke-dasharray:none;stroke-opacity:1"
     id="rect14141"
     width="47.304993"
     height="98.114059"
     x="1021.4374"
     y="1823.9011"
     ry="2.1845" />
  <rect
     style="fill:none;fill-opacity:1;stroke:#00b000;stroke-width:2;stroke-linecap:round;stroke-linejoin:round;stroke-miterlimit:4;stroke-dasharray:none;stroke-opacity:1"
     id="rect14143"
     width="92.857948"
     height="92.857948"
     x="963.62024"
     y="2146.2759"
     ry="2.1845" />
  <rect
     style="fill:none;fill-opacity:1;stroke:#00b000;stroke-width:2;stroke-linecap:round;stroke-linejoin:round;stroke-miterlimit:4;stroke-dasharray:none;stroke-opacity:1"
     id="rect14145"
     width="92.857948"
     height="103.37017"
     x="963.62024"
     y="1476.9979"
     ry="2.1845" />
  <rect
     style="fill:none;fill-opacity:1;stroke:#00b000;stroke-width:2.11983299;stroke-linecap:round;stroke-linejoin:round;stroke-miterlimit:4;stroke-dasharray:none;stroke-opacity:1"
     id="rect14147"
     width="90.172325"
     height="78.934387"
     x="960.98987"
     y="802.52362"
     ry="2.2887933" />
  <rect
     style="fill:none;fill-opacity:1;stroke:#00b000;stroke-width:2.09910107;stroke-linecap:round;stroke-linejoin:round;stroke-miterlimit:4;stroke-dasharray:none;stroke-opacity:1"
     id="rect14149"
     width="50.709965"
     height="104.4219"
     x="909.35669"
     y="581.75665"
     ry="2.4110525" />
  <rect
     style="fill:none;fill-opacity:1;stroke:#00b000;stroke-width:2;stroke-linecap:round;stroke-linejoin:round;stroke-miterlimit:4;stroke-dasharray:none;stroke-opacity:1"
     id="rect14151"
     width="42.048885"
     height="96.362022"
     x="1023.1895"
     y="586.9632"
     ry="2.1845" />
  <rect
     style="fill:none;fill-opacity:1;stroke:#00b000;stroke-width:2;stroke-linecap:round;stroke-linejoin:round;stroke-miterlimit:4;stroke-dasharray:none;stroke-opacity:1"
     id="rect14153"
     width="45.552956"
     height="99.866096"
     x="911.05914"
     y="464.32059"
     ry="2.1845" />
  <rect
     style="fill:none;fill-opacity:1;stroke:#00b000;stroke-width:2;stroke-linecap:round;stroke-linejoin:round;stroke-miterlimit:4;stroke-dasharray:none;stroke-opacity:1"
     id="rect14155"
     width="47.304993"
     height="101.61813"
     x="1021.4374"
     y="462.56857"
     ry="2.1845" />
  <rect
     style="fill:none;fill-opacity:1;stroke:#00b000;stroke-width:2;stroke-linecap:round;stroke-linejoin:round;stroke-miterlimit:4;stroke-dasharray:none;stroke-opacity:1"
     id="rect14157"
     width="91.105911"
     height="94.609985"
     x="961.86823"
     y="143.69786"
     ry="2.1845" />
  <rect
     style="fill:none;fill-opacity:1;stroke:#00ff00;stroke-width:2;stroke-linecap:round;stroke-linejoin:round;stroke-miterlimit:4;stroke-dasharray:none;stroke-opacity:1"
     id="rect14159"
     width="87.601845"
     height="42.048885"
     x="411.72867"
     y="1410.4205"
     ry="2.1845" />
  <rect
     style="fill:none;fill-opacity:1;stroke:#00ff00;stroke-width:3.17786312;stroke-linecap:round;stroke-linejoin:round;stroke-miterlimit:4;stroke-dasharray:none;stroke-opacity:1"
     id="rect14703"
     width="113.23903"
     height="152.27567"
     x="576.47455"
     y="755.74768"
     ry="2.133287" />
  <rect
     style="fill:none;fill-opacity:1;stroke:#00ff00;stroke-width:2;stroke-linecap:round;stroke-linejoin:round;stroke-miterlimit:4;stroke-dasharray:none;stroke-opacity:1"
     id="rect14705"
     width="45.552956"
     height="75.337585"
     x="509.84271"
     y="784.94336"
     ry="2.1845" />
  <rect
     style="fill:none;fill-opacity:1;stroke:#00ff00;stroke-width:2;stroke-linecap:round;stroke-linejoin:round;stroke-miterlimit:4;stroke-dasharray:none;stroke-opacity:1"
     id="rect14707"
     width="84.097771"
     height="42.048885"
     x="558.89972"
     y="742.89447"
     ry="2.1845" />
  <rect
     style="fill:none;fill-opacity:1;stroke:#00ff00;stroke-width:2;stroke-linecap:round;stroke-linejoin:round;stroke-miterlimit:4;stroke-dasharray:none;stroke-opacity:1"
     id="rect14709"
     width="82.345734"
     height="33.2887"
     x="515.09882"
     y="658.79669"
     ry="2.1845" />
  <rect
     style="fill:none;fill-opacity:1;stroke:#00ff00;stroke-width:2;stroke-linecap:round;stroke-linejoin:round;stroke-miterlimit:4;stroke-dasharray:none;stroke-opacity:1"
     id="rect14711"
     width="42.048885"
     height="43.800922"
     x="450.27347"
     y="593.97131"
     ry="2.1845" />
  <rect
     style="fill:none;fill-opacity:1;stroke:#00ff00;stroke-width:2;stroke-linecap:round;stroke-linejoin:round;stroke-miterlimit:4;stroke-dasharray:none;stroke-opacity:1"
     id="rect14713"
     width="54.313141"
     height="52.561104"
     x="448.52142"
     y="515.12964"
     ry="2.1845" />
  <rect
     style="fill:none;fill-opacity:1;stroke:#00ff00;stroke-width:2;stroke-linecap:round;stroke-linejoin:round;stroke-miterlimit:4;stroke-dasharray:none;stroke-opacity:1"
     id="rect14715"
     width="43.800922"
     height="91.105911"
     x="613.21289"
     y="551.92242"
     ry="2.1845" />
  <rect
     style="fill:none;fill-opacity:1;stroke:#000080;stroke-width:2;stroke-linecap:round;stroke-linejoin:round;stroke-miterlimit:4;stroke-dasharray:none;stroke-opacity:1"
     id="rect14719"
     width="99.866096"
     height="103.37017"
     x="436.25717"
     y="947.88275"
     ry="2.1845" />
  <rect
     style="fill:none;fill-opacity:1;stroke:#000080;stroke-width:2;stroke-linecap:round;stroke-linejoin:round;stroke-miterlimit:4;stroke-dasharray:none;stroke-opacity:1"
     id="rect14721"
     width="24.528515"
     height="50.809067"
     x="446.76938"
     y="1340.339"
     ry="2.1845" />
  <rect
     style="fill:none;fill-opacity:1;stroke:#000080;stroke-width:2;stroke-linecap:round;stroke-linejoin:round;stroke-miterlimit:4;stroke-dasharray:none;stroke-opacity:1"
     id="rect14723"
     width="28.032589"
     height="28.032589"
     x="425.74493"
     y="1293.0341"
     ry="2.1845" />
  <rect
     style="fill:none;fill-opacity:1;stroke:#000080;stroke-width:2;stroke-linecap:round;stroke-linejoin:round;stroke-miterlimit:4;stroke-dasharray:none;stroke-opacity:1"
     id="rect14725"
     width="24.528515"
     height="26.280552"
     x="471.29791"
     y="1293.0341"
     ry="2.1845" />
  <rect
     style="fill:none;fill-opacity:1;stroke:#000080;stroke-width:2;stroke-linecap:round;stroke-linejoin:round;stroke-miterlimit:4;stroke-dasharray:none;stroke-opacity:1"
     id="rect14727"
     width="22.776478"
     height="26.280552"
     x="502.83456"
     y="1331.5789"
     ry="2.1845" />
  <rect
     style="fill:none;fill-opacity:1;stroke:#000080;stroke-width:2;stroke-linecap:round;stroke-linejoin:round;stroke-miterlimit:4;stroke-dasharray:none;stroke-opacity:1"
     id="rect14729"
     width="73.585548"
     height="71.833511"
     x="434.50513"
     y="812.97595"
     ry="2.1845" />
  <rect
     style="fill:none;fill-opacity:1;stroke:#000080;stroke-width:2;stroke-linecap:round;stroke-linejoin:round;stroke-miterlimit:4;stroke-dasharray:none;stroke-opacity:1"
     id="rect14731"
     width="33.2887"
     height="71.833511"
     x="541.37939"
     y="553.6745"
     ry="2.1845" />
  <rect
     style="fill:none;fill-opacity:1;stroke:#000080;stroke-width:2;stroke-linecap:round;stroke-linejoin:round;stroke-miterlimit:4;stroke-dasharray:none;stroke-opacity:1"
     id="rect14733"
     width="105.12221"
     height="103.37017"
     x="481.81012"
     y="1797.6206"
     ry="2.1845" />
  <rect
     style="fill:none;fill-opacity:1;stroke:#000080;stroke-width:2;stroke-linecap:round;stroke-linejoin:round;stroke-miterlimit:4;stroke-dasharray:none;stroke-opacity:1"
     id="rect14735"
     width="98.114059"
     height="113.88239"
     x="679.79028"
     y="1788.8605"
     ry="2.1845" />
  <rect
     style="fill:none;fill-opacity:1;stroke:#000080;stroke-width:2;stroke-linecap:round;stroke-linejoin:round;stroke-miterlimit:4;stroke-dasharray:none;stroke-opacity:1"
     id="rect14737"
     width="108.62628"
     height="110.37832"
     x="586.93231"
     y="1685.4902"
     ry="2.1845" />
  <rect
     style="fill:none;fill-opacity:1;stroke:#000080;stroke-width:2;stroke-linecap:round;stroke-linejoin:round;stroke-miterlimit:4;stroke-dasharray:none;stroke-opacity:1"
     id="rect14739"
     width="99.866096"
     height="112.13036"
     x="429.24902"
     y="1657.4576"
     ry="2.1845" />
  <rect
     style="fill:none;fill-opacity:1;stroke:#000080;stroke-width:2;stroke-linecap:round;stroke-linejoin:round;stroke-miterlimit:4;stroke-dasharray:none;stroke-opacity:1"
     id="rect14741"
     width="110.37832"
     height="108.62628"
     x="511.59476"
     y="1533.0631"
     ry="2.1845" />
  <rect
     style="fill:none;fill-opacity:1;stroke:#000080;stroke-width:2;stroke-linecap:round;stroke-linejoin:round;stroke-miterlimit:4;stroke-dasharray:none;stroke-opacity:1"
     id="rect14743"
     width="103.37017"
     height="113.88239"
     x="669.27808"
     y="1573.3599"
     ry="2.1845" />
  <rect
     style="fill:none;fill-opacity:1;stroke:#ff0000;stroke-width:1.30012691;stroke-linecap:round;stroke-linejoin:round;stroke-miterlimit:4;stroke-dasharray:none;stroke-opacity:1"
     id="rect14745"
     width="17.069408"
     height="12.539016"
     x="994.80701"
     y="329.78952"
     ry="1.4212798" />
  <rect
     style="fill:none;fill-opacity:1;stroke:#ff0000;stroke-width:2;stroke-linecap:round;stroke-linejoin:round;stroke-miterlimit:4;stroke-dasharray:none;stroke-opacity:1"
     id="rect14747"
     width="24.528515"
     height="10.512221"
     x="840.97766"
     y="169.97841"
     ry="2.1845" />
  <rect
     style="fill:none;fill-opacity:1;stroke:#ff0000;stroke-width:2;stroke-linecap:round;stroke-linejoin:round;stroke-miterlimit:4;stroke-dasharray:none;stroke-opacity:1"
     id="rect14749"
     width="22.776478"
     height="15.768332"
     x="842.72974"
     y="201.51508"
     ry="2.1845" />
  <rect
     style="fill:none;fill-opacity:1;stroke:#ff0000;stroke-width:1.42997921;stroke-linecap:round;stroke-linejoin:round;stroke-miterlimit:4;stroke-dasharray:none;stroke-opacity:1"
     id="rect14751"
     width="13.648041"
     height="11.382844"
     x="996.6239"
     y="365.62091"
     ry="1.576947" />
  <rect
     style="fill:none;fill-opacity:1;stroke:#ff0000;stroke-width:2;stroke-linecap:round;stroke-linejoin:round;stroke-miterlimit:4;stroke-dasharray:none;stroke-opacity:1"
     id="rect14753"
     width="24.528515"
     height="19.272406"
     x="991.65283"
     y="770.92706"
     ry="2.1845" />
  <rect
     style="fill:none;fill-opacity:1;stroke:#ff0000;stroke-width:2;stroke-linecap:round;stroke-linejoin:round;stroke-miterlimit:4;stroke-dasharray:none;stroke-opacity:1"
     id="rect14755"
     width="17.520369"
     height="22.776478"
     x="981.14062"
     y="1058.2611"
     ry="2.1845" />
  <rect
     style="fill:none;fill-opacity:1;stroke:#ff0000;stroke-width:1.28345561;stroke-linecap:round;stroke-linejoin:round;stroke-miterlimit:4;stroke-dasharray:none;stroke-opacity:1"
     id="rect14757"
     width="18.625553"
     height="18.324923"
     x="996.97571"
     y="1331.4331"
     ry="1.5232118" />
  <rect
     style="fill:none;fill-opacity:1;stroke:#ff0000;stroke-width:2;stroke-linecap:round;stroke-linejoin:round;stroke-miterlimit:4;stroke-dasharray:none;stroke-opacity:1"
     id="rect14759"
     width="24.528515"
     height="17.520369"
     x="991.65283"
     y="1594.3844"
     ry="2.1845" />
  <rect
     style="fill:none;fill-opacity:1;stroke:#ff0000;stroke-width:1.75253177;stroke-linecap:round;stroke-linejoin:round;stroke-miterlimit:4;stroke-dasharray:none;stroke-opacity:1"
     id="rect14761"
     width="22.510788"
     height="15.077525"
     x="991.52911"
     y="2002.4851"
     ry="1.5665982" />
  <rect
     style="fill:none;fill-opacity:1;stroke:#ff0000;stroke-width:1.56707823;stroke-linecap:round;stroke-linejoin:round;stroke-miterlimit:4;stroke-dasharray:none;stroke-opacity:1"
     id="rect14763"
     width="19.705328"
     height="10.520027"
     x="994.42737"
     y="2039.3977"
     ry="1.3116734" />
  <rect
     style="fill:none;fill-opacity:1;stroke:#b00000;stroke-width:2;stroke-linecap:round;stroke-linejoin:round;stroke-miterlimit:4;stroke-dasharray:none;stroke-opacity:1"
     id="rect14765"
     width="26.280552"
     height="29.784626"
     x="1028.4456"
     y="2039.4017"
     ry="2.1845" />
  <rect
     style="fill:none;fill-opacity:1;stroke:#b00000;stroke-width:2;stroke-linecap:round;stroke-linejoin:round;stroke-miterlimit:4;stroke-dasharray:none;stroke-opacity:1"
     id="rect14767"
     width="22.776478"
     height="38.544811"
     x="1028.4456"
     y="1985.0885"
     ry="2.1845" />
  <rect
     style="fill:none;fill-opacity:1;stroke:#b00000;stroke-width:2;stroke-linecap:round;stroke-linejoin:round;stroke-miterlimit:4;stroke-dasharray:none;stroke-opacity:1"
     id="rect14769"
     width="22.776478"
     height="36.792774"
     x="1028.4456"
     y="1590.8802"
     ry="2.1845" />
  <rect
     style="fill:none;fill-opacity:1;stroke:#b00000;stroke-width:1.74223602;stroke-linecap:round;stroke-linejoin:round;stroke-miterlimit:4;stroke-dasharray:none;stroke-opacity:1"
     id="rect14771"
     width="21.069647"
     height="35.599102"
     x="1028.5293"
     y="1059.5836"
     ry="1.9298344" />
  <rect
     style="fill:none;fill-opacity:1;stroke:#b00000;stroke-width:2;stroke-linecap:round;stroke-linejoin:round;stroke-miterlimit:4;stroke-dasharray:none;stroke-opacity:1"
     id="rect14773"
     width="22.776478"
     height="35.040737"
     x="1031.9497"
     y="753.40668"
     ry="2.1845" />
  <rect
     style="fill:none;fill-opacity:1;stroke:#b00000;stroke-width:2;stroke-linecap:round;stroke-linejoin:round;stroke-miterlimit:4;stroke-dasharray:none;stroke-opacity:1"
     id="rect14775"
     width="24.528515"
     height="28.032589"
     x="1028.4456"
     y="362.70245"
     ry="2.1845" />
  <rect
     style="fill:none;fill-opacity:1;stroke:#b00000;stroke-width:2;stroke-linecap:round;stroke-linejoin:round;stroke-miterlimit:4;stroke-dasharray:none;stroke-opacity:1"
     id="rect14777"
     width="24.528515"
     height="31.536663"
     x="1028.4456"
     y="310.14136"
     ry="2.1845" />
  <rect
     style="fill:none;fill-opacity:1;stroke:#b00000;stroke-width:2;stroke-linecap:round;stroke-linejoin:round;stroke-miterlimit:4;stroke-dasharray:none;stroke-opacity:1"
     id="rect14779"
     width="36.792774"
     height="17.520369"
     x="862.00214"
     y="220.78748"
     ry="2.1845" />
  <rect
     style="fill:none;fill-opacity:1;stroke:#b00000;stroke-width:1.82128096;stroke-linecap:round;stroke-linejoin:round;stroke-miterlimit:4;stroke-dasharray:none;stroke-opacity:1"
     id="rect14781"
     width="33.042305"
     height="15.947051"
     x="863.66479"
     y="145.36053"
     ry="2.2092593" />
  <rect
     style="fill:none;fill-opacity:1;stroke:#000040;stroke-width:1.83303952;stroke-linecap:round;stroke-linejoin:round;stroke-miterlimit:4;stroke-dasharray:none;stroke-opacity:1"
     id="rect14783"
     width="28.199549"
     height="55.594463"
     x="416.1756"
     y="2030.2573"
     ry="1.8241341" />
  <rect
     style="fill:none;fill-opacity:1;stroke:#000080;stroke-width:2;stroke-linecap:round;stroke-linejoin:round;stroke-miterlimit:4;stroke-dasharray:none;stroke-opacity:1"
     id="rect14785"
     width="63.073326"
     height="59.569244"
     x="508.09067"
     y="338.17395"
     ry="2.1845" />
  <rect
     style="fill:none;fill-opacity:1;stroke:#000080;stroke-width:2;stroke-linecap:round;stroke-linejoin:round;stroke-miterlimit:4;stroke-dasharray:none;stroke-opacity:1"
     id="rect14787"
     width="77.089638"
     height="87.601845"
     x="655.26178"
     y="212.0273"
     ry="2.1845" />
  <rect
     style="fill:none;fill-opacity:1;stroke:#ff0000;stroke-width:2;stroke-linecap:round;stroke-linejoin:round;stroke-miterlimit:4;stroke-dasharray:none;stroke-opacity:1"
     id="rect14789"
     width="12.264257"
     height="22.776478"
     x="784.91248"
     y="1478.7499"
     ry="2.1845" />
  <rect
     style="fill:none;fill-opacity:1;stroke:#ff0000;stroke-width:2;stroke-linecap:round;stroke-linejoin:round;stroke-miterlimit:4;stroke-dasharray:none;stroke-opacity:1"
     id="rect14791"
     width="22.776478"
     height="15.768332"
     x="686.79846"
     y="1468.2377"
     ry="2.1845" />
  <rect
     style="fill:none;fill-opacity:1;stroke:#b00000;stroke-width:2;stroke-linecap:round;stroke-linejoin:round;stroke-miterlimit:4;stroke-dasharray:none;stroke-opacity:1"
     id="rect14793"
     width="38.544811"
     height="17.520369"
     x="693.80658"
     y="1494.5183"
     ry="2.1845" />
  <rect
     style="fill:none;fill-opacity:1;stroke:#b00000;stroke-width:2;stroke-linecap:round;stroke-linejoin:round;stroke-miterlimit:4;stroke-dasharray:none;stroke-opacity:1"
     id="rect14795"
     width="24.528515"
     height="33.2887"
     x="751.62378"
     y="1508.5345"
     ry="2.1845" />
</svg>
