<?xml version="1.0" encoding="UTF-8" standalone="no"?>
<!-- Created with Inkscape (http://www.inkscape.org/) -->

<svg
   xmlns:dc="http://purl.org/dc/elements/1.1/"
   xmlns:cc="http://creativecommons.org/ns#"
   xmlns:rdf="http://www.w3.org/1999/02/22-rdf-syntax-ns#"
   xmlns:svg="http://www.w3.org/2000/svg"
   xmlns="http://www.w3.org/2000/svg"
   xmlns:xlink="http://www.w3.org/1999/xlink"
   xmlns:sodipodi="http://sodipodi.sourceforge.net/DTD/sodipodi-0.dtd"
   xmlns:inkscape="http://www.inkscape.org/namespaces/inkscape"
   id="svg12299"
   version="1.1"
   inkscape:version="0.91 r13725"
   width="2476"
   height="3212"
   viewBox="0 0 2476 3212"
   sodipodi:docname="italy_023_250.svg">
  <metadata
     id="metadata12305">
    <rdf:RDF>
      <cc:Work
         rdf:about="">
        <dc:format>image/svg+xml</dc:format>
        <dc:type
           rdf:resource="http://purl.org/dc/dcmitype/StillImage" />
        <dc:title />
      </cc:Work>
    </rdf:RDF>
  </metadata>
  <defs
     id="defs12303" />
  <sodipodi:namedview
     pagecolor="#ffffff"
     bordercolor="#666666"
     borderopacity="1"
     objecttolerance="10"
     gridtolerance="10"
     guidetolerance="10"
     inkscape:pageopacity="0"
     inkscape:pageshadow="2"
     inkscape:window-width="1920"
     inkscape:window-height="997"
     id="namedview12301"
     showgrid="false"
     inkscape:zoom="0.41563437"
     inkscape:cx="1119.8632"
     inkscape:cy="1413.5231"
     inkscape:window-x="-9"
     inkscape:window-y="-9"
     inkscape:window-maximized="1"
     inkscape:current-layer="svg12299" />
  <image
     sodipodi:absref="C:\Users\pierpaolo\Dropbox\Romani-15\GT_Files\italy_023_250.png"
     xlink:href="italy_023_250.png"
     width="2476"
     height="3212"
     preserveAspectRatio="none"
     id="image12307"
     x="0"
     y="0" />
  <rect
     style="fill:none;fill-opacity:1;stroke:#ff0000;stroke-width:2;stroke-linecap:round;stroke-linejoin:round;stroke-miterlimit:4;stroke-dasharray:none;stroke-opacity:1"
     id="rect12309"
     width="69.772865"
     height="16.841726"
     x="1092.3062"
     y="2559.9846"
     ry="2.1845" />
  <rect
     style="fill:none;fill-opacity:1;stroke:#ff0000;stroke-width:2;stroke-linecap:round;stroke-linejoin:round;stroke-miterlimit:4;stroke-dasharray:none;stroke-opacity:1"
     id="rect12851"
     width="38.495373"
     height="24.059608"
     x="1426.7347"
     y="2588.8562"
     ry="2.1845" />
  <rect
     style="fill:none;fill-opacity:1;stroke:#ff0000;stroke-width:2;stroke-linecap:round;stroke-linejoin:round;stroke-miterlimit:4;stroke-dasharray:none;stroke-opacity:1"
     id="rect12853"
     width="31.277491"
     height="24.059608"
     x="1503.7255"
     y="2591.2622"
     ry="2.1845" />
  <rect
     style="fill:none;fill-opacity:1;stroke:#ff0000;stroke-width:2;stroke-linecap:round;stroke-linejoin:round;stroke-miterlimit:4;stroke-dasharray:none;stroke-opacity:1"
     id="rect12855"
     width="57.743057"
     height="38.495373"
     x="2206.2661"
     y="1763.6116"
     ry="2.1845" />
  <rect
     style="fill:none;fill-opacity:1;stroke:#ff0000;stroke-width:2;stroke-linecap:round;stroke-linejoin:round;stroke-miterlimit:4;stroke-dasharray:none;stroke-opacity:1"
     id="rect12857"
     width="55.337097"
     height="40.901333"
     x="2206.2661"
     y="1720.3043"
     ry="2.1845" />
  <rect
     style="fill:none;fill-opacity:1;stroke:#ff0000;stroke-width:2;stroke-linecap:round;stroke-linejoin:round;stroke-miterlimit:4;stroke-dasharray:none;stroke-opacity:1"
     id="rect12859"
     width="50.525177"
     height="45.713257"
     x="2211.0779"
     y="1178.9631"
     ry="2.1845" />
  <rect
     style="fill:none;fill-opacity:1;stroke:#ff0000;stroke-width:2;stroke-linecap:round;stroke-linejoin:round;stroke-miterlimit:4;stroke-dasharray:none;stroke-opacity:1"
     id="rect12861"
     width="67.366905"
     height="55.337097"
     x="2208.6721"
     y="1118.8141"
     ry="2.1845" />
  <rect
     style="fill:none;fill-opacity:1;stroke:#ff0000;stroke-width:2;stroke-linecap:round;stroke-linejoin:round;stroke-miterlimit:4;stroke-dasharray:none;stroke-opacity:1"
     id="rect12863"
     width="69.772865"
     height="52.931137"
     x="1089.9003"
     y="327.25302"
     ry="2.1845" />
  <rect
     style="fill:none;fill-opacity:1;stroke:#ff0000;stroke-width:2;stroke-linecap:round;stroke-linejoin:round;stroke-miterlimit:4;stroke-dasharray:none;stroke-opacity:1"
     id="rect12865"
     width="31.277491"
     height="48.119217"
     x="1429.1407"
     y="305.59937"
     ry="2.1845" />
  <rect
     style="fill:none;fill-opacity:1;stroke:#ff0000;stroke-width:2;stroke-linecap:round;stroke-linejoin:round;stroke-miterlimit:4;stroke-dasharray:none;stroke-opacity:1"
     id="rect12867"
     width="31.277491"
     height="45.713257"
     x="1506.1315"
     y="293.56955"
     ry="2.1845" />
  <rect
     style="fill:none;fill-opacity:1;stroke:#400000;stroke-width:2;stroke-linecap:round;stroke-linejoin:round;stroke-miterlimit:4;stroke-dasharray:none;stroke-opacity:1"
     id="rect12869"
     width="199.69475"
     height="93.832474"
     x="1188.5447"
     y="303.19342"
     ry="2.1845" />
  <rect
     style="fill:none;fill-opacity:1;stroke:#004000;stroke-width:2;stroke-linecap:round;stroke-linejoin:round;stroke-miterlimit:4;stroke-dasharray:none;stroke-opacity:1"
     id="rect12871"
     width="81.802666"
     height="79.396706"
     x="2194.2363"
     y="1272.7957"
     ry="2.1845" />
  <rect
     style="fill:none;fill-opacity:1;stroke:#004000;stroke-width:2;stroke-linecap:round;stroke-linejoin:round;stroke-miterlimit:4;stroke-dasharray:none;stroke-opacity:1"
     id="rect12873"
     width="81.802666"
     height="84.208626"
     x="2196.6421"
     y="1580.7585"
     ry="2.1845" />
  <rect
     style="fill:none;fill-opacity:1;stroke:#008000;stroke-width:2;stroke-linecap:round;stroke-linejoin:round;stroke-miterlimit:4;stroke-dasharray:none;stroke-opacity:1"
     id="rect12875"
     width="93.832344"
     height="392.1716"
     x="2199.0483"
     y="1491.738"
     ry="2.1845" />
  <rect
     style="fill:none;fill-opacity:1;stroke:#008000;stroke-width:2;stroke-linecap:round;stroke-linejoin:round;stroke-miterlimit:4;stroke-dasharray:none;stroke-opacity:1"
     id="rect12877"
     width="76.990723"
     height="382.54767"
     x="2199.0483"
     y="1058.665"
     ry="2.1845" />
  <rect
     style="fill:none;fill-opacity:1;stroke:#00b000;stroke-width:2;stroke-linecap:round;stroke-linejoin:round;stroke-miterlimit:4;stroke-dasharray:none;stroke-opacity:1"
     id="rect12879"
     width="240.59608"
     height="108.26823"
     x="998.47375"
     y="2237.5859"
     ry="2.1845" />
  <rect
     style="fill:none;fill-opacity:1;stroke:#00b000;stroke-width:2;stroke-linecap:round;stroke-linejoin:round;stroke-miterlimit:4;stroke-dasharray:none;stroke-opacity:1"
     id="rect12881"
     width="117.89208"
     height="211.72455"
     x="486.00409"
     y="2314.5767"
     ry="2.1845" />
  <rect
     style="fill:none;fill-opacity:1;stroke:#00b000;stroke-width:2;stroke-linecap:round;stroke-linejoin:round;stroke-miterlimit:4;stroke-dasharray:none;stroke-opacity:1"
     id="rect12883"
     width="245.408"
     height="255.03185"
     x="360.8941"
     y="1655.3434"
     ry="2.1845" />
  <rect
     style="fill:none;fill-opacity:1;stroke:#00b000;stroke-width:2;stroke-linecap:round;stroke-linejoin:round;stroke-miterlimit:4;stroke-dasharray:none;stroke-opacity:1"
     id="rect12885"
     width="228.56627"
     height="252.62589"
     x="370.51797"
     y="1034.6055"
     ry="2.1845" />
  <rect
     style="fill:none;fill-opacity:1;stroke:#00b000;stroke-width:2;stroke-linecap:round;stroke-linejoin:round;stroke-miterlimit:4;stroke-dasharray:none;stroke-opacity:1"
     id="rect12887"
     width="117.89208"
     height="240.59608"
     x="483.59811"
     y="380.18414"
     ry="2.1845" />
  <rect
     style="fill:none;fill-opacity:1;stroke:#00b000;stroke-width:2;stroke-linecap:round;stroke-linejoin:round;stroke-miterlimit:4;stroke-dasharray:none;stroke-opacity:1"
     id="rect12889"
     width="243.00204"
     height="122.704"
     x="996.06775"
     y="587.0968"
     ry="2.1845" />
  <rect
     style="fill:none;fill-opacity:1;stroke:#00ff00;stroke-width:2;stroke-linecap:round;stroke-linejoin:round;stroke-miterlimit:4;stroke-dasharray:none;stroke-opacity:1"
     id="rect12891"
     width="108.26823"
     height="166.01129"
     x="1251.0996"
     y="1200.6168"
     ry="2.1845" />
  <rect
     style="fill:none;fill-opacity:1;stroke:#00ff00;stroke-width:2;stroke-linecap:round;stroke-linejoin:round;stroke-miterlimit:4;stroke-dasharray:none;stroke-opacity:1"
     id="rect12893"
     width="120.29805"
     height="153.98134"
     x="1508.5374"
     y="1200.6168"
     ry="2.1845" />
  <rect
     style="fill:none;fill-opacity:1;stroke:#00ff00;stroke-width:2;stroke-linecap:round;stroke-linejoin:round;stroke-miterlimit:4;stroke-dasharray:none;stroke-opacity:1"
     id="rect12895"
     width="271.8736"
     height="103.45627"
     x="1282.3771"
     y="935.96112"
     ry="2.1845" />
  <rect
     style="fill:none;fill-opacity:1;stroke:#00ff00;stroke-width:2;stroke-linecap:round;stroke-linejoin:round;stroke-miterlimit:4;stroke-dasharray:none;stroke-opacity:1"
     id="rect12897"
     width="113.08015"
     height="170.82321"
     x="1241.4757"
     y="1571.1348"
     ry="2.1845" />
  <rect
     style="fill:none;fill-opacity:1;stroke:#00ff00;stroke-width:2;stroke-linecap:round;stroke-linejoin:round;stroke-miterlimit:4;stroke-dasharray:none;stroke-opacity:1"
     id="rect12899"
     width="105.86227"
     height="168.41725"
     x="1520.5673"
     y="1571.1348"
     ry="2.1845" />
  <rect
     style="fill:none;fill-opacity:1;stroke:#00ff00;stroke-width:2;stroke-linecap:round;stroke-linejoin:round;stroke-miterlimit:4;stroke-dasharray:none;stroke-opacity:1"
     id="rect12901"
     width="279.09146"
     height="101.05035"
     x="1282.3771"
     y="1898.3455"
     ry="2.1845" />
  <rect
     style="fill:none;fill-opacity:1;stroke:#400000;stroke-width:2;stroke-linecap:round;stroke-linejoin:round;stroke-miterlimit:4;stroke-dasharray:none;stroke-opacity:1"
     id="rect12903"
     width="185.25899"
     height="62.554981"
     x="1202.9803"
     y="2545.5488"
     ry="2.1845" />
  <rect
     style="fill:none;fill-opacity:1;stroke:#000080;stroke-width:2;stroke-linecap:round;stroke-linejoin:round;stroke-miterlimit:4;stroke-dasharray:none;stroke-opacity:1"
     id="rect12905"
     width="149.16957"
     height="295.93317"
     x="206.91263"
     y="2201.4966"
     ry="2.1845" />
  <rect
     style="fill:none;fill-opacity:1;stroke:#000080;stroke-width:2;stroke-linecap:round;stroke-linejoin:round;stroke-miterlimit:4;stroke-dasharray:none;stroke-opacity:1"
     id="rect12907"
     width="233.37819"
     height="129.92188"
     x="358.48816"
     y="2049.9209"
     ry="2.1845" />
  <rect
     style="fill:none;fill-opacity:1;stroke:#000080;stroke-width:2;stroke-linecap:round;stroke-linejoin:round;stroke-miterlimit:4;stroke-dasharray:none;stroke-opacity:1"
     id="rect12909"
     width="209.31859"
     height="146.76361"
     x="1325.6844"
     y="2037.8911"
     ry="2.1845" />
  <rect
     style="fill:none;fill-opacity:1;stroke:#000080;stroke-width:2;stroke-linecap:round;stroke-linejoin:round;stroke-miterlimit:4;stroke-dasharray:none;stroke-opacity:1"
     id="rect12911"
     width="86.614586"
     height="101.05035"
     x="1397.8632"
     y="1609.6301"
     ry="2.1845" />
  <rect
     style="fill:none;fill-opacity:1;stroke:#000080;stroke-width:2;stroke-linecap:round;stroke-linejoin:round;stroke-miterlimit:4;stroke-dasharray:none;stroke-opacity:1"
     id="rect12913"
     width="98.644394"
     height="89.020546"
     x="1385.8334"
     y="1229.4883"
     ry="2.1845" />
  <rect
     style="fill:none;fill-opacity:1;stroke:#000080;stroke-width:2;stroke-linecap:round;stroke-linejoin:round;stroke-miterlimit:4;stroke-dasharray:none;stroke-opacity:1"
     id="rect12915"
     width="158.79341"
     height="228.56627"
     x="1770.7871"
     y="1215.0525"
     ry="2.1845" />
  <rect
     style="fill:none;fill-opacity:1;stroke:#000080;stroke-width:2;stroke-linecap:round;stroke-linejoin:round;stroke-miterlimit:4;stroke-dasharray:none;stroke-opacity:1"
     id="rect12917"
     width="161.19937"
     height="238.19012"
     x="1765.9752"
     y="1489.332"
     ry="2.1845" />
  <rect
     style="fill:none;fill-opacity:1;stroke:#000080;stroke-width:2;stroke-linecap:round;stroke-linejoin:round;stroke-miterlimit:4;stroke-dasharray:none;stroke-opacity:1"
     id="rect12919"
     width="194.88283"
     height="146.76361"
     x="1337.7142"
     y="745.8902"
     ry="2.1845" />
  <rect
     style="fill:none;fill-opacity:1;stroke:#000080;stroke-width:2;stroke-linecap:round;stroke-linejoin:round;stroke-miterlimit:4;stroke-dasharray:none;stroke-opacity:1"
     id="rect12921"
     width="228.56627"
     height="146.76361"
     x="360.8941"
     y="743.48425"
     ry="2.1845" />
  <rect
     style="fill:none;fill-opacity:1;stroke:#000080;stroke-width:2;stroke-linecap:round;stroke-linejoin:round;stroke-miterlimit:4;stroke-dasharray:none;stroke-opacity:1"
     id="rect12923"
     width="137.13977"
     height="334.42856"
     x="214.13051"
     y="406.64972"
     ry="2.1845" />
  <rect
     style="fill:none;fill-opacity:1;stroke:#000040;stroke-width:2;stroke-linecap:round;stroke-linejoin:round;stroke-miterlimit:4;stroke-dasharray:none;stroke-opacity:1"
     id="rect12925"
     width="187.66495"
     height="67.366905"
     x="1010.5035"
     y="916.71338"
     ry="2.1845" />
  <rect
     style="fill:none;fill-opacity:1;stroke:#000040;stroke-width:2;stroke-linecap:round;stroke-linejoin:round;stroke-miterlimit:4;stroke-dasharray:none;stroke-opacity:1"
     id="rect12927"
     width="84.208626"
     height="259.84375"
     x="753.06573"
     y="1000.9221"
     ry="2.1845" />
  <rect
     style="fill:none;fill-opacity:1;stroke:#000040;stroke-width:2;stroke-linecap:round;stroke-linejoin:round;stroke-miterlimit:4;stroke-dasharray:none;stroke-opacity:1"
     id="rect12929"
     width="69.772865"
     height="262.24973"
     x="753.06573"
     y="868.59418"
     ry="2.1845" />
  <rect
     style="fill:none;fill-opacity:1;stroke:#000040;stroke-width:2;stroke-linecap:round;stroke-linejoin:round;stroke-miterlimit:4;stroke-dasharray:none;stroke-opacity:1"
     id="rect12931"
     width="113.08015"
     height="173.22917"
     x="1044.187"
     y="1381.0638"
     ry="2.1845" />
  <rect
     style="fill:none;fill-opacity:1;stroke:#000040;stroke-width:2;stroke-linecap:round;stroke-linejoin:round;stroke-miterlimit:4;stroke-dasharray:none;stroke-opacity:1"
     id="rect12933"
     width="76.990746"
     height="218.94243"
     x="716.97632"
     y="363.34244"
     ry="2.1845" />
  <rect
     style="fill:none;fill-opacity:1;stroke:#000040;stroke-width:2;stroke-linecap:round;stroke-linejoin:round;stroke-miterlimit:4;stroke-dasharray:none;stroke-opacity:1"
     id="rect12935"
     width="86.614586"
     height="259.84375"
     x="741.03595"
     y="1799.701"
     ry="2.1845" />
  <rect
     style="fill:none;fill-opacity:1;stroke:#000040;stroke-width:2;stroke-linecap:round;stroke-linejoin:round;stroke-miterlimit:4;stroke-dasharray:none;stroke-opacity:1"
     id="rect12937"
     width="86.614586"
     height="247.81396"
     x="743.44189"
     y="1674.5911"
     ry="2.1845" />
  <rect
     style="fill:none;fill-opacity:1;stroke:#000040;stroke-width:2;stroke-linecap:round;stroke-linejoin:round;stroke-miterlimit:4;stroke-dasharray:none;stroke-opacity:1"
     id="rect12939"
     width="187.66495"
     height="69.772865"
     x="1008.0976"
     y="1951.2765"
     ry="2.1845" />
  <rect
     style="fill:none;fill-opacity:1;stroke:#000080;stroke-width:2;stroke-linecap:round;stroke-linejoin:round;stroke-miterlimit:4;stroke-dasharray:none;stroke-opacity:1"
     id="rect15090"
     width="57.743057"
     height="43.307293"
     x="418.63718"
     y="392.21396"
     ry="2.1845" />
  <rect
     style="fill:none;fill-opacity:1;stroke:#000080;stroke-width:2;stroke-linecap:round;stroke-linejoin:round;stroke-miterlimit:4;stroke-dasharray:none;stroke-opacity:1"
     id="rect15092"
     width="103.45631"
     height="40.901333"
     x="271.87357"
     y="1236.7062"
     ry="2.1845" />
  <rect
     style="fill:none;fill-opacity:1;stroke:#000080;stroke-width:2;stroke-linecap:round;stroke-linejoin:round;stroke-miterlimit:4;stroke-dasharray:none;stroke-opacity:1"
     id="rect15094"
     width="105.86227"
     height="48.119217"
     x="596.67828"
     y="1224.6764"
     ry="2.1845" />
  <rect
     style="fill:none;fill-opacity:1;stroke:#000080;stroke-width:2;stroke-linecap:round;stroke-linejoin:round;stroke-miterlimit:4;stroke-dasharray:none;stroke-opacity:1"
     id="rect15096"
     width="50.525177"
     height="55.337097"
     x="998.47375"
     y="712.20673"
     ry="2.1845" />
  <rect
     style="fill:none;fill-opacity:1;stroke:#000080;stroke-width:2;stroke-linecap:round;stroke-linejoin:round;stroke-miterlimit:4;stroke-dasharray:none;stroke-opacity:1"
     id="rect15098"
     width="103.45631"
     height="43.307293"
     x="274.27954"
     y="1657.7493"
     ry="2.1845" />
  <rect
     style="fill:none;fill-opacity:1;stroke:#000080;stroke-width:2;stroke-linecap:round;stroke-linejoin:round;stroke-miterlimit:4;stroke-dasharray:none;stroke-opacity:1"
     id="rect15100"
     width="96.238434"
     height="50.525177"
     x="606.30212"
     y="1662.5613"
     ry="2.1845" />
  <rect
     style="fill:none;fill-opacity:1;stroke:#000080;stroke-width:2;stroke-linecap:round;stroke-linejoin:round;stroke-miterlimit:4;stroke-dasharray:none;stroke-opacity:1"
     id="rect15102"
     width="48.119217"
     height="21.653646"
     x="433.07294"
     y="2495.0237"
     ry="2.1845" />
  <rect
     style="fill:none;fill-opacity:1;stroke:#000080;stroke-width:2;stroke-linecap:round;stroke-linejoin:round;stroke-miterlimit:4;stroke-dasharray:none;stroke-opacity:1"
     id="rect15104"
     width="52.931137"
     height="62.554981"
     x="1003.2856"
     y="2167.813"
     ry="2.1845" />
</svg>
