<?xml version="1.0" encoding="UTF-8" standalone="no"?>
<!-- Created with Inkscape (http://www.inkscape.org/) -->

<svg
   xmlns:dc="http://purl.org/dc/elements/1.1/"
   xmlns:cc="http://creativecommons.org/ns#"
   xmlns:rdf="http://www.w3.org/1999/02/22-rdf-syntax-ns#"
   xmlns:svg="http://www.w3.org/2000/svg"
   xmlns="http://www.w3.org/2000/svg"
   xmlns:xlink="http://www.w3.org/1999/xlink"
   xmlns:sodipodi="http://sodipodi.sourceforge.net/DTD/sodipodi-0.dtd"
   xmlns:inkscape="http://www.inkscape.org/namespaces/inkscape"
   id="svg11717"
   version="1.1"
   inkscape:version="0.91 r13725"
   width="1548"
   height="3304"
   viewBox="0 0 1548 3304"
   sodipodi:docname="italy_022_250.svg">
  <metadata
     id="metadata11723">
    <rdf:RDF>
      <cc:Work
         rdf:about="">
        <dc:format>image/svg+xml</dc:format>
        <dc:type
           rdf:resource="http://purl.org/dc/dcmitype/StillImage" />
        <dc:title></dc:title>
      </cc:Work>
    </rdf:RDF>
  </metadata>
  <defs
     id="defs11721" />
  <sodipodi:namedview
     pagecolor="#ffffff"
     bordercolor="#666666"
     borderopacity="1"
     objecttolerance="10"
     gridtolerance="10"
     guidetolerance="10"
     inkscape:pageopacity="0"
     inkscape:pageshadow="2"
     inkscape:window-width="1920"
     inkscape:window-height="997"
     id="namedview11719"
     showgrid="false"
     inkscape:zoom="0.40406102"
     inkscape:cx="282.73756"
     inkscape:cy="1058.0303"
     inkscape:window-x="-9"
     inkscape:window-y="-9"
     inkscape:window-maximized="1"
     inkscape:current-layer="svg11717" />
  <image
     sodipodi:absref="C:\Users\pierpaolo\Dropbox\images\italy_022_250.png"
     xlink:href="italy_022_250.png"
     y="0"
     x="0"
     id="image11725"
     preserveAspectRatio="none"
     height="3304"
     width="1548" />
  <rect
     style="fill:none;fill-opacity:1;stroke:#ff0000;stroke-width:2;stroke-linecap:round;stroke-linejoin:round;stroke-miterlimit:4;stroke-dasharray:none;stroke-opacity:1"
     id="rect11727"
     width="47.022602"
     height="64.346718"
     x="227.68839"
     y="2227.4299"
     ry="2.1845" />
  <rect
     style="fill:none;fill-opacity:1;stroke:#ff0000;stroke-width:2;stroke-linecap:round;stroke-linejoin:round;stroke-miterlimit:4;stroke-dasharray:none;stroke-opacity:1"
     id="rect12269"
     width="49.497475"
     height="37.123108"
     x="465.27628"
     y="2086.3621"
     ry="2.1845" />
  <rect
     style="fill:none;fill-opacity:1;stroke:#ff0000;stroke-width:2;stroke-linecap:round;stroke-linejoin:round;stroke-miterlimit:4;stroke-dasharray:none;stroke-opacity:1"
     id="rect12271"
     width="42.072853"
     height="29.698484"
     x="470.22601"
     y="2004.6913"
     ry="2.1845" />
  <rect
     style="fill:none;fill-opacity:1;stroke:#ff0000;stroke-width:2;stroke-linecap:round;stroke-linejoin:round;stroke-miterlimit:4;stroke-dasharray:none;stroke-opacity:1"
     id="rect12273"
     width="59.396969"
     height="56.922096"
     x="1306.7333"
     y="2168.033"
     ry="2.1845" />
  <rect
     style="fill:none;fill-opacity:1;stroke:#ff0000;stroke-width:2;stroke-linecap:round;stroke-linejoin:round;stroke-miterlimit:4;stroke-dasharray:none;stroke-opacity:1"
     id="rect12275"
     width="54.447224"
     height="47.022602"
     x="1311.6831"
     y="2103.6863"
     ry="2.1845" />
  <rect
     style="fill:none;fill-opacity:1;stroke:#00ff00;stroke-width:2;stroke-linecap:round;stroke-linejoin:round;stroke-miterlimit:4;stroke-dasharray:none;stroke-opacity:1"
     id="rect12277"
     width="103.94469"
     height="215.31401"
     x="215.31401"
     y="1588.9125"
     ry="2.1845" />
  <rect
     style="fill:none;fill-opacity:1;stroke:#00b000;stroke-width:2;stroke-linecap:round;stroke-linejoin:round;stroke-miterlimit:4;stroke-dasharray:none;stroke-opacity:1"
     id="rect12279"
     width="264.81149"
     height="113.84419"
     x="1106.2686"
     y="2351.1736"
     ry="2.1845" />
  <rect
     style="fill:none;fill-opacity:1;stroke:#00b000;stroke-width:2;stroke-linecap:round;stroke-linejoin:round;stroke-miterlimit:4;stroke-dasharray:none;stroke-opacity:1"
     id="rect12281"
     width="257.38687"
     height="319.2587"
     x="220.26376"
     y="2395.7214"
     ry="2.1845" />
  <rect
     style="fill:none;fill-opacity:1;stroke:#000080;stroke-width:2;stroke-linecap:round;stroke-linejoin:round;stroke-miterlimit:4;stroke-dasharray:none;stroke-opacity:1"
     id="rect12283"
     width="185.61552"
     height="240.06276"
     x="1061.7208"
     y="1514.6663"
     ry="2.1845" />
  <rect
     style="fill:none;fill-opacity:1;stroke:#000080;stroke-width:2;stroke-linecap:round;stroke-linejoin:round;stroke-miterlimit:4;stroke-dasharray:none;stroke-opacity:1"
     id="rect12285"
     width="66.821594"
     height="74.246216"
     x="509.82401"
     y="1737.4049"
     ry="2.1845" />
  <rect
     style="fill:none;fill-opacity:1;stroke:#000080;stroke-width:2;stroke-linecap:round;stroke-linejoin:round;stroke-miterlimit:4;stroke-dasharray:none;stroke-opacity:1"
     id="rect12287"
     width="74.246216"
     height="91.570328"
     x="626.14307"
     y="1682.9576"
     ry="2.1845" />
  <rect
     style="fill:none;fill-opacity:1;stroke:#000080;stroke-width:2;stroke-linecap:round;stroke-linejoin:round;stroke-miterlimit:4;stroke-dasharray:none;stroke-opacity:1"
     id="rect12289"
     width="81.67083"
     height="74.246216"
     x="532.09784"
     y="1616.1361"
     ry="2.1845" />
  <rect
     style="fill:none;fill-opacity:1;stroke:#000080;stroke-width:2;stroke-linecap:round;stroke-linejoin:round;stroke-miterlimit:4;stroke-dasharray:none;stroke-opacity:1"
     id="rect12291"
     width="74.246216"
     height="66.821655"
     x="492.49988"
     y="1522.0909"
     ry="2.1845" />
  <rect
     style="fill:none;fill-opacity:1;stroke:#000080;stroke-width:2;stroke-linecap:round;stroke-linejoin:round;stroke-miterlimit:4;stroke-dasharray:none;stroke-opacity:1"
     id="rect12293"
     width="69.296463"
     height="79.195961"
     x="628.61792"
     y="1539.415"
     ry="2.1845" />
  <rect
     style="fill:none;fill-opacity:1;stroke:#000080;stroke-width:2;stroke-linecap:round;stroke-linejoin:round;stroke-miterlimit:4;stroke-dasharray:none;stroke-opacity:1"
     id="rect12295"
     width="103.94469"
     height="264.81149"
     x="688.01489"
     y="1935.3948"
     ry="2.1845" />
  <rect
     style="fill:none;fill-opacity:1;stroke:#000080;stroke-width:2;stroke-linecap:round;stroke-linejoin:round;stroke-miterlimit:4;stroke-dasharray:none;stroke-opacity:1"
     id="rect12297"
     width="106.41957"
     height="136.11806"
     x="608.81897"
     y="2576.3872"
     ry="2.1845" />
</svg>
