25
4
1.30983701287
3
rectangle
94
351
14
213
165.323924463
0.0
0.0
0.0
0.0
0.0
0.0
0.0
0.0
0.0
0.0
0.0
0.0
0.00330760749724
0.0209481808159
0.0882028665932
0.0992282249173
0.0981256890849
0.077177508269
0.149944873208
0.090407938258
0.13230429989
0.10033076075
0.0705622932745
0.045203969129
0.0231532524807
0.20299864475
0.0341786108049
0.0330760749724
0.0374862183021
0.0396912899669
0.0485115766262
0.0573318632856
0.0518191841235
0.0418963616318
0.0363836824697
0.03197353914
0.0297684674752
0.0275633958104
0.0198456449835
0.0143329658214
0.0154355016538
0.0165380374862
0.0198456449835
0.0242557883131
0.0220507166483
0.0176405733186
0.0143329658214
0.0297684674752
0.0441014332966
0.018743109151
0.018743109151
4
unknown
94
153
16
76
43.8292140016
0.0
0.0
0.0
0.0
0.0
0.0
0.0
0.0454545454545
0.0284090909091
0.0227272727273
0.0227272727273
0.159090909091
0.113636363636
0.107954545455
0.0852272727273
0.0568181818182
0.0625
0.0340909090909
0.0397727272727
0.0397727272727
0.0340909090909
0.0397727272727
0.0511363636364
0.0340909090909
0.0170454545455
0.125620244426
0.0284090909091
0.0340909090909
0.0227272727273
0.0340909090909
0.0454545454545
0.0454545454545
0.0625
0.0625
0.0795454545455
0.0568181818182
0.0454545454545
0.0284090909091
0.0227272727273
0.0113636363636
0.00568181818182
0.0113636363636
0.00568181818182
0.0113636363636
0.00568181818182
0.00568181818182
0.00568181818182
0.00568181818182
0.0113636363636
0.00568181818182
0.0113636363636
5
rectangle
29
82
24
205
93.680307429
0.0
0.0
0.0
0.0
0.0
0.0
0.0301724137931
0.0948275862069
0.0603448275862
0.0431034482759
0.0431034482759
0.0431034482759
0.0431034482759
0.0344827586207
0.0344827586207
0.0431034482759
0.0344827586207
0.0344827586207
0.0344827586207
0.0344827586207
0.0344827586207
0.0344827586207
0.0344827586207
0.0344827586207
0.245689655172
0.133025815602
0.0150862068966
0.0129310344828
0.0172413793103
0.0172413793103
0.0172413793103
0.0258620689655
0.0301724137931
0.0387931034483
0.0646551724138
0.10775862069
0.0775862068966
0.051724137931
0.0344827586207
0.0258620689655
0.0387931034483
0.0538793103448
0.0323275862069
0.0193965517241
0.0150862068966
0.0129310344828
0.00862068965517
0.00862068965517
0.00862068965517
0.00646551724138
0.00646551724138
2
unknown
24
152
14
213
125.159897731
0.0
0.0
0.0
0.0
0.0
7.35672772751e-05
7.70704809548e-05
0.000269746683342
0.000255733868623
0.000178663387668
0.000161147369269
0.00015063775823
0.00015063775823
0.000140128147191
0.000140128147191
0.000126115332472
0.00014363135087
0.000227708239185
0.000255733868623
0.000178663387668
0.00014713455455
0.000252230664943
0.000248727461263
0.000231211442864
0.000346817164297
0.0
0.0
0.0
0.0
0.0
7.35672772751e-05
7.70704809548e-05
0.000269746683342
0.000255733868623
0.000178663387668
0.000161147369269
0.00015063775823
0.00015063775823
0.000140128147191
0.000140128147191
0.000126115332472
0.00014363135087
0.000227708239185
0.000255733868623
0.000178663387668
0.00014713455455
0.000252230664943
0.000248727461263
0.000231211442864
0.000346817164297
0.0328670859111
4.90448515167e-05
5.60512588762e-05
5.60512588762e-05
6.30576662358e-05
7.00640735953e-05
9.10832956739e-05
0.000353823571656
0.000175160183988
0.000217198628145
0.000339810756937
0.000231211442864
0.000171656980308
0.000115605721432
8.05736846346e-05
9.80897030334e-05
0.00015414096191
0.000126115332472
8.75800919941e-05
6.30576662358e-05
4.90448515167e-05
4.20384441572e-05
3.50320367977e-05
3.15288331179e-05
3.50320367977e-05
2.45224257584e-05
4.90448515167e-05
5.60512588762e-05
5.60512588762e-05
6.30576662358e-05
7.00640735953e-05
9.10832956739e-05
0.000353823571656
0.000175160183988
0.000217198628145
0.000339810756937
0.000231211442864
0.000171656980308
0.000115605721432
8.05736846346e-05
9.80897030334e-05
0.00015414096191
0.000126115332472
8.75800919941e-05
6.30576662358e-05
4.90448515167e-05
4.20384441572e-05
3.50320367977e-05
3.15288331179e-05
3.50320367977e-05
2.45224257584e-05
4
3
4
1
1
0.0365505669613
floor
2
3
1
1
0.321356432152
floor
2
4
1
1
0.113738401676
touch
2
5
1
1
0.622568093385
touch
