contour_details : [743 1255],[743 1429],[812 1429],[812 1255] : pl : [785,1334]
contour_details : [637 1255],[637 1429],[731 1429],[731 1255] : wc : [683,1293]
contour_details : [635 1000],[635 1244],[819 1244],[820 1245],[820 1429],[854 1429],[855 1430],[855 1909],[989 1909],[989 1000] : hall : [793,1079]
