contour_details : [655 1860],[655 1938],[656 1939],[656 2045],[657 2046],[657 2152],[658 2153],[658 2253],[659 2254],[659 2360],[660 2361],[660 2394],[1034 2394],[1034 2365],[1035 2364],[1094 2364],[1095 2365],[1095 2394],[1104 2394],[1104 1860] : sejour : [868,2110]
contour_details : [1125 1855],[1125 2394],[1449 2394],[1449 2070],[1265 2070],[1264 2069],[1264 1855] : repas : [1340,2252]
contour_details : [1220 1115],[1220 1384],[1219 1385],[1010 1385],[1010 1489],[1124 1489],[1125 1490],[1125 1839],[1254 1839],[1254 1645],[1255 1644],[1449 1644],[1449 1465],[1325 1465],[1324 1464],[1324 1115] : hall : [1278,1566]
