contour_details : [1124 1750],[1123 1751],[1123 1778],[1122 1779],[1122 1807],[1121 1808],[1121 1835],[1120 1836],[1120 1850],[1142 1850],[1143 1851],[1171 1851],[1172 1852],[1199 1852],[1200 1853],[1227 1853],[1228 1854],[1256 1854],[1257 1855],[1280 1855],[1282 1857],[1282 1952],[1319 1952],[1320 1953],[1320 2008],[1319 2009],[1319 2080],[1318 2081],[1318 2139],[1348 2139],[1350 2141],[1350 2170],[1745 2170],[1745 2070],[1419 2070],[1418 2069],[1418 2051],[1419 2050],[1419 1980],[1420 1979],[1420 1909],[1421 1908],[1421 1857],[1394 1857],[1393 1856],[1393 1852],[1291 1852],[1290 1851],[1290 1829],[1291 1828],[1291 1800],[1292 1799],[1292 1772],[1293 1771],[1293 1756],[1271 1756],[1270 1755],[1242 1755],[1241 1754],[1214 1754],[1213 1753],[1186 1753],[1185 1752],[1157 1752],[1156 1751],[1129 1751],[1128 1750]
contour_details : [1286 1541],[1285 1542],[1278 1542],[1277 1543],[1271 1543],[1270 1544],[1264 1544],[1263 1545],[1257 1545],[1256 1546],[1250 1546],[1249 1547],[1243 1547],[1242 1548],[1236 1548],[1235 1549],[1229 1549],[1228 1550],[1222 1550],[1221 1551],[1214 1551],[1213 1552],[1207 1552],[1206 1553],[1200 1553],[1199 1554],[1193 1554],[1192 1555],[1186 1555],[1185 1556],[1179 1556],[1178 1557],[1177 1557],[1177 1561],[1178 1562],[1178 1568],[1179 1569],[1179 1575],[1180 1576],[1180 1583],[1181 1584],[1181 1590],[1182 1591],[1182 1597],[1183 1598],[1183 1604],[1184 1605],[1184 1611],[1185 1612],[1185 1618],[1186 1619],[1186 1625],[1187 1626],[1187 1632],[1188 1633],[1188 1640],[1189 1641],[1189 1647],[1190 1648],[1190 1654],[1191 1655],[1195 1655],[1196 1654],[1203 1654],[1204 1653],[1210 1653],[1211 1652],[1217 1652],[1218 1651],[1224 1651],[1225 1650],[1231 1650],[1232 1649],[1238 1649],[1239 1648],[1245 1648],[1246 1647],[1252 1647],[1253 1646],[1260 1646],[1261 1645],[1267 1645],[1268 1644],[1274 1644],[1275 1643],[1281 1643],[1282 1642],[1288 1642],[1289 1641],[1295 1641],[1296 1640],[1302 1640],[1303 1639],[1304 1639],[1304 1635],[1303 1634],[1303 1628],[1302 1627],[1302 1621],[1301 1620],[1301 1613],[1300 1612],[1300 1606],[1299 1605],[1299 1599],[1298 1598],[1298 1592],[1297 1591],[1297 1585],[1296 1584],[1296 1578],[1295 1577],[1295 1571],[1294 1570],[1294 1564],[1293 1563],[1293 1556],[1292 1555],[1292 1549],[1291 1548],[1291 1542],[1290 1541]
contour_details : [1138 1304],[1138 1410],[1191 1410],[1192 1411],[1191 1412],[1184 1412],[1183 1413],[1175 1413],[1174 1414],[1167 1414],[1166 1415],[1158 1415],[1157 1416],[1150 1416],[1149 1417],[1141 1417],[1140 1418],[1136 1418],[1136 1421],[1137 1422],[1137 1429],[1138 1430],[1138 1438],[1139 1439],[1139 1446],[1140 1447],[1140 1455],[1141 1456],[1141 1463],[1142 1464],[1142 1472],[1143 1473],[1143 1480],[1144 1481],[1144 1486],[1145 1485],[1153 1485],[1154 1484],[1161 1484],[1162 1483],[1170 1483],[1171 1482],[1178 1482],[1179 1481],[1187 1481],[1188 1480],[1195 1480],[1196 1479],[1204 1479],[1205 1478],[1212 1478],[1213 1477],[1221 1477],[1222 1476],[1229 1476],[1230 1475],[1238 1475],[1239 1474],[1243 1474],[1243 1471],[1242 1470],[1242 1462],[1241 1461],[1241 1454],[1240 1453],[1240 1445],[1239 1444],[1239 1437],[1238 1436],[1238 1428],[1237 1427],[1237 1420],[1236 1419],[1236 1411],[1237 1410],[1237 1304]
