contour_details : [1375 2076],[1375 2463],[1513 2463],[1514 2462],[1710 2462],[1711 2461],[1768 2461],[1768 2226],[1735 2226],[1734 2225],[1734 2103],[1726 2095],[1726 2076] : sejour : [1517,2373]
contour_details : [1127 1902],[1127 1923],[1126 1924],[1069 1924],[1069 2463],[1363 2463],[1363 1952],[1361 1950],[1360 1950],[1357 1947],[1356 1947],[1354 1945],[1353 1945],[1350 1942],[1349 1942],[1346 1939],[1345 1939],[1342 1936],[1341 1936],[1339 1934],[1338 1934],[1335 1931],[1334 1931],[1331 1928],[1330 1928],[1327 1925],[1326 1925],[1323 1922],[1322 1922],[1320 1920],[1319 1920],[1316 1917],[1315 1917],[1312 1914],[1311 1914],[1308 1911],[1307 1911],[1304 1908],[1303 1908],[1301 1906],[1300 1906],[1297 1903],[1296 1903],[1295 1902] : cuisine : [1194,2059]
contour_details : [1125 1802],[1125 1859],[1285 1859],[1285 1835],[1286 1834],[1286 1806],[1287 1805],[1287 1802] : pl : [1206,1837]
contour_details : [1511 1590],[1511 1639],[1510 1640],[1450 1640],[1449 1639],[1449 1592],[1199 1592],[1199 1611],[1198 1612],[1127 1612],[1127 1791],[1300 1791],[1301 1792],[1301 1893],[1303 1895],[1304 1895],[1306 1897],[1307 1897],[1309 1899],[1310 1899],[1312 1901],[1313 1901],[1315 1903],[1316 1903],[1318 1905],[1319 1905],[1321 1907],[1322 1907],[1324 1909],[1325 1909],[1327 1911],[1328 1911],[1330 1913],[1331 1913],[1333 1915],[1334 1915],[1336 1917],[1337 1917],[1339 1919],[1340 1919],[1342 1921],[1343 1921],[1345 1923],[1346 1923],[1348 1925],[1349 1925],[1351 1927],[1352 1927],[1354 1929],[1355 1929],[1357 1931],[1358 1931],[1360 1933],[1361 1933],[1363 1935],[1364 1935],[1366 1937],[1367 1937],[1369 1939],[1370 1939],[1373 1942],[1373 2065],[1730 2065],[1730 1754],[1731 1753],[1770 1753],[1770 1590] : repas : [1629,1768]
contour_details : [1031 1420],[1031 1449],[1066 1449],[1067 1450],[1067 1481],[1122 1481],[1123 1482],[1123 1601],[1189 1601],[1189 1420] : wc : [1136,1450]
contour_details : [684 1078],[684 1451],[1021 1451],[1021 1410],[1022 1409],[1181 1409],[1181 1078] : chambre : [1042,1242]
contour_details : [1321 1064],[1321 1075],[1320 1076],[1199 1076],[1199 1585],[1213 1585],[1214 1586],[1261 1586],[1262 1587],[1295 1587],[1295 1200],[1296 1199],[1421 1199],[1421 1064] : degt : [1288,1152]
