Wall : [1358,1704],[1400,1704],[1400,2265],[1358,2265] : [1] 
Wall : [2173,1722],[2215,1722],[2215,2265],[2173,2265] : [1] 
Wall : [2060,2222],[2216,2222],[2216,2265],[2060,2265] : [1] 
Wall : [1098,1533],[1140,1533],[1140,1692],[1098,1692] : [1] 
Wall : [1652,2223],[1920,2223],[1920,2265],[1652,2265] : [1] 
Wall : [1357,1533],[1400,1533],[1400,1610],[1357,1610] : [1] 
Wall : [2173,1173],[2215,1173],[2215,1356],[2173,1356] : [1] 
Wall : [265,1413],[355,1413],[355,1456],[265,1456] : [1] 
Wall : [2172,1497],[2215,1497],[2215,1651],[2172,1651] : [1] 
Wall : [1357,2222],[1513,2222],[1513,2265],[1357,2265] : [1] 
Wall : [265,795],[1035,795],[1035,836],[265,836] : [1] 
Wall : [1818,1173],[2216,1173],[2216,1214],[1818,1214] : [1] 
Wall : [702,1650],[857,1650],[857,1692],[702,1692] : [1] 
Wall : [266,795],[307,795],[307,1037],[266,1037] : [1] 
Wall : [1103,795],[1489,795],[1489,836],[1103,836] : [1] 
Wall : [997,1650],[1141,1650],[1141,1692],[997,1692] : [1] 
Wall : [266,1367],[307,1367],[307,1456],[266,1456] : [1] 
Wall : [703,1568],[744,1568],[744,1692],[703,1692] : [1] 
Wall : [1819,795],[1843,795],[1843,854],[1819,854] : [1] 
Wall : [1819,1137],[1843,1137],[1843,1250],[1819,1250] : [1] 
Wall : [1205,795],[1228,795],[1228,1250],[1205,1250] : [1] 
Wall : [1558,795],[1844,795],[1844,818],[1558,818] : [1] 
Wall : [1097,1536],[1153,1536],[1153,1575],[1097,1575] : [1] 
Wall : [1258,1533],[1300,1533],[1300,1574],[1258,1574] : [1] 
Wall : [1257,1552],[1300,1552],[1300,1570],[1257,1570] : [1] 
Wall : [1328,1221],[1844,1221],[1844,1250],[1328,1250] : [1] 
Wall : [1345,1552],[1401,1552],[1401,1575],[1345,1575] : [1] 
Wall : [1357,1887],[1737,1887],[1737,1893],[1357,1893] : [1] 
Wall : [1835,1781],[2216,1781],[2216,1787],[1835,1787] : [1] 
Wall : [1836,1887],[1843,1887],[1843,2265],[1836,2265] : [1] 
Wall : [1345,1533],[1401,1533],[1401,1541],[1345,1541] : [1] 
Wall : [1835,1568],[2216,1568],[2216,1574],[1835,1574] : [1] 
Wall : [1016,795],[1022,795],[1022,1126],[1016,1126] : [1] 
Wall : [1836,1137],[1843,1137],[1843,1468],[1836,1468] : [1] 
Wall : [1098,1249],[1104,1249],[1104,1692],[1098,1692] : [1] 
Wall : [1287,1456],[1293,1456],[1293,1574],[1287,1574] : [1] 
Wall : [1729,1810],[1737,1810],[1737,1893],[1729,1893] : [1] 
Wall : [1394,1349],[1400,1349],[1400,1610],[1394,1610] : [1] 
Wall : [1836,1568],[1844,1568],[1844,1680],[1836,1680] : [1] 
Wall : [1015,1119],[1105,1119],[1105,1126],[1015,1126] : [1] 
Wall : [743,1249],[1105,1249],[1105,1255],[743,1255] : [1] 
Wall : [1286,1349],[1737,1349],[1737,1356],[1286,1356] : [1] 
Wall : [1730,1349],[1736,1349],[1736,1710],[1730,1710] : [1] 
Wall : [1399,1812],[1729,1812],[1729,1808],[1399,1808] : [1] 
