contour_details : [1236 2284],[1235 2285],[1158 2285],[1157 2286],[1080 2286],[1079 2287],[1002 2287],[1001 2288],[977 2288],[977 2294],[978 2295],[978 2381],[979 2382],[979 2461],[1289 2461],[1289 2284] : bains : [1132,2421]
contour_details : [1715 1906],[1714 1907],[1622 1907],[1621 1908],[1593 1908],[1593 1997],[1778 1997],[1778 1906] : wc : [1660,1953]
contour_details : [1481 1906],[1481 2367],[1480 2368],[1299 2368],[1299 2372],[1300 2373],[1300 2395],[1301 2396],[1301 2418],[1302 2419],[1302 2441],[1303 2442],[1303 2459],[1581 2459],[1581 1906] : dgt : [1542,2176]
