25
2
8.25857349242
3
circle
35
245
81
291
106.794194599
0.0
0.0
0.0
0.0
0.0
0.0
0.0
0.0
0.0
0.0
0.0
0.0
0.0
0.0
0.0
0.0
0.0
0.0
0.0
0.0
0.0
0.0
0.074823943662
0.411091549296
0.513204225352
0.0157299644854
0.0457746478873
0.0448943661972
0.0422535211268
0.0413732394366
0.0387323943662
0.0343309859155
0.0343309859155
0.0352112676056
0.0404929577465
0.0431338028169
0.044014084507
0.0466549295775
0.012323943662
0.0246478873239
0.0228873239437
0.0202464788732
0.0202464788732
0.018485915493
0.0167253521127
0.0176056338028
0.0193661971831
0.0202464788732
0.0220070422535
0.0211267605634
0.0220070422535
2
unknown
13
262
9
165
145.344418537
9.31272117713e-05
0.000186254423543
0.000349227044142
0.000349227044142
0.000430713354442
0.000291022536785
0.000139690817657
0.000128049916186
0.000116409014714
0.000616967777985
0.000488917861799
0.000442354255914
0.000372508847085
0.000395790650028
0.000360867945614
0.000372508847085
0.000407431551499
0.000419072452971
0.000570404172099
0.000710094989756
0.000768299497113
0.000675172285342
0.000698454088285
0.00074501769417
0.000675172285342
9.31272117713e-05
0.000186254423543
0.000349227044142
0.000349227044142
0.000430713354442
0.000291022536785
0.000139690817657
0.000128049916186
0.000116409014714
0.000616967777985
0.000488917861799
0.000442354255914
0.000372508847085
0.000395790650028
0.000360867945614
0.000372508847085
0.000407431551499
0.000419072452971
0.000570404172099
0.000710094989756
0.000768299497113
0.000675172285342
0.000698454088285
0.00074501769417
0.000675172285342
0.0750952219736
0.000453995157385
0.000453995157385
0.000442354255914
0.000931272117713
0.00101275842801
0.000791581300056
0.000325945241199
0.000221177127957
0.000174613522071
0.000186254423543
0.000174613522071
0.000174613522071
0.000104768113243
0.000139690817657
0.000139690817657
0.000128049916186
0.0001629726206
0.000174613522071
0.000209536226485
0.0002444589309
0.000232818029428
0.000174613522071
0.000232818029428
0.000197895325014
0.000186254423543
0.000453995157385
0.000453995157385
0.000442354255914
0.000931272117713
0.00101275842801
0.000791581300056
0.000325945241199
0.000221177127957
0.000174613522071
0.000186254423543
0.000174613522071
0.000174613522071
0.000104768113243
0.000139690817657
0.000139690817657
0.000128049916186
0.0001629726206
0.000174613522071
0.000209536226485
0.0002444589309
0.000232818029428
0.000174613522071
0.000232818029428
0.000197895325014
0.000186254423543
1
2
3
1
1
0.145273444841
floor
