contour_details : [2060 1155],[2060 1649],[2224 1649],[2224 1550],[2170 1550],[2169 1549],[2169 1340],[2170 1339],[2244 1339],[2244 1155] : dgt : [2116,1300]
contour_details : [1980 1155],[1980 1449],[2049 1449],[2049 1155] : pl : [2020,1308]
contour_details : [660 975],[660 1634],[1399 1634],[1399 975] : repas : [1208,1203]
contour_details : [1765 970],[1765 1139],[2244 1139],[2244 970] : hall : [1988,1045]
contour_details : [1410 970],[1410 1634],[1749 1634],[1749 970] : cuisine : [1642,1319]
contour_details : [185 970],[185 1339],[239 1339],[240 1340],[240 1384],[644 1384],[644 970] : sejour : [539,1119]
