contour_details : [1400 1335],[1400 1364],[1399 1365],[1135 1365],[1135 1844],[1499 1844],[1499 1335] : salon : [1308,1583]
contour_details : [1515 1330],[1515 1839],[1899 1839],[1899 1330] : repas : [1705,1584]
contour_details : [1910 1325],[1910 1629],[2159 1629],[2159 1325] : cuisine : [2007,1426]
contour_details : [1395 995],[1395 1319],[1594 1319],[1594 1105],[1595 1104],[1620 1104],[1621 1103],[1657 1103],[1658 1102],[1694 1102],[1695 1101],[1731 1101],[1732 1100],[1768 1100],[1769 1099],[1779 1099],[1779 1094],[1780 1093],[1780 1075],[1781 1074],[1781 1056],[1782 1055],[1782 1037],[1783 1036],[1783 1018],[1784 1017],[1784 1005],[1600 1005],[1599 1004],[1599 995] : hall : [1484,1154]
contour_details : [1605 880],[1605 994],[1674 994],[1674 979],[1673 978],[1673 956],[1672 955],[1672 933],[1671 932],[1671 910],[1670 909],[1670 887],[1669 886],[1669 880] : pl : [1628,937]
contour_details : [680 880],[680 885],[679 886],[679 905],[678 906],[678 925],[677 926],[677 945],[676 946],[676 965],[675 966],[675 979],[1594 979],[1594 880] : degagement : [953,941]
contour_details : [880 505],[880 869],[1279 869],[1279 505] : chambre : [1036,682]
contour_details : [795 500],[795 523],[794 524],[794 597],[793 598],[793 671],[792 672],[792 745],[791 746],[791 819],[790 820],[790 869],[869 869],[869 500] : pl : [828,730]
