contour_details : [1850 1325],[1850 1634],[1949 1634],[1949 1325]
contour_details : [1395 1280],[1395 1379],[1454 1379],[1455 1380],[1455 1839],[1554 1839],[1554 1380],[1555 1379],[1594 1379],[1594 1280]
contour_details : [1550 880],[1550 939],[1549 940],[1400 940],[1400 1039],[1599 1039],[1599 995],[1600 994],[1649 994],[1649 880]
contour_details : [825 500],[825 869],[879 869],[880 870],[880 924],[959 924],[959 825],[925 825],[924 824],[924 500]
