25
8
2.64575131106
7
unknown
76
93
80
115
23.769728648
0.0
0.0
0.0
0.0
0.0357142857143
0.047619047619
0.0833333333333
0.0714285714286
0.0714285714286
0.0595238095238
0.0357142857143
0.142857142857
0.0833333333333
0.0714285714286
0.0595238095238
0.0238095238095
0.0357142857143
0.0238095238095
0.0238095238095
0.0238095238095
0.0238095238095
0.0238095238095
0.0238095238095
0.0238095238095
0.0
0.103525974157
0.0119047619048
0.0238095238095
0.0238095238095
0.0238095238095
0.0238095238095
0.0238095238095
0.047619047619
0.047619047619
0.0595238095238
0.0952380952381
0.154761904762
0.0833333333333
0.0119047619048
0.0238095238095
0.0
0.0238095238095
0.0
0.0119047619048
0.0119047619048
0.0
0.0
0.0119047619048
0.0
0.0119047619048
0.0
5
unknown
54
90
71
92
23.0867927612
0.0
0.0
0.0
0.0
0.0222222222222
0.0555555555556
0.0555555555556
0.122222222222
0.0777777777778
0.0777777777778
0.0333333333333
0.0555555555556
0.0222222222222
0.0333333333333
0.0888888888889
0.0777777777778
0.0444444444444
0.0555555555556
0.0333333333333
0.0555555555556
0.0111111111111
0.0222222222222
0.0222222222222
0.0222222222222
0.0
0.101316821438
0.0555555555556
0.0666666666667
0.1
0.0666666666667
0.0444444444444
0.0222222222222
0.0333333333333
0.0222222222222
0.0111111111111
0.0222222222222
0.0222222222222
0.0111111111111
0.0111111111111
0.0111111111111
0.0111111111111
0.0111111111111
0.0111111111111
0.0111111111111
0.0333333333333
0.0111111111111
0.0
0.0111111111111
0.0
0.0111111111111
0.0
9
unknown
54
93
118
161
29.8328677804
0.0
0.0
0.0
0.0
0.0
0.0
0.0
0.0
0.0
0.0
0.05
0.0428571428571
0.0785714285714
0.0785714285714
0.0428571428571
0.0785714285714
0.135714285714
0.0928571428571
0.0714285714286
0.128571428571
0.0571428571429
0.0571428571429
0.0357142857143
0.0357142857143
0.00714285714286
0.178055195539
0.0214285714286
0.0285714285714
0.0285714285714
0.0428571428571
0.0285714285714
0.0571428571429
0.0571428571429
0.0571428571429
0.0571428571429
0.0357142857143
0.0428571428571
0.0357142857143
0.0285714285714
0.0285714285714
0.0214285714286
0.0214285714286
0.0142857142857
0.0142857142857
0.00714285714286
0.0142857142857
0.00714285714286
0.0142857142857
0.00714285714286
0.0142857142857
0.00714285714286
8
unknown
13
71
98
161
37.0
0.0
0.0
0.0
0.0
0.0
0.0
0.0
0.0
0.0
0.0
0.0
0.0
0.0
0.0102564102564
0.0153846153846
0.0461538461538
0.215384615385
0.138461538462
0.158974358974
0.128205128205
0.0717948717949
0.0564102564103
0.0615384615385
0.0666666666667
0.025641025641
0.193510403128
0.0358974358974
0.0307692307692
0.0410256410256
0.0564102564103
0.0461538461538
0.0410256410256
0.025641025641
0.0461538461538
0.0564102564103
0.0615384615385
0.0461538461538
0.0410256410256
0.0205128205128
0.0153846153846
0.0153846153846
0.0153846153846
0.0102564102564
0.0153846153846
0.0153846153846
0.0153846153846
0.0153846153846
0.0205128205128
0.0153846153846
0.0153846153846
0.0153846153846
6
unknown
54
92
74
115
31.8276609257
0.0
0.0
0.0
0.0
0.0
0.0
0.0176991150442
0.0796460176991
0.106194690265
0.0619469026549
0.0619469026549
0.0796460176991
0.0619469026549
0.141592920354
0.070796460177
0.0619469026549
0.0530973451327
0.0619469026549
0.0
0.0353982300885
0.0176991150442
0.0265486725664
0.0176991150442
0.0265486725664
0.00884955752212
0.116197966966
0.0265486725664
0.0265486725664
0.0265486725664
0.0353982300885
0.0530973451327
0.0619469026549
0.106194690265
0.0619469026549
0.0530973451327
0.0353982300885
0.0353982300885
0.0353982300885
0.0176991150442
0.00884955752212
0.00884955752212
0.00884955752212
0.00884955752212
0.00884955752212
0.00884955752212
0.0176991150442
0.00884955752212
0.00884955752212
0.00884955752212
0.0265486725664
0.00884955752212
3
unknown
13
93
43
69
44.9221548904
0.0134529147982
0.0179372197309
0.0179372197309
0.00896860986547
0.0358744394619
0.0627802690583
0.0448430493274
0.0538116591928
0.0538116591928
0.0493273542601
0.0448430493274
0.0448430493274
0.0403587443946
0.0403587443946
0.0358744394619
0.0358744394619
0.0358744394619
0.0358744394619
0.0313901345291
0.0313901345291
0.139013452915
0.0313901345291
0.0179372197309
0.0269058295964
0.0448430493274
0.102756285101
0.0448430493274
0.0448430493274
0.067264573991
0.0807174887892
0.0493273542601
0.0358744394619
0.0313901345291
0.0179372197309
0.0269058295964
0.0582959641256
0.00448430493274
0.00896860986547
0.0
0.00896860986547
0.0224215246637
0.0269058295964
0.0134529147982
0.0134529147982
0.0179372197309
0.0179372197309
0.0179372197309
0.0179372197309
0.0224215246637
0.0313901345291
0.0403587443946
4
unknown
13
51
71
116
30.0166620396
0.0
0.0
0.0
0.0
0.0
0.0
0.0
0.0
0.0
0.0
0.0
0.0
0.107142857143
0.0928571428571
0.0928571428571
0.164285714286
0.107142857143
0.1
0.164285714286
0.0571428571429
0.0428571428571
0.0142857142857
0.0214285714286
0.0214285714286
0.00714285714286
0.175124688705
0.0357142857143
0.0428571428571
0.0428571428571
0.0428571428571
0.05
0.0357142857143
0.0428571428571
0.0357142857143
0.0357142857143
0.0357142857143
0.0214285714286
0.0285714285714
0.0285714285714
0.0142857142857
0.0142857142857
0.0214285714286
0.0214285714286
0.0214285714286
0.0285714285714
0.0285714285714
0.0142857142857
0.0214285714286
0.0142857142857
0.0142857142857
0.00714285714286
2
unknown
50
93
22
41
27.892651362
0.0
0.0
0.0
0.0196078431373
0.0392156862745
0.0294117647059
0.0882352941176
0.0686274509804
0.0686274509804
0.0392156862745
0.0588235294118
0.0392156862745
0.0392156862745
0.127450980392
0.117647058824
0.0490196078431
0.0392156862745
0.0196078431373
0.0294117647059
0.0196078431373
0.0196078431373
0.0196078431373
0.0196078431373
0.0196078431373
0.0196078431373
0.100335639161
0.0294117647059
0.0392156862745
0.0392156862745
0.0686274509804
0.0490196078431
0.078431372549
0.0588235294118
0.0196078431373
0.0294117647059
0.0196078431373
0.0196078431373
0.00980392156863
0.00980392156863
0.0
0.00980392156863
0.0
0.00980392156863
0.0
0.00980392156863
0.00980392156863
0.00980392156863
0.0
0.0196078431373
0.0
0.0196078431373
16
7
9
1
1
0.2242114237
touch
7
8
1
1
0.112657956736
floor
6
7
1
1
0.369641602249
touch
5
6
1
1
0.424455375966
touch
3
5
1
1
0.195279663757
touch
4
5
1
1
0.258561643836
touch
8
9
1
1
0.502463054187
floor
6
9
1
1
0.606564364876
touch
6
8
1
1
0.304776183337
floor
4
8
1
1
0.500321267937
floor
3
6
1
1
0.460071128354
touch
4
6
1
1
0.609160958904
touch
3
4
1
1
0.755253798901
touch
2
3
1
1
0.24894924022
touch
4
9
1
1
0.995737425405
floor
4
7
1
1
0.225171232877
floor
