contour_details : [970 2034],[966 2038],[966 2039],[960 2045],[960 2046],[954 2052],[954 2053],[948 2059],[948 2060],[943 2065],[943 2066],[937 2072],[937 2073],[931 2079],[931 2080],[926 2085],[926 2086],[920 2092],[920 2093],[914 2099],[914 2100],[909 2105],[909 2106],[903 2112],[903 2113],[897 2119],[897 2120],[892 2125],[892 2126],[886 2132],[886 2133],[880 2139],[880 2140],[875 2145],[875 2146],[869 2152],[869 2153],[863 2159],[863 2160],[858 2165],[858 2166],[852 2172],[852 2173],[846 2179],[846 2180],[841 2185],[841 2186],[835 2192],[835 2193],[829 2199],[829 2200],[824 2205],[824 2206],[818 2212],[818 2213],[812 2219],[812 2220],[807 2225],[807 2226],[801 2232],[801 2233],[795 2239],[795 2240],[790 2245],[790 2246],[784 2252],[784 2253],[778 2259],[778 2260],[773 2265],[773 2266],[767 2272],[767 2273],[761 2279],[761 2280],[755 2286],[755 2287],[750 2292],[750 2293],[744 2299],[744 2300],[738 2306],[738 2307],[733 2312],[733 2313],[727 2319],[727 2320],[721 2326],[721 2327],[716 2332],[716 2333],[710 2339],[710 2340],[704 2346],[704 2347],[699 2352],[699 2353],[693 2359],[693 2360],[687 2366],[687 2367],[682 2372],[682 2373],[676 2379],[676 2380],[670 2386],[670 2387],[665 2392],[665 2393],[659 2399],[659 2400],[653 2406],[653 2407],[648 2412],[648 2413],[642 2419],[642 2420],[636 2426],[636 2427],[631 2432],[631 2433],[625 2439],[625 2440],[619 2446],[619 2447],[614 2452],[614 2453],[608 2459],[608 2460],[602 2466],[602 2467],[597 2472],[597 2473],[591 2479],[591 2480],[585 2486],[585 2487],[584 2488],[585 2488],[591 2494],[592 2494],[597 2499],[598 2499],[604 2505],[605 2505],[611 2511],[612 2511],[617 2516],[618 2516],[624 2522],[625 2522],[631 2528],[632 2528],[637 2533],[638 2533],[644 2539],[645 2539],[651 2545],[652 2545],[657 2550],[658 2550],[660 2552],[665 2547],[665 2546],[670 2541],[670 2540],[676 2534],[676 2533],[682 2527],[682 2526],[687 2521],[687 2520],[693 2514],[693 2513],[699 2507],[699 2506],[704 2501],[704 2500],[710 2494],[710 2493],[716 2487],[716 2486],[721 2481],[721 2480],[727 2474],[727 2473],[733 2467],[733 2466],[738 2461],[738 2460],[744 2454],[744 2453],[750 2447],[750 2446],[755 2441],[755 2440],[761 2434],[761 2433],[767 2427],[767 2426],[772 2421],[772 2420],[778 2414],[778 2413],[784 2407],[784 2406],[789 2401],[789 2400],[795 2394],[795 2393],[801 2387],[801 2386],[806 2381],[806 2380],[812 2374],[812 2373],[818 2367],[818 2366],[823 2361],[823 2360],[829 2354],[829 2353],[835 2347],[835 2346],[841 2340],[841 2339],[846 2334],[846 2333],[852 2327],[852 2326],[858 2320],[858 2319],[863 2314],[863 2313],[869 2307],[869 2306],[875 2300],[875 2299],[880 2294],[880 2293],[886 2287],[886 2286],[892 2280],[892 2279],[897 2274],[897 2273],[903 2267],[903 2266],[909 2260],[909 2259],[914 2254],[914 2253],[920 2247],[920 2246],[926 2240],[926 2239],[931 2234],[931 2233],[937 2227],[937 2226],[943 2220],[943 2219],[948 2214],[948 2213],[954 2207],[954 2206],[960 2200],[960 2199],[965 2194],[965 2193],[971 2187],[971 2186],[977 2180],[977 2179],[982 2174],[982 2173],[988 2167],[988 2166],[994 2160],[994 2159],[999 2154],[999 2153],[1005 2147],[1005 2146],[1007 2144],[1240 2144],[1240 2044],[982 2044],[980 2042],[979 2042],[973 2036],[972 2036]
contour_details : [1057 1714],[1056 1715],[1056 1814],[1242 1814],[1242 1714]
contour_details : [1191 1274],[1190 1275],[1190 1434],[1290 1434],[1290 1274]
contour_details : [1011 1182],[1010 1183],[1010 1394],[1110 1394],[1110 1182]
contour_details : [1731 1120],[1730 1121],[1730 1167],[1729 1168],[1687 1168],[1686 1169],[1686 1272],[1786 1272],[1786 1221],[1787 1220],[1894 1220],[1894 1120]
