contour_details : [1182 1608],[1182 1742],[1183 1743],[1183 1889],[1184 1890],[1184 2035],[1185 2036],[1185 2046],[1355 2046],[1355 1608] : hall : [1289,1919]
contour_details : [1109 1605],[1108 1606],[1035 1606],[1034 1607],[962 1607],[961 1608],[889 1608],[888 1609],[846 1609],[846 2043],[1175 2043],[1175 1605] : cuisine : [1008,1821]
contour_details : [846 1525],[846 1596],[1007 1596],[1007 1575],[1006 1574],[1006 1526],[1005 1525] : pl : [972,1579]
contour_details : [1365 1425],[1365 2046],[1970 2046],[1970 1488],[1944 1488],[1943 1487],[1943 1428],[1928 1428],[1927 1427],[1732 1427],[1731 1426],[1537 1426],[1536 1425] : sejour : [1555,1760]
contour_details : [1279 1423],[1279 1596],[1304 1596],[1305 1595],[1330 1595],[1331 1594],[1356 1594],[1356 1423] : pl : [1320,1554]
contour_details : [1179 1320],[1179 1598],[1194 1598],[1195 1599],[1226 1599],[1227 1600],[1257 1600],[1258 1601],[1272 1601],[1272 1320] : dgt : [1248,1466]
