25
4
2.74532200937
6
rectangle
25
112
61
172
69.8140387028
0.0
0.0
0.0
0.0
0.0
0.0
0.0
0.0
0.0
0.0
0.0
0.0
0.0
0.0
0.0
0.204081632653
0.163265306122
0.112244897959
0.0918367346939
0.0816326530612
0.0714285714286
0.0714285714286
0.0714285714286
0.0663265306122
0.0561224489796
0.205392888242
0.0280612244898
0.030612244898
0.030612244898
0.030612244898
0.0408163265306
0.0459183673469
0.0561224489796
0.0765306122449
0.0459183673469
0.0408163265306
0.030612244898
0.030612244898
0.0178571428571
0.015306122449
0.015306122449
0.0204081632653
0.0229591836735
0.0382653061224
0.0280612244898
0.0229591836735
0.0204081632653
0.015306122449
0.015306122449
0.015306122449
0.0127551020408
3
rectangle
127
394
14
201
167.385781953
0.0
0.0
0.0
0.0
0.0
0.0
0.0
0.0
0.0
0.0
0.0
0.0
0.00595238095238
0.0761904761905
0.0880952380952
0.115476190476
0.0880952380952
0.075
0.158333333333
0.119047619048
0.110714285714
0.072619047619
0.0369047619048
0.0261904761905
0.0261904761905
0.187725262947
0.0369047619048
0.0380952380952
0.0404761904762
0.0440476190476
0.0428571428571
0.0440476190476
0.052380952381
0.0416666666667
0.0369047619048
0.0309523809524
0.0309523809524
0.027380952381
0.0202380952381
0.0130952380952
0.0142857142857
0.0142857142857
0.0178571428571
0.0190476190476
0.025
0.0321428571429
0.0380952380952
0.0261904761905
0.025
0.0214285714286
0.0202380952381
5
unknown
123
201
31
201
115.948264325
0.0
0.0
0.0405797101449
0.0811594202899
0.063768115942
0.0550724637681
0.0550724637681
0.0521739130435
0.0463768115942
0.0492753623188
0.0521739130435
0.11884057971
0.0492753623188
0.031884057971
0.0260869565217
0.0260869565217
0.0289855072464
0.0260869565217
0.0289855072464
0.0289855072464
0.0260869565217
0.0289855072464
0.0289855072464
0.0289855072464
0.0231884057971
0.0420195727748
0.00869565217391
0.0115942028986
0.0115942028986
0.0231884057971
0.063768115942
0.0173913043478
0.0144927536232
0.0231884057971
0.0144927536232
0.0202898550725
0.031884057971
0.0376811594203
0.0202898550725
0.0115942028986
0.16231884058
0.223188405797
0.0608695652174
0.0434782608696
0.0289855072464
0.0202898550725
0.0115942028986
0.0115942028986
0.00869565217391
0.00579710144928
0.00579710144928
2
unknown
18
168
14
201
126.589889012
0.0
0.0
0.0
0.0
0.0
0.0
0.0
0.0
0.0
7.52007662562e-05
0.000102906311719
0.00021372849357
0.000166233272777
0.000118738051984
0.000277055454628
0.000257265779298
0.000209770558504
0.000379961766347
0.000324550675422
0.000419541117008
0.000340382415686
0.000383919701413
0.000292887194893
0.000233518168901
0.000241434039033
0.0
0.0
0.0
0.0
0.0
0.0
0.0
0.0
0.0
7.52007662562e-05
0.000102906311719
0.00021372849357
0.000166233272777
0.000118738051984
0.000277055454628
0.000257265779298
0.000209770558504
0.000379961766347
0.000324550675422
0.000419541117008
0.000340382415686
0.000383919701413
0.000292887194893
0.000233518168901
0.000241434039033
0.05009496647
9.49904415868e-05
9.89483766529e-05
0.000114780116917
0.000126653922116
0.000154359467579
0.000241434039033
0.000245391974099
0.000209770558504
0.000245391974099
0.000189980883174
0.000170191207843
0.000154359467579
0.00012269598705
7.91587013223e-05
8.70745714546e-05
9.10325065207e-05
8.31166363885e-05
0.000102906311719
0.000110822181851
8.70745714546e-05
7.12428311901e-05
6.33269610579e-05
5.54110909256e-05
5.14531558595e-05
4.74952207934e-05
9.49904415868e-05
9.89483766529e-05
0.000114780116917
0.000126653922116
0.000154359467579
0.000241434039033
0.000245391974099
0.000209770558504
0.000245391974099
0.000189980883174
0.000170191207843
0.000154359467579
0.00012269598705
7.91587013223e-05
8.70745714546e-05
9.10325065207e-05
8.31166363885e-05
0.000102906311719
0.000110822181851
8.70745714546e-05
7.12428311901e-05
6.33269610579e-05
5.54110909256e-05
5.14531558595e-05
4.74952207934e-05
4
2
6
1
1
0.388441339322
touch
3
5
1
1
0.0708438571171
floor
2
3
1
1
0.474483582897
floor
2
5
1
1
0.149307288325
touch
