contour_details : [2040 1275],[2040 1769],[2139 1769],[2139 1275]
contour_details : [1366 1230],[1365 1231],[1365 1235],[1364 1236],[1364 1240],[1363 1241],[1363 1244],[1362 1245],[1362 1249],[1361 1250],[1361 1254],[1360 1255],[1360 1258],[1359 1259],[1359 1263],[1358 1264],[1358 1268],[1357 1269],[1357 1272],[1356 1273],[1356 1277],[1355 1278],[1355 1282],[1354 1283],[1354 1287],[1353 1288],[1353 1291],[1352 1292],[1352 1296],[1351 1297],[1351 1301],[1350 1302],[1350 1305],[1349 1306],[1349 1310],[1348 1311],[1348 1315],[1347 1316],[1347 1319],[1346 1320],[1346 1324],[1345 1325],[1345 1329],[1344 1330],[1344 1334],[1343 1335],[1343 1338],[1342 1339],[1342 1343],[1341 1344],[1341 1348],[1340 1349],[1340 1352],[1339 1353],[1339 1357],[1338 1358],[1338 1362],[1337 1363],[1337 1366],[1336 1367],[1336 1371],[1335 1372],[1335 1376],[1334 1377],[1334 1381],[1333 1382],[1333 1385],[1332 1386],[1332 1390],[1331 1391],[1331 1395],[1330 1396],[1330 1399],[1329 1400],[1329 1404],[1328 1405],[1328 1409],[1327 1410],[1327 1413],[1326 1414],[1326 1418],[1325 1419],[1325 1423],[1324 1424],[1324 1427],[1323 1428],[1323 1432],[1322 1433],[1322 1437],[1321 1438],[1321 1442],[1320 1443],[1320 1446],[1319 1447],[1319 1451],[1318 1452],[1318 1456],[1317 1457],[1317 1460],[1316 1461],[1316 1465],[1320 1465],[1321 1466],[1324 1466],[1325 1467],[1329 1467],[1330 1468],[1334 1468],[1335 1469],[1339 1469],[1340 1470],[1343 1470],[1344 1471],[1348 1471],[1349 1472],[1353 1472],[1354 1473],[1357 1473],[1358 1474],[1362 1474],[1363 1475],[1367 1475],[1368 1476],[1372 1476],[1373 1477],[1376 1477],[1377 1478],[1381 1478],[1382 1479],[1386 1479],[1387 1480],[1390 1480],[1391 1481],[1395 1481],[1396 1482],[1400 1482],[1401 1483],[1404 1483],[1405 1484],[1409 1484],[1410 1485],[1413 1485],[1414 1484],[1414 1480],[1415 1479],[1415 1475],[1416 1474],[1416 1471],[1417 1470],[1417 1466],[1418 1465],[1418 1461],[1419 1460],[1419 1457],[1420 1456],[1420 1452],[1421 1451],[1421 1447],[1422 1446],[1422 1443],[1423 1442],[1423 1438],[1424 1437],[1424 1433],[1425 1432],[1425 1428],[1426 1427],[1426 1424],[1427 1423],[1427 1419],[1428 1418],[1428 1414],[1429 1413],[1429 1410],[1430 1409],[1430 1405],[1431 1404],[1431 1400],[1432 1399],[1432 1396],[1433 1395],[1433 1391],[1434 1390],[1434 1386],[1435 1385],[1435 1381],[1436 1380],[1436 1377],[1437 1376],[1437 1372],[1438 1371],[1438 1367],[1439 1366],[1439 1363],[1440 1362],[1440 1358],[1441 1357],[1441 1353],[1442 1352],[1442 1349],[1443 1348],[1443 1344],[1444 1343],[1444 1339],[1445 1338],[1445 1334],[1446 1333],[1446 1330],[1447 1329],[1447 1325],[1448 1324],[1448 1320],[1449 1319],[1449 1316],[1450 1315],[1450 1311],[1451 1310],[1451 1306],[1452 1305],[1452 1302],[1453 1301],[1453 1297],[1454 1296],[1454 1292],[1455 1291],[1455 1288],[1456 1287],[1456 1283],[1457 1282],[1457 1278],[1458 1277],[1458 1273],[1459 1272],[1459 1269],[1460 1268],[1460 1264],[1461 1263],[1461 1259],[1462 1258],[1462 1255],[1463 1254],[1463 1250],[1459 1250],[1458 1249],[1455 1249],[1454 1248],[1450 1248],[1449 1247],[1445 1247],[1444 1246],[1440 1246],[1439 1245],[1436 1245],[1435 1244],[1431 1244],[1430 1243],[1426 1243],[1425 1242],[1422 1242],[1421 1241],[1417 1241],[1416 1240],[1412 1240],[1411 1239],[1407 1239],[1406 1238],[1403 1238],[1402 1237],[1398 1237],[1397 1236],[1393 1236],[1392 1235],[1389 1235],[1388 1234],[1384 1234],[1383 1233],[1379 1233],[1378 1232],[1375 1232],[1374 1231],[1370 1231],[1369 1230]
contour_details : [1640 1185],[1640 1284],[1754 1284],[1754 1185]
contour_details : [2218 1159],[2213 1164],[2213 1165],[2190 1188],[2190 1189],[2166 1213],[2166 1214],[2150 1230],[2150 1231],[2161 1242],[2162 1242],[2185 1265],[2186 1265],[2209 1288],[2210 1288],[2233 1311],[2234 1311],[2257 1334],[2258 1334],[2269 1345],[2270 1345],[2275 1340],[2275 1339],[2298 1316],[2298 1315],[2321 1292],[2321 1291],[2338 1274],[2338 1273],[2327 1262],[2326 1262],[2303 1239],[2302 1239],[2279 1216],[2278 1216],[2255 1193],[2254 1193],[2231 1170],[2230 1170],[2219 1159]
contour_details : [2400 980],[2383 997],[2382 997],[2360 1019],[2359 1019],[2336 1042],[2335 1042],[2329 1048],[2329 1049],[2340 1060],[2340 1061],[2362 1083],[2362 1084],[2384 1106],[2384 1107],[2405 1128],[2405 1129],[2427 1151],[2427 1152],[2438 1163],[2439 1163],[2456 1146],[2457 1146],[2479 1124],[2480 1124],[2502 1102],[2503 1102],[2510 1095],[2510 1094],[2499 1083],[2499 1082],[2477 1060],[2477 1059],[2455 1037],[2455 1036],[2434 1015],[2434 1014],[2412 992],[2412 991],[2401 980]
