contour_details : [1415 1245],[1415 1246],[1414 1247],[1414 1251],[1413 1252],[1413 1256],[1412 1257],[1412 1262],[1411 1263],[1411 1267],[1410 1268],[1410 1272],[1409 1273],[1409 1278],[1408 1279],[1408 1283],[1407 1284],[1407 1288],[1406 1289],[1406 1294],[1405 1295],[1405 1299],[1404 1300],[1404 1304],[1403 1305],[1403 1310],[1402 1311],[1402 1315],[1401 1316],[1401 1320],[1400 1321],[1400 1326],[1399 1327],[1399 1331],[1398 1332],[1398 1336],[1397 1337],[1397 1342],[1396 1343],[1396 1347],[1395 1348],[1395 1352],[1394 1353],[1394 1358],[1393 1359],[1393 1363],[1392 1364],[1392 1368],[1391 1369],[1391 1374],[1390 1375],[1390 1379],[1389 1380],[1389 1384],[1388 1385],[1388 1390],[1387 1391],[1387 1395],[1386 1396],[1386 1400],[1385 1401],[1385 1406],[1384 1407],[1384 1411],[1383 1412],[1383 1416],[1382 1417],[1382 1422],[1381 1423],[1381 1427],[1380 1428],[1380 1432],[1379 1433],[1379 1438],[1378 1439],[1378 1443],[1377 1444],[1377 1448],[1376 1449],[1376 1454],[1375 1455],[1375 1459],[1374 1460],[1374 1464],[1373 1465],[1373 1470],[1372 1471],[1372 1475],[1371 1476],[1371 1480],[1370 1481],[1370 1485],[1375 1490],[1376 1490],[1404 1518],[1405 1518],[1433 1546],[1434 1546],[1462 1574],[1463 1574],[1491 1602],[1492 1602],[1520 1630],[1521 1630],[1549 1658],[1550 1658],[1578 1686],[1579 1686],[1607 1714],[1608 1714],[1636 1742],[1637 1742],[1659 1764],[2084 1764],[2084 1290],[1755 1290],[1754 1289],[1754 1245] : repas : [1692,1505]
contour_details : [2179 1200],[2100 1279],[2100 1775],[2254 1929],[2255 1929],[2529 1655],[2529 1544],[2514 1529],[2513 1529],[2444 1460],[2443 1460],[2374 1391],[2373 1391],[2304 1322],[2303 1322],[2234 1253],[2233 1253],[2180 1200] : sejour : [2248,1603]
contour_details : [2354 1025],[2190 1189],[2190 1190],[2299 1299],[2300 1299],[2312 1287],[2313 1287],[2329 1271],[2330 1271],[2346 1255],[2347 1255],[2363 1239],[2364 1239],[2380 1223],[2381 1223],[2397 1207],[2398 1207],[2414 1191],[2415 1191],[2431 1175],[2432 1175],[2448 1159],[2449 1159],[2465 1143],[2466 1143],[2469 1140],[2469 1139],[2355 1025] : hall : [2302,1171]
contour_details : [2414 970],[2370 1014],[2370 1015],[2479 1124],[2480 1124],[2524 1080],[2524 1079],[2415 970] : pl : [2441,1050]
contour_details : [1015 940],[1015 1464],[1035 1464],[1036 1465],[1104 1465],[1105 1466],[1173 1466],[1174 1467],[1242 1467],[1243 1468],[1311 1468],[1312 1469],[1359 1469],[1359 1468],[1360 1467],[1360 1463],[1361 1462],[1361 1457],[1362 1456],[1362 1452],[1363 1451],[1363 1446],[1364 1445],[1364 1441],[1365 1440],[1365 1435],[1366 1434],[1366 1430],[1367 1429],[1367 1424],[1368 1423],[1368 1419],[1369 1418],[1369 1413],[1370 1412],[1370 1408],[1371 1407],[1371 1402],[1372 1401],[1372 1397],[1373 1396],[1373 1391],[1374 1390],[1374 1386],[1375 1385],[1375 1380],[1376 1379],[1376 1375],[1377 1374],[1377 1369],[1378 1368],[1378 1364],[1379 1363],[1379 1358],[1380 1357],[1380 1353],[1381 1352],[1381 1347],[1382 1346],[1382 1342],[1383 1341],[1383 1336],[1384 1335],[1384 1331],[1385 1330],[1385 1325],[1386 1324],[1386 1320],[1387 1319],[1387 1314],[1388 1313],[1388 1309],[1389 1308],[1389 1303],[1390 1302],[1390 1298],[1391 1297],[1391 1292],[1392 1291],[1392 1287],[1393 1286],[1393 1281],[1394 1280],[1394 1276],[1395 1275],[1395 1270],[1396 1269],[1396 1265],[1397 1264],[1397 1259],[1398 1258],[1398 1254],[1399 1253],[1399 1100],[1400 1099],[1414 1099],[1414 940] : cuisine : [1210,1180]
contour_details : [1435 780],[1435 899],[1644 899],[1645 900],[1645 1124],[1644 1125],[1440 1125],[1440 1224],[1759 1224],[1759 780] : degagement : [1626,849]
