contour_details : [1135 1525],[1135 1794],[1359 1794],[1359 1525] : douche : [1277,1647]
contour_details : [1130 1330],[1130 1514],[1234 1514],[1234 1330] : wc : [1193,1404]
contour_details : [1370 1255],[1370 1319],[1694 1319],[1694 1255] : placard : [1541,1287]
contour_details : [2166 1245],[2165 1246],[2117 1246],[2116 1247],[2068 1247],[2067 1248],[2019 1248],[2018 1249],[1970 1249],[1969 1250],[1921 1250],[1920 1251],[1872 1251],[1871 1252],[1823 1252],[1822 1253],[1774 1253],[1773 1254],[1725 1254],[1724 1255],[1705 1255],[1705 1704],[2359 1704],[2359 1404],[2200 1245] : sejour : [1981,1512]
contour_details : [1060 1210],[1060 1229],[1059 1230],[885 1230],[885 1234],[884 1235],[800 1235],[800 1794],[1119 1794],[1119 1210] : chambre : [951,1566]
contour_details : [1135 1060],[1135 1324],[1249 1324],[1250 1325],[1250 1509],[1359 1509],[1359 1245],[1360 1244],[1699 1244],[1699 1060] : hall : [1424,1158]
contour_details : [1950 655],[1950 829],[2359 829],[2359 806],[2358 805],[2358 771],[2357 770],[2357 736],[2356 735],[2356 701],[2355 700],[2355 666],[2354 665],[2354 655] : cuisine : [2169,783]
