contour_details : [1135 1525],[1135 1794],[1359 1794],[1359 1525] : douche : [1277,1647]
contour_details : [1130 1330],[1130 1514],[1234 1514],[1234 1330] : wc : [1193,1404]
contour_details : [1370 1255],[1370 1319],[1694 1319],[1694 1255] : placard : [1541,1287]
contour_details : [2163 1245],[2162 1246],[2114 1246],[2113 1247],[2065 1247],[2064 1248],[2019 1248],[2018 1249],[1970 1249],[1969 1250],[1921 1250],[1920 1251],[1872 1251],[1871 1252],[1823 1252],[1822 1253],[1774 1253],[1773 1254],[1725 1254],[1724 1255],[1705 1255],[1705 1704],[2359 1704],[2359 1404],[2200 1245] : sejour : [1981,1512]
contour_details : [1060 1210],[1060 1229],[1059 1230],[885 1230],[885 1234],[884 1235],[800 1235],[800 1794],[1119 1794],[1119 1210] : chambre : [951,1566]
contour_details : [1135 1060],[1135 1324],[1249 1324],[1250 1325],[1250 1509],[1359 1509],[1359 1245],[1360 1244],[1699 1244],[1699 1060] : hall : [1424,1158]
contour_details : [1950 660],[1950 825],[1951 825],[1954 828],[1955 828],[1959 832],[1960 832],[1963 835],[1964 835],[1968 839],[1969 839],[1972 842],[1973 842],[1977 846],[1978 846],[1981 849],[1982 849],[1986 853],[1987 853],[1990 856],[1991 856],[1995 860],[1996 860],[1999 863],[2000 863],[2004 867],[2005 867],[2008 870],[2009 870],[2013 874],[2014 874],[2017 877],[2018 877],[2022 881],[2023 881],[2026 884],[2027 884],[2031 888],[2032 888],[2035 891],[2036 891],[2040 895],[2041 895],[2044 898],[2045 898],[2049 902],[2050 902],[2053 905],[2054 905],[2058 909],[2059 909],[2062 912],[2063 912],[2067 916],[2068 916],[2071 919],[2072 919],[2076 923],[2077 923],[2080 926],[2081 926],[2085 930],[2086 930],[2089 933],[2090 933],[2094 937],[2095 937],[2098 940],[2099 940],[2103 944],[2104 944],[2107 947],[2108 947],[2112 951],[2113 951],[2116 954],[2117 954],[2121 958],[2122 958],[2125 961],[2126 961],[2130 965],[2131 965],[2134 968],[2135 968],[2139 972],[2140 972],[2143 975],[2144 975],[2148 979],[2149 979],[2152 982],[2153 982],[2157 986],[2158 986],[2161 989],[2162 989],[2166 993],[2167 993],[2170 996],[2171 996],[2175 1000],[2176 1000],[2179 1003],[2180 1003],[2184 1007],[2185 1007],[2188 1010],[2189 1010],[2193 1014],[2194 1014],[2197 1017],[2198 1017],[2202 1021],[2203 1021],[2206 1024],[2207 1024],[2211 1028],[2212 1028],[2215 1031],[2216 1031],[2220 1035],[2221 1035],[2224 1038],[2225 1038],[2229 1042],[2230 1042],[2233 1045],[2234 1045],[2238 1049],[2239 1049],[2242 1052],[2243 1052],[2247 1056],[2248 1056],[2251 1059],[2252 1059],[2256 1063],[2257 1063],[2260 1066],[2261 1066],[2264 1069],[2265 1069],[2269 1065],[2270 1065],[2275 1060],[2276 1060],[2282 1054],[2283 1054],[2288 1049],[2289 1049],[2294 1044],[2295 1044],[2301 1038],[2302 1038],[2307 1033],[2308 1033],[2313 1028],[2314 1028],[2320 1022],[2321 1022],[2326 1017],[2327 1017],[2332 1012],[2333 1012],[2339 1006],[2340 1006],[2345 1001],[2346 1001],[2351 996],[2352 996],[2358 990],[2359 990],[2359 660] : cuisine : [2169,783]
