contour_details : [1250 1465],[1250 1564],[1359 1564],[1359 1465]
contour_details : [1190 1330],[1190 1439],[1289 1439],[1289 1330]
contour_details : [1075 1210],[1075 1319],[1174 1319],[1174 1210]
contour_details : [1655 1060],[1655 1199],[1654 1200],[1370 1200],[1370 1299],[1694 1299],[1694 1245],[1695 1244],[1704 1244],[1705 1245],[1705 1289],[1939 1289],[1939 1190],[1755 1190],[1754 1189],[1754 1060]
contour_details : [1975 791],[1971 795],[1971 796],[1968 799],[1968 800],[1964 804],[1964 805],[1961 808],[1961 809],[1957 813],[1957 814],[1954 817],[1954 818],[1950 822],[1950 823],[1947 826],[1947 827],[1944 830],[1944 831],[1940 835],[1940 836],[1937 839],[1937 840],[1933 844],[1933 845],[1930 848],[1930 849],[1926 853],[1926 854],[1923 857],[1923 858],[1919 862],[1919 863],[1916 866],[1916 867],[1914 869],[1914 870],[1915 870],[1919 874],[1920 874],[1923 877],[1924 877],[1928 881],[1929 881],[1933 885],[1934 885],[1937 888],[1938 888],[1942 892],[1943 892],[1946 895],[1947 895],[1951 899],[1952 899],[1955 902],[1956 902],[1960 906],[1961 906],[1964 909],[1965 909],[1969 913],[1970 913],[1973 916],[1974 916],[1978 920],[1979 920],[1982 923],[1983 923],[1987 927],[1988 927],[1991 930],[1992 930],[1996 934],[1997 934],[2000 937],[2001 937],[2005 941],[2006 941],[2009 944],[2010 944],[2014 948],[2015 948],[2018 951],[2019 951],[2023 955],[2024 955],[2027 958],[2028 958],[2032 962],[2033 962],[2036 965],[2037 965],[2041 969],[2042 969],[2045 972],[2046 972],[2050 976],[2051 976],[2055 980],[2056 980],[2059 983],[2060 983],[2064 987],[2065 987],[2068 990],[2069 990],[2073 994],[2074 994],[2077 997],[2078 997],[2082 1001],[2083 1001],[2086 1004],[2087 1004],[2091 1008],[2092 1008],[2095 1011],[2096 1011],[2100 1015],[2101 1015],[2104 1018],[2105 1018],[2109 1022],[2110 1022],[2113 1025],[2114 1025],[2118 1029],[2119 1029],[2122 1032],[2123 1032],[2127 1036],[2128 1036],[2131 1039],[2132 1039],[2136 1043],[2137 1043],[2140 1046],[2141 1046],[2145 1050],[2146 1050],[2149 1053],[2150 1053],[2154 1057],[2155 1057],[2158 1060],[2159 1060],[2163 1064],[2164 1064],[2167 1067],[2168 1067],[2172 1071],[2173 1071],[2177 1075],[2178 1075],[2181 1078],[2182 1078],[2186 1082],[2187 1082],[2190 1085],[2191 1085],[2195 1089],[2196 1089],[2199 1092],[2200 1092],[2204 1096],[2205 1096],[2208 1099],[2209 1099],[2213 1103],[2214 1103],[2217 1106],[2218 1106],[2222 1110],[2223 1110],[2226 1113],[2227 1113],[2228 1114],[2232 1110],[2232 1109],[2235 1106],[2235 1105],[2239 1101],[2239 1100],[2242 1097],[2242 1096],[2246 1092],[2246 1091],[2249 1088],[2249 1087],[2253 1083],[2253 1082],[2256 1079],[2256 1078],[2259 1075],[2259 1074],[2263 1070],[2263 1069],[2266 1066],[2266 1065],[2270 1061],[2270 1060],[2273 1057],[2273 1056],[2277 1052],[2277 1051],[2280 1048],[2280 1047],[2284 1043],[2284 1042],[2287 1039],[2287 1038],[2289 1036],[2289 1035],[2288 1035],[2284 1031],[2283 1031],[2280 1028],[2279 1028],[2275 1024],[2274 1024],[2270 1020],[2269 1020],[2266 1017],[2265 1017],[2261 1013],[2260 1013],[2257 1010],[2256 1010],[2252 1006],[2251 1006],[2248 1003],[2247 1003],[2243 999],[2242 999],[2239 996],[2238 996],[2234 992],[2233 992],[2230 989],[2229 989],[2225 985],[2224 985],[2221 982],[2220 982],[2216 978],[2215 978],[2212 975],[2211 975],[2207 971],[2206 971],[2203 968],[2202 968],[2198 964],[2197 964],[2194 961],[2193 961],[2189 957],[2188 957],[2185 954],[2184 954],[2180 950],[2179 950],[2176 947],[2175 947],[2171 943],[2170 943],[2167 940],[2166 940],[2162 936],[2161 936],[2158 933],[2157 933],[2153 929],[2152 929],[2148 925],[2147 925],[2144 922],[2143 922],[2139 918],[2138 918],[2135 915],[2134 915],[2130 911],[2129 911],[2126 908],[2125 908],[2121 904],[2120 904],[2117 901],[2116 901],[2112 897],[2111 897],[2108 894],[2107 894],[2103 890],[2102 890],[2099 887],[2098 887],[2094 883],[2093 883],[2090 880],[2089 880],[2085 876],[2084 876],[2081 873],[2080 873],[2076 869],[2075 869],[2072 866],[2071 866],[2067 862],[2066 862],[2063 859],[2062 859],[2058 855],[2057 855],[2054 852],[2053 852],[2049 848],[2048 848],[2045 845],[2044 845],[2040 841],[2039 841],[2036 838],[2035 838],[2031 834],[2030 834],[2026 830],[2025 830],[2022 827],[2021 827],[2017 823],[2016 823],[2013 820],[2012 820],[2008 816],[2007 816],[2004 813],[2003 813],[1999 809],[1998 809],[1995 806],[1994 806],[1990 802],[1989 802],[1986 799],[1985 799],[1981 795],[1980 795],[1977 792],[1976 792]
