25
2
2.2360679775
3
ellipse
44
190
44
118
73.4370478709
0.0
0.0
0.0
0.0
0.0
0.0
0.0
0.0
0.0
0.0
0.0
0.000276854928018
0.00373754152824
0.00228405315615
0.00179955703212
0.0015919158361
0.00131506090808
0.0015227021041
0.0015227021041
0.00207641196013
0.00124584717608
0.00235326688815
0.00173034330011
0.00242248062016
0.00269933554817
0.0
0.0
0.0
0.0
0.0
0.0
0.0
0.0
0.0
0.0
0.0
0.000276854928018
0.00373754152824
0.00228405315615
0.00179955703212
0.0015919158361
0.00131506090808
0.0015227021041
0.0015227021041
0.00207641196013
0.00124584717608
0.00235326688815
0.00173034330011
0.00242248062016
0.00269933554817
0.156819395158
0.00269933554817
0.00117663344408
0.00124584717608
0.00124584717608
0.00117663344408
0.00103820598007
0.00110741971207
0.000968992248062
0.000830564784053
0.000830564784053
0.000761351052049
0.000761351052049
0.000553709856035
0.000346068660022
0.000415282392027
0.000276854928018
0.000484496124031
0.000484496124031
0.000415282392027
0.000484496124031
0.000553709856035
0.00062292358804
0.00062292358804
0.00062292358804
0.000553709856035
0.00269933554817
0.00117663344408
0.00124584717608
0.00124584717608
0.00117663344408
0.00103820598007
0.00110741971207
0.000968992248062
0.000830564784053
0.000830564784053
0.000761351052049
0.000761351052049
0.000553709856035
0.000346068660022
0.000415282392027
0.000276854928018
0.000484496124031
0.000484496124031
0.000415282392027
0.000484496124031
0.000553709856035
0.00062292358804
0.00062292358804
0.00062292358804
0.000553709856035
2
unknown
37
198
34
129
95.3834367173
0.0
0.0
0.0
0.0
0.0
0.0
0.0
0.0
0.0
0.0080831408776
0.0762124711316
0.0461893764434
0.108545034642
0.0773672055427
0.0600461893764
0.0565819861432
0.0531177829099
0.054272517321
0.066974595843
0.0369515011547
0.117782909931
0.0923787528868
0.066974595843
0.0484988452656
0.0277136258661
0.0428692141418
0.0369515011547
0.0554272517321
0.0646651270208
0.0508083140878
0.0646651270208
0.0508083140878
0.0438799076212
0.0346420323326
0.0300230946882
0.0288683602771
0.0277136258661
0.0254041570439
0.0161662817552
0.0127020785219
0.013856812933
0.013856812933
0.0150115473441
0.0173210161663
0.0219399538106
0.0230946882217
0.0288683602771
0.0230946882217
0.0207852193995
0.0207852193995
0.0196304849885
1
2
3
1
1
0.690897984117
floor
