25
2
7.27513241235
2
rectangle
9
428
11
195
218.874393203
0.0
0.0
0.0
0.0
0.0
0.0
0.0
0.0
0.0
1.30695055724e-06
3.54743722679e-06
2.63257183672e-06
2.24048666955e-06
1.84840150238e-06
1.75504789115e-06
1.82973078013e-06
1.58701139093e-06
1.68036500216e-06
1.7737186134e-06
1.75504789115e-06
2.03510872484e-06
1.53099922419e-06
1.79238933564e-06
3.64079083802e-06
8.32714212184e-06
0.0
0.0
0.0
0.0
0.0
0.0
0.0
0.0
0.0
1.30695055724e-06
3.54743722679e-06
2.63257183672e-06
2.24048666955e-06
1.84840150238e-06
1.75504789115e-06
1.82973078013e-06
1.58701139093e-06
1.68036500216e-06
1.7737186134e-06
1.75504789115e-06
2.03510872484e-06
1.53099922419e-06
1.79238933564e-06
3.64079083802e-06
8.32714212184e-06
0.0
0.0
0.0
0.0
0.0
0.0
0.0
0.0
0.0
1.30695055724e-06
3.54743722679e-06
2.63257183672e-06
2.24048666955e-06
1.84840150238e-06
1.75504789115e-06
1.82973078013e-06
1.58701139093e-06
1.68036500216e-06
1.7737186134e-06
1.75504789115e-06
2.03510872484e-06
1.53099922419e-06
1.79238933564e-06
3.64079083802e-06
8.32714212184e-06
0.0277616204272
1.92308439137e-06
1.84840150238e-06
1.81106005789e-06
2.48320605875e-06
3.2673763931e-06
2.20314522506e-06
1.45631633521e-06
1.21359694601e-06
1.08290189028e-06
8.96194667821e-07
8.58853223328e-07
8.21511778836e-07
5.60121667388e-07
4.29426611664e-07
4.4809733391e-07
4.85438778403e-07
5.97463111881e-07
6.53475278619e-07
7.84170334343e-07
9.70877556806e-07
1.21359694601e-06
1.02688972354e-06
8.96194667821e-07
9.14865390067e-07
9.14865390067e-07
1.92308439137e-06
1.84840150238e-06
1.81106005789e-06
2.48320605875e-06
3.2673763931e-06
2.20314522506e-06
1.45631633521e-06
1.21359694601e-06
1.08290189028e-06
8.96194667821e-07
8.58853223328e-07
8.21511778836e-07
5.60121667388e-07
4.29426611664e-07
4.4809733391e-07
4.85438778403e-07
5.97463111881e-07
6.53475278619e-07
7.84170334343e-07
9.70877556806e-07
1.21359694601e-06
1.02688972354e-06
8.96194667821e-07
9.14865390067e-07
9.14865390067e-07
1.92308439137e-06
1.84840150238e-06
1.81106005789e-06
2.48320605875e-06
3.2673763931e-06
2.20314522506e-06
1.45631633521e-06
1.21359694601e-06
1.08290189028e-06
8.96194667821e-07
8.58853223328e-07
8.21511778836e-07
5.60121667388e-07
4.29426611664e-07
4.4809733391e-07
4.85438778403e-07
5.97463111881e-07
6.53475278619e-07
7.84170334343e-07
9.70877556806e-07
1.21359694601e-06
1.02688972354e-06
8.96194667821e-07
9.14865390067e-07
9.14865390067e-07
3
unknown
32
403
21
186
190.759010272
0.0
0.0
1.90649045611e-05
4.19427900344e-05
3.05038472977e-05
3.05038472977e-05
0.000167771160138
0.000297412511153
0.000217339911996
0.000530004346798
0.000423240881256
0.000385111072134
0.000350794243924
0.000327916358451
0.000335542320275
0.000320290396626
0.000327916358451
0.000327916358451
0.000324103377538
0.000339355301187
0.000354607224836
0.00053381732771
0.000537630308623
0.000480435594939
0.000366046167573
0.0
0.0
1.90649045611e-05
4.19427900344e-05
3.05038472977e-05
3.05038472977e-05
0.000167771160138
0.000297412511153
0.000217339911996
0.000530004346798
0.000423240881256
0.000385111072134
0.000350794243924
0.000327916358451
0.000335542320275
0.000320290396626
0.000327916358451
0.000327916358451
0.000324103377538
0.000339355301187
0.000354607224836
0.00053381732771
0.000537630308623
0.000480435594939
0.000366046167573
0.0197309888718
0.000388924053046
0.000442305785817
0.000373672129397
0.000575760117745
0.000564321175008
0.000289786549329
0.000224965873821
0.000183023083786
0.000160145198313
0.00013726731284
0.000125828370103
0.000114389427367
0.000106763465542
6.86336564199e-05
7.62596182444e-05
8.38855800688e-05
9.91375037177e-05
0.000122015389191
0.000141080293752
0.000160145198313
0.000179210102874
0.000179210102874
0.000152519236489
0.000213526931084
0.000183023083786
0.000388924053046
0.000442305785817
0.000373672129397
0.000575760117745
0.000564321175008
0.000289786549329
0.000224965873821
0.000183023083786
0.000160145198313
0.00013726731284
0.000125828370103
0.000114389427367
0.000106763465542
6.86336564199e-05
7.62596182444e-05
8.38855800688e-05
9.91375037177e-05
0.000122015389191
0.000141080293752
0.000160145198313
0.000179210102874
0.000179210102874
0.000152519236489
0.000213526931084
0.000183023083786
1
2
3
1
1
0.173126632113
floor
