contour_details : [1020 1143],[1020 1542],[1079 1542],[1080 1541],[1165 1541],[1166 1540],[1251 1540],[1252 1539],[1337 1539],[1338 1538],[1423 1538],[1424 1537],[1449 1537],[1449 1143] : cuisine : [1211,1279]
contour_details : [1585 1070],[1585 1124],[1784 1124],[1784 1070] : placard : [1685,1108]
contour_details : [1465 945],[1465 1414],[1659 1414],[1659 1235],[1660 1234],[1854 1234],[2109 1489],[2110 1489],[2112 1487],[2112 1486],[2126 1472],[2126 1471],[2140 1457],[2140 1456],[2154 1442],[2154 1441],[2168 1427],[2168 1426],[2179 1415],[2179 1414],[2159 1394],[2159 1393],[2132 1366],[2132 1365],[2106 1339],[2106 1338],[2079 1311],[2079 1310],[2052 1283],[2052 1282],[2026 1256],[2026 1255],[1999 1228],[1999 1227],[1973 1201],[1973 1200],[1946 1173],[1946 1172],[1920 1146],[1920 1145],[1915 1140],[1565 1140],[1564 1139],[1564 945] : hall : [1536,1186]
contour_details : [570 942],[570 1301],[999 1301],[999 1142],[985 1142],[984 1141],[984 1132],[985 1131],[1449 1131],[1449 942] : repas : [786,1141]
contour_details : [570 512],[570 931],[1344 931],[1341 928],[1340 928],[1321 909],[1320 909],[1302 891],[1301 891],[1283 873],[1282 873],[1263 854],[1262 854],[1244 836],[1243 836],[1225 818],[1224 818],[1205 799],[1204 799],[1186 781],[1185 781],[1167 763],[1166 763],[1147 744],[1146 744],[1128 726],[1127 726],[1109 708],[1108 708],[1089 689],[1088 689],[1070 671],[1069 671],[1054 656],[1054 512] : sejour : [808,671]
