contour_details : [1020 1140],[1020 1539],[1079 1539],[1080 1538],[1165 1538],[1166 1537],[1251 1537],[1252 1536],[1337 1536],[1338 1535],[1423 1535],[1424 1534],[1449 1534],[1449 1140] : cuisine : [1211,1279]
contour_details : [1585 1070],[1585 1124],[1784 1124],[1784 1070] : placard : [1685,1108]
contour_details : [1465 945],[1465 1414],[1659 1414],[1659 1235],[1660 1234],[1854 1234],[2109 1489],[2110 1489],[2113 1486],[2113 1485],[2127 1471],[2127 1470],[2141 1456],[2141 1455],[2155 1441],[2155 1440],[2169 1426],[2169 1425],[2179 1415],[2179 1414],[2159 1394],[2159 1393],[2132 1366],[2132 1365],[2106 1339],[2106 1338],[2079 1311],[2079 1310],[2053 1284],[2053 1283],[2026 1256],[2026 1255],[2000 1229],[2000 1228],[1973 1201],[1973 1200],[1947 1174],[1947 1173],[1920 1146],[1920 1145],[1915 1140],[1565 1140],[1564 1139],[1564 945] : hall : [1536,1186]
contour_details : [570 810],[570 1299],[1004 1299],[1004 1135],[985 1135],[984 1134],[984 1129],[983 1129],[980 1126],[979 1126],[975 1122],[974 1122],[971 1119],[970 1119],[967 1116],[966 1116],[962 1112],[961 1112],[958 1109],[957 1109],[954 1106],[953 1106],[949 1102],[948 1102],[945 1099],[944 1099],[940 1095],[939 1095],[936 1092],[935 1092],[932 1089],[931 1089],[927 1085],[926 1085],[923 1082],[922 1082],[919 1079],[918 1079],[914 1075],[913 1075],[910 1072],[909 1072],[905 1068],[904 1068],[901 1065],[900 1065],[897 1062],[896 1062],[892 1058],[891 1058],[888 1055],[887 1055],[884 1052],[883 1052],[879 1048],[878 1048],[875 1045],[874 1045],[871 1042],[870 1042],[866 1038],[865 1038],[862 1035],[861 1035],[857 1031],[856 1031],[853 1028],[852 1028],[849 1025],[848 1025],[844 1021],[843 1021],[840 1018],[839 1018],[836 1015],[835 1015],[831 1011],[830 1011],[827 1008],[826 1008],[823 1005],[822 1005],[818 1001],[817 1001],[814 998],[813 998],[809 994],[808 994],[805 991],[804 991],[801 988],[800 988],[796 984],[795 984],[792 981],[791 981],[788 978],[787 978],[783 974],[782 974],[779 971],[778 971],[774 967],[773 967],[770 964],[769 964],[766 961],[765 961],[761 957],[760 957],[757 954],[756 954],[753 951],[752 951],[748 947],[747 947],[744 944],[743 944],[740 941],[739 941],[735 937],[734 937],[731 934],[730 934],[726 930],[725 930],[722 927],[721 927],[718 924],[717 924],[713 920],[712 920],[709 917],[708 917],[705 914],[704 914],[700 910],[699 910],[696 907],[695 907],[691 903],[690 903],[687 900],[686 900],[683 897],[682 897],[678 893],[677 893],[674 890],[673 890],[670 887],[669 887],[665 883],[664 883],[661 880],[660 880],[657 877],[656 877],[652 873],[651 873],[648 870],[647 870],[643 866],[642 866],[639 863],[638 863],[635 860],[634 860],[630 856],[629 856],[626 853],[625 853],[622 850],[621 850],[617 846],[616 846],[613 843],[612 843],[608 839],[607 839],[604 836],[603 836],[600 833],[599 833],[595 829],[594 829],[591 826],[590 826],[587 823],[586 823],[582 819],[581 819],[578 816],[577 816],[573 812],[572 812] : repas : [786,1141]
contour_details : [570 515],[570 795],[571 795],[575 799],[576 799],[579 802],[580 802],[584 806],[585 806],[589 810],[590 810],[593 813],[594 813],[598 817],[599 817],[603 821],[604 821],[607 824],[608 824],[612 828],[613 828],[617 832],[618 832],[621 835],[622 835],[626 839],[627 839],[631 843],[632 843],[635 846],[636 846],[640 850],[641 850],[645 854],[646 854],[649 857],[650 857],[654 861],[655 861],[659 865],[660 865],[663 868],[664 868],[668 872],[669 872],[673 876],[674 876],[677 879],[678 879],[682 883],[683 883],[687 887],[688 887],[691 890],[692 890],[696 894],[697 894],[701 898],[702 898],[705 901],[706 901],[710 905],[711 905],[715 909],[716 909],[719 912],[720 912],[724 916],[725 916],[729 920],[730 920],[733 923],[734 923],[738 927],[739 927],[743 931],[744 931],[747 934],[748 934],[752 938],[753 938],[757 942],[758 942],[761 945],[762 945],[766 949],[767 949],[771 953],[772 953],[775 956],[776 956],[780 960],[781 960],[785 964],[786 964],[789 967],[790 967],[794 971],[795 971],[799 975],[800 975],[803 978],[804 978],[808 982],[809 982],[813 986],[814 986],[817 989],[818 989],[822 993],[823 993],[827 997],[828 997],[831 1000],[832 1000],[836 1004],[837 1004],[841 1008],[842 1008],[845 1011],[846 1011],[850 1015],[851 1015],[855 1019],[856 1019],[859 1022],[860 1022],[864 1026],[865 1026],[869 1030],[870 1030],[873 1033],[874 1033],[878 1037],[879 1037],[883 1041],[884 1041],[887 1044],[888 1044],[892 1048],[893 1048],[897 1052],[898 1052],[901 1055],[902 1055],[906 1059],[907 1059],[911 1063],[912 1063],[915 1066],[916 1066],[920 1070],[921 1070],[925 1074],[926 1074],[929 1077],[930 1077],[934 1081],[935 1081],[939 1085],[940 1085],[943 1088],[944 1088],[948 1092],[949 1092],[953 1096],[954 1096],[957 1099],[958 1099],[962 1103],[963 1103],[967 1107],[968 1107],[971 1110],[972 1110],[976 1114],[977 1114],[981 1118],[982 1118],[985 1121],[986 1121],[989 1124],[1449 1124],[1449 945],[1355 945],[1348 938],[1347 938],[1319 910],[1318 910],[1289 881],[1288 881],[1260 853],[1259 853],[1230 824],[1229 824],[1201 796],[1200 796],[1171 767],[1170 767],[1142 739],[1141 739],[1112 710],[1111 710],[1083 682],[1082 682],[1059 659],[1059 515] : sejour : [808,671]
