25
3
1.15386803705
4
unknown
96
121
91
116
13.6014705087
0.0
0.0
0.0
0.0
0.0
0.0
0.0
0.0
0.0
0.0
0.0
0.0
0.0
0.0
0.0
0.0
0.0
0.0
0.0294117647059
0.0735294117647
0.25
0.0735294117647
0.294117647059
0.235294117647
0.0294117647059
0.26237971826
0.0441176470588
0.0441176470588
0.0441176470588
0.0294117647059
0.0441176470588
0.0294117647059
0.0294117647059
0.0588235294118
0.0294117647059
0.0294117647059
0.0588235294118
0.0441176470588
0.0147058823529
0.0294117647059
0.0147058823529
0.0147058823529
0.0147058823529
0.0294117647059
0.0147058823529
0.0147058823529
0.0147058823529
0.0147058823529
0.0294117647059
0.0147058823529
0.0147058823529
2
unknown
47
171
55
226
90.426765949
0.0
4.28923915723e-26
8.14955439873e-26
1.50123370503e-25
1.41544892189e-25
1.67280327132e-25
1.75858805446e-25
1.28677174717e-25
1.28677174717e-25
1.15809457245e-25
2.70222066905e-25
2.65932827748e-25
2.3161891449e-25
2.0159424039e-25
1.80148044604e-25
2.0159424039e-25
4.24634676566e-25
5.01840981396e-25
4.11766959094e-25
4.41791633194e-25
3.38849893421e-25
4.97551742238e-25
4.41791633194e-25
2.83089784377e-25
3.47428371735e-25
0.0
4.28923915723e-26
8.14955439873e-26
1.50123370503e-25
1.41544892189e-25
1.67280327132e-25
1.75858805446e-25
1.28677174717e-25
1.28677174717e-25
1.15809457245e-25
2.70222066905e-25
2.65932827748e-25
2.3161891449e-25
2.0159424039e-25
1.80148044604e-25
2.0159424039e-25
4.24634676566e-25
5.01840981396e-25
4.11766959094e-25
4.41791633194e-25
3.38849893421e-25
4.97551742238e-25
4.41791633194e-25
2.83089784377e-25
3.47428371735e-25
0.0
4.28923915723e-26
8.14955439873e-26
1.50123370503e-25
1.41544892189e-25
1.67280327132e-25
1.75858805446e-25
1.28677174717e-25
1.28677174717e-25
1.15809457245e-25
2.70222066905e-25
2.65932827748e-25
2.3161891449e-25
2.0159424039e-25
1.80148044604e-25
2.0159424039e-25
4.24634676566e-25
5.01840981396e-25
4.11766959094e-25
4.41791633194e-25
3.38849893421e-25
4.97551742238e-25
4.41791633194e-25
2.83089784377e-25
3.47428371735e-25
0.0
4.28923915723e-26
8.14955439873e-26
1.50123370503e-25
1.41544892189e-25
1.67280327132e-25
1.75858805446e-25
1.28677174717e-25
1.28677174717e-25
1.15809457245e-25
2.70222066905e-25
2.65932827748e-25
2.3161891449e-25
2.0159424039e-25
1.80148044604e-25
2.0159424039e-25
4.24634676566e-25
5.01840981396e-25
4.11766959094e-25
4.41791633194e-25
3.38849893421e-25
4.97551742238e-25
4.41791633194e-25
2.83089784377e-25
3.47428371735e-25
0.0
4.28923915723e-26
8.14955439873e-26
1.50123370503e-25
1.41544892189e-25
1.67280327132e-25
1.75858805446e-25
1.28677174717e-25
1.28677174717e-25
1.15809457245e-25
2.70222066905e-25
2.65932827748e-25
2.3161891449e-25
2.0159424039e-25
1.80148044604e-25
2.0159424039e-25
4.24634676566e-25
5.01840981396e-25
4.11766959094e-25
4.41791633194e-25
3.38849893421e-25
4.97551742238e-25
4.41791633194e-25
2.83089784377e-25
3.47428371735e-25
0.0
4.28923915723e-26
8.14955439873e-26
1.50123370503e-25
1.41544892189e-25
1.67280327132e-25
1.75858805446e-25
1.28677174717e-25
1.28677174717e-25
1.15809457245e-25
2.70222066905e-25
2.65932827748e-25
2.3161891449e-25
2.0159424039e-25
1.80148044604e-25
2.0159424039e-25
4.24634676566e-25
5.01840981396e-25
4.11766959094e-25
4.41791633194e-25
3.38849893421e-25
4.97551742238e-25
4.41791633194e-25
2.83089784377e-25
3.47428371735e-25
0.0
4.28923915723e-26
8.14955439873e-26
1.50123370503e-25
1.41544892189e-25
1.67280327132e-25
1.75858805446e-25
1.28677174717e-25
1.28677174717e-25
1.15809457245e-25
2.70222066905e-25
2.65932827748e-25
2.3161891449e-25
2.0159424039e-25
1.80148044604e-25
2.0159424039e-25
4.24634676566e-25
5.01840981396e-25
4.11766959094e-25
4.41791633194e-25
3.38849893421e-25
4.97551742238e-25
4.41791633194e-25
2.83089784377e-25
3.47428371735e-25
0.0
4.28923915723e-26
8.14955439873e-26
1.50123370503e-25
1.41544892189e-25
1.67280327132e-25
1.75858805446e-25
1.28677174717e-25
1.28677174717e-25
1.15809457245e-25
2.70222066905e-25
2.65932827748e-25
2.3161891449e-25
2.0159424039e-25
1.80148044604e-25
2.0159424039e-25
4.24634676566e-25
5.01840981396e-25
4.11766959094e-25
4.41791633194e-25
3.38849893421e-25
4.97551742238e-25
4.41791633194e-25
2.83089784377e-25
3.47428371735e-25
0.0
4.28923915723e-26
8.14955439873e-26
1.50123370503e-25
1.41544892189e-25
1.67280327132e-25
1.75858805446e-25
1.28677174717e-25
1.28677174717e-25
1.15809457245e-25
2.70222066905e-25
2.65932827748e-25
2.3161891449e-25
2.0159424039e-25
1.80148044604e-25
2.0159424039e-25
4.24634676566e-25
5.01840981396e-25
4.11766959094e-25
4.41791633194e-25
3.38849893421e-25
4.97551742238e-25
4.41791633194e-25
2.83089784377e-25
3.47428371735e-25
0.0
4.28923915723e-26
8.14955439873e-26
1.50123370503e-25
1.41544892189e-25
1.67280327132e-25
1.75858805446e-25
1.28677174717e-25
1.28677174717e-25
1.15809457245e-25
2.70222066905e-25
2.65932827748e-25
2.3161891449e-25
2.0159424039e-25
1.80148044604e-25
2.0159424039e-25
4.24634676566e-25
5.01840981396e-25
4.11766959094e-25
4.41791633194e-25
3.38849893421e-25
4.97551742238e-25
4.41791633194e-25
2.83089784377e-25
3.47428371735e-25
0.0
4.28923915723e-26
8.14955439873e-26
1.50123370503e-25
1.41544892189e-25
1.67280327132e-25
1.75858805446e-25
1.28677174717e-25
1.28677174717e-25
1.15809457245e-25
2.70222066905e-25
2.65932827748e-25
2.3161891449e-25
2.0159424039e-25
1.80148044604e-25
2.0159424039e-25
4.24634676566e-25
5.01840981396e-25
4.11766959094e-25
4.41791633194e-25
3.38849893421e-25
4.97551742238e-25
4.41791633194e-25
2.83089784377e-25
3.47428371735e-25
0.0
4.28923915723e-26
8.14955439873e-26
1.50123370503e-25
1.41544892189e-25
1.67280327132e-25
1.75858805446e-25
1.28677174717e-25
1.28677174717e-25
1.15809457245e-25
2.70222066905e-25
2.65932827748e-25
2.3161891449e-25
2.0159424039e-25
1.80148044604e-25
2.0159424039e-25
4.24634676566e-25
5.01840981396e-25
4.11766959094e-25
4.41791633194e-25
3.38849893421e-25
4.97551742238e-25
4.41791633194e-25
2.83089784377e-25
3.47428371735e-25
0.0
4.28923915723e-26
8.14955439873e-26
1.50123370503e-25
1.41544892189e-25
1.67280327132e-25
1.75858805446e-25
1.28677174717e-25
1.28677174717e-25
1.15809457245e-25
2.70222066905e-25
2.65932827748e-25
2.3161891449e-25
2.0159424039e-25
1.80148044604e-25
2.0159424039e-25
4.24634676566e-25
5.01840981396e-25
4.11766959094e-25
4.41791633194e-25
3.38849893421e-25
4.97551742238e-25
4.41791633194e-25
2.83089784377e-25
3.47428371735e-25
0.0
4.28923915723e-26
8.14955439873e-26
1.50123370503e-25
1.41544892189e-25
1.67280327132e-25
1.75858805446e-25
1.28677174717e-25
1.28677174717e-25
1.15809457245e-25
2.70222066905e-25
2.65932827748e-25
2.3161891449e-25
2.0159424039e-25
1.80148044604e-25
2.0159424039e-25
4.24634676566e-25
5.01840981396e-25
4.11766959094e-25
4.41791633194e-25
3.38849893421e-25
4.97551742238e-25
4.41791633194e-25
2.83089784377e-25
3.47428371735e-25
0.0464228912864
4.67527068138e-25
5.96204242855e-25
3.13114458478e-25
2.7880054522e-25
1.84437283761e-25
1.37255653031e-25
2.35908153648e-25
1.45834131346e-25
2.0159424039e-25
1.62991087975e-25
1.62991087975e-25
1.50123370503e-25
1.67280327132e-25
7.29170656729e-26
6.43385873584e-26
6.86278265156e-26
7.72063048301e-26
6.86278265156e-26
1.20098696402e-25
6.43385873584e-26
7.72063048301e-26
1.15809457245e-25
1.11520218088e-25
3.00246741006e-25
2.57354349434e-25
4.67527068138e-25
5.96204242855e-25
3.13114458478e-25
2.7880054522e-25
1.84437283761e-25
1.37255653031e-25
2.35908153648e-25
1.45834131346e-25
2.0159424039e-25
1.62991087975e-25
1.62991087975e-25
1.50123370503e-25
1.67280327132e-25
7.29170656729e-26
6.43385873584e-26
6.86278265156e-26
7.72063048301e-26
6.86278265156e-26
1.20098696402e-25
6.43385873584e-26
7.72063048301e-26
1.15809457245e-25
1.11520218088e-25
3.00246741006e-25
2.57354349434e-25
4.67527068138e-25
5.96204242855e-25
3.13114458478e-25
2.7880054522e-25
1.84437283761e-25
1.37255653031e-25
2.35908153648e-25
1.45834131346e-25
2.0159424039e-25
1.62991087975e-25
1.62991087975e-25
1.50123370503e-25
1.67280327132e-25
7.29170656729e-26
6.43385873584e-26
6.86278265156e-26
7.72063048301e-26
6.86278265156e-26
1.20098696402e-25
6.43385873584e-26
7.72063048301e-26
1.15809457245e-25
1.11520218088e-25
3.00246741006e-25
2.57354349434e-25
4.67527068138e-25
5.96204242855e-25
3.13114458478e-25
2.7880054522e-25
1.84437283761e-25
1.37255653031e-25
2.35908153648e-25
1.45834131346e-25
2.0159424039e-25
1.62991087975e-25
1.62991087975e-25
1.50123370503e-25
1.67280327132e-25
7.29170656729e-26
6.43385873584e-26
6.86278265156e-26
7.72063048301e-26
6.86278265156e-26
1.20098696402e-25
6.43385873584e-26
7.72063048301e-26
1.15809457245e-25
1.11520218088e-25
3.00246741006e-25
2.57354349434e-25
4.67527068138e-25
5.96204242855e-25
3.13114458478e-25
2.7880054522e-25
1.84437283761e-25
1.37255653031e-25
2.35908153648e-25
1.45834131346e-25
2.0159424039e-25
1.62991087975e-25
1.62991087975e-25
1.50123370503e-25
1.67280327132e-25
7.29170656729e-26
6.43385873584e-26
6.86278265156e-26
7.72063048301e-26
6.86278265156e-26
1.20098696402e-25
6.43385873584e-26
7.72063048301e-26
1.15809457245e-25
1.11520218088e-25
3.00246741006e-25
2.57354349434e-25
4.67527068138e-25
5.96204242855e-25
3.13114458478e-25
2.7880054522e-25
1.84437283761e-25
1.37255653031e-25
2.35908153648e-25
1.45834131346e-25
2.0159424039e-25
1.62991087975e-25
1.62991087975e-25
1.50123370503e-25
1.67280327132e-25
7.29170656729e-26
6.43385873584e-26
6.86278265156e-26
7.72063048301e-26
6.86278265156e-26
1.20098696402e-25
6.43385873584e-26
7.72063048301e-26
1.15809457245e-25
1.11520218088e-25
3.00246741006e-25
2.57354349434e-25
4.67527068138e-25
5.96204242855e-25
3.13114458478e-25
2.7880054522e-25
1.84437283761e-25
1.37255653031e-25
2.35908153648e-25
1.45834131346e-25
2.0159424039e-25
1.62991087975e-25
1.62991087975e-25
1.50123370503e-25
1.67280327132e-25
7.29170656729e-26
6.43385873584e-26
6.86278265156e-26
7.72063048301e-26
6.86278265156e-26
1.20098696402e-25
6.43385873584e-26
7.72063048301e-26
1.15809457245e-25
1.11520218088e-25
3.00246741006e-25
2.57354349434e-25
4.67527068138e-25
5.96204242855e-25
3.13114458478e-25
2.7880054522e-25
1.84437283761e-25
1.37255653031e-25
2.35908153648e-25
1.45834131346e-25
2.0159424039e-25
1.62991087975e-25
1.62991087975e-25
1.50123370503e-25
1.67280327132e-25
7.29170656729e-26
6.43385873584e-26
6.86278265156e-26
7.72063048301e-26
6.86278265156e-26
1.20098696402e-25
6.43385873584e-26
7.72063048301e-26
1.15809457245e-25
1.11520218088e-25
3.00246741006e-25
2.57354349434e-25
4.67527068138e-25
5.96204242855e-25
3.13114458478e-25
2.7880054522e-25
1.84437283761e-25
1.37255653031e-25
2.35908153648e-25
1.45834131346e-25
2.0159424039e-25
1.62991087975e-25
1.62991087975e-25
1.50123370503e-25
1.67280327132e-25
7.29170656729e-26
6.43385873584e-26
6.86278265156e-26
7.72063048301e-26
6.86278265156e-26
1.20098696402e-25
6.43385873584e-26
7.72063048301e-26
1.15809457245e-25
1.11520218088e-25
3.00246741006e-25
2.57354349434e-25
4.67527068138e-25
5.96204242855e-25
3.13114458478e-25
2.7880054522e-25
1.84437283761e-25
1.37255653031e-25
2.35908153648e-25
1.45834131346e-25
2.0159424039e-25
1.62991087975e-25
1.62991087975e-25
1.50123370503e-25
1.67280327132e-25
7.29170656729e-26
6.43385873584e-26
6.86278265156e-26
7.72063048301e-26
6.86278265156e-26
1.20098696402e-25
6.43385873584e-26
7.72063048301e-26
1.15809457245e-25
1.11520218088e-25
3.00246741006e-25
2.57354349434e-25
4.67527068138e-25
5.96204242855e-25
3.13114458478e-25
2.7880054522e-25
1.84437283761e-25
1.37255653031e-25
2.35908153648e-25
1.45834131346e-25
2.0159424039e-25
1.62991087975e-25
1.62991087975e-25
1.50123370503e-25
1.67280327132e-25
7.29170656729e-26
6.43385873584e-26
6.86278265156e-26
7.72063048301e-26
6.86278265156e-26
1.20098696402e-25
6.43385873584e-26
7.72063048301e-26
1.15809457245e-25
1.11520218088e-25
3.00246741006e-25
2.57354349434e-25
4.67527068138e-25
5.96204242855e-25
3.13114458478e-25
2.7880054522e-25
1.84437283761e-25
1.37255653031e-25
2.35908153648e-25
1.45834131346e-25
2.0159424039e-25
1.62991087975e-25
1.62991087975e-25
1.50123370503e-25
1.67280327132e-25
7.29170656729e-26
6.43385873584e-26
6.86278265156e-26
7.72063048301e-26
6.86278265156e-26
1.20098696402e-25
6.43385873584e-26
7.72063048301e-26
1.15809457245e-25
1.11520218088e-25
3.00246741006e-25
2.57354349434e-25
4.67527068138e-25
5.96204242855e-25
3.13114458478e-25
2.7880054522e-25
1.84437283761e-25
1.37255653031e-25
2.35908153648e-25
1.45834131346e-25
2.0159424039e-25
1.62991087975e-25
1.62991087975e-25
1.50123370503e-25
1.67280327132e-25
7.29170656729e-26
6.43385873584e-26
6.86278265156e-26
7.72063048301e-26
6.86278265156e-26
1.20098696402e-25
6.43385873584e-26
7.72063048301e-26
1.15809457245e-25
1.11520218088e-25
3.00246741006e-25
2.57354349434e-25
4.67527068138e-25
5.96204242855e-25
3.13114458478e-25
2.7880054522e-25
1.84437283761e-25
1.37255653031e-25
2.35908153648e-25
1.45834131346e-25
2.0159424039e-25
1.62991087975e-25
1.62991087975e-25
1.50123370503e-25
1.67280327132e-25
7.29170656729e-26
6.43385873584e-26
6.86278265156e-26
7.72063048301e-26
6.86278265156e-26
1.20098696402e-25
6.43385873584e-26
7.72063048301e-26
1.15809457245e-25
1.11520218088e-25
3.00246741006e-25
2.57354349434e-25
3
ellipse
82
136
76
195
63.1981012373
0.0
0.0
0.0
0.0
0.0
0.0
0.0
0.0
0.0
0.000308928019771
0.00158877267311
0.00105918178207
0.000838518910808
0.000838518910808
0.000617856039543
0.000529590891037
0.000661988613796
0.000617856039543
0.00057372346529
0.000617856039543
0.000882651485061
0.00154464009886
0.000617856039543
0.00242729158392
0.00189770069288
0.0
0.0
0.0
0.0
0.0
0.0
0.0
0.0
0.0
0.000308928019771
0.00158877267311
0.00105918178207
0.000838518910808
0.000838518910808
0.000617856039543
0.000529590891037
0.000661988613796
0.000617856039543
0.00057372346529
0.000617856039543
0.000882651485061
0.00154464009886
0.000617856039543
0.00242729158392
0.00189770069288
0.112005881335
0.000441325742531
0.000441325742531
0.000485458316784
0.000485458316784
0.000529590891037
0.000617856039543
0.000617856039543
0.000750253762302
0.000838518910808
0.000706121188049
0.000794386336555
0.000882651485061
0.000485458316784
0.000397193168278
0.000308928019771
0.000353060594024
0.000353060594024
0.000397193168278
0.000397193168278
0.000264795445518
0.000220662871265
0.000264795445518
0.000264795445518
0.000220662871265
0.000176530297012
0.000441325742531
0.000441325742531
0.000485458316784
0.000485458316784
0.000529590891037
0.000617856039543
0.000617856039543
0.000750253762302
0.000838518910808
0.000706121188049
0.000794386336555
0.000882651485061
0.000485458316784
0.000397193168278
0.000308928019771
0.000353060594024
0.000353060594024
0.000397193168278
0.000397193168278
0.000264795445518
0.000220662871265
0.000264795445518
0.000264795445518
0.000220662871265
0.000176530297012
2
3
4
1
1
0.0876070479378
touch
2
3
1
1
0.307904467479
floor
