contour_details : [1535 2075],[1535 2174],[1759 2174],[1759 2075]
contour_details : [1355 2000],[1355 2154],[1354 2155],[885 2155],[885 2254],[1354 2254],[1355 2255],[1355 2524],[1454 2524],[1454 2000]
contour_details : [1305 1805],[1305 1904],[1399 1904],[1399 1805]
