contour_details : [305 2035],[305 2489],[399 2489],[400 2488],[534 2488],[535 2487],[669 2487],[670 2486],[804 2486],[805 2485],[939 2485],[940 2484],[979 2484],[979 2035] : repas : [658,2226]
contour_details : [1355 1915],[1355 2019],[1969 2019],[1969 1920],[1933 1920],[1932 1919],[1810 1919],[1809 1918],[1687 1918],[1686 1917],[1564 1917],[1563 1916],[1441 1916],[1440 1915] : degagement : [1538,1974]
contour_details : [1360 1845],[1360 1899],[1529 1899],[1529 1845] : placard : [1447,1878]
contour_details : [1180 1740],[1180 1844],[1179 1845],[990 1845],[990 2014],[1010 2014],[1011 2015],[1081 2015],[1082 2016],[1152 2016],[1153 2017],[1223 2017],[1224 2018],[1294 2018],[1295 2019],[1344 2019],[1344 1740] : hall : [1244,1894]
contour_details : [305 1560],[305 1625],[306 1626],[306 1716],[307 1717],[307 1807],[308 1808],[308 1898],[309 1899],[309 1985],[310 1986],[310 2014],[979 2014],[979 1560] : salon : [665,1770]
