25
3
1.15364004539
2
rectangle
5
90
5
128
74.0607858451
0.0
0.0
0.0
0.0
0.0
3.60472940498e-05
0.000120157646833
0.000228299528982
0.000120157646833
9.61261174661e-05
0.000120157646833
9.61261174661e-05
9.61261174661e-05
9.61261174661e-05
0.000793040469095
0.000432567528598
0.000360472940498
0.000312409881765
0.000336441411131
0.000288378352398
0.000889166586562
0.000744977410362
0.000648851292896
0.000576756704797
0.000913198115928
0.0
0.0
0.0
0.0
0.0
3.60472940498e-05
0.000120157646833
0.000228299528982
0.000120157646833
9.61261174661e-05
0.000120157646833
9.61261174661e-05
9.61261174661e-05
9.61261174661e-05
0.000793040469095
0.000432567528598
0.000360472940498
0.000312409881765
0.000336441411131
0.000288378352398
0.000889166586562
0.000744977410362
0.000648851292896
0.000576756704797
0.000913198115928
0.198967968092
0.000264346823032
0.000252331058349
0.000420551763914
0.000360472940498
0.000288378352398
0.000300394117082
0.000324425646448
0.000384504469864
0.000288378352398
0.000252331058349
0.000228299528982
0.000228299528982
0.000132173411516
0.000108141882149
0.000120157646833
0.000120157646833
0.000144189176199
0.000192252234932
0.000156204940882
0.000144189176199
0.000144189176199
0.000168220705566
0.000228299528982
0.000132173411516
0.000120157646833
0.000264346823032
0.000252331058349
0.000420551763914
0.000360472940498
0.000288378352398
0.000300394117082
0.000324425646448
0.000384504469864
0.000288378352398
0.000252331058349
0.000228299528982
0.000228299528982
0.000132173411516
0.000108141882149
0.000120157646833
0.000120157646833
0.000144189176199
0.000192252234932
0.000156204940882
0.000144189176199
0.000144189176199
0.000168220705566
0.000228299528982
0.000132173411516
0.000120157646833
3
rectangle
9
47
12
28
20.6155281281
0.0
0.0
0.0
0.0
0.0
0.0
0.0
0.0
0.0480769230769
0.0865384615385
0.0576923076923
0.0384615384615
0.0769230769231
0.0384615384615
0.0384615384615
0.0384615384615
0.0384615384615
0.0384615384615
0.0384615384615
0.0192307692308
0.0384615384615
0.0865384615385
0.0961538461538
0.173076923077
0.0384615384615
0.19147549345
0.0480769230769
0.0384615384615
0.0673076923077
0.0961538461538
0.0576923076923
0.0480769230769
0.0384615384615
0.0192307692308
0.0288461538462
0.0192307692308
0.0192307692308
0.0192307692308
0.00961538461538
0.00961538461538
0.00961538461538
0.00961538461538
0.00961538461538
0.00961538461538
0.0192307692308
0.0192307692308
0.0288461538462
0.0480769230769
0.0288461538462
0.0192307692308
0.0192307692308
4
rectangle
49
86
12
28
19.6977156036
0.0
0.0
0.0
0.0
0.0
0.0
0.0
0.0
0.029702970297
0.039603960396
0.108910891089
0.0594059405941
0.039603960396
0.039603960396
0.039603960396
0.039603960396
0.039603960396
0.039603960396
0.039603960396
0.039603960396
0.019801980198
0.039603960396
0.138613861386
0.158415841584
0.0693069306931
0.199289602632
0.049504950495
0.039603960396
0.0594059405941
0.0891089108911
0.0594059405941
0.049504950495
0.039603960396
0.019801980198
0.029702970297
0.019801980198
0.019801980198
0.019801980198
0.00990099009901
0.00990099009901
0.00990099009901
0.00990099009901
0.00990099009901
0.00990099009901
0.019801980198
0.019801980198
0.029702970297
0.049504950495
0.019801980198
0.019801980198
0.019801980198
3
2
3
1
1
0.0541569086651
floor
2
4
1
1
0.0526444184231
floor
3
4
1
1
0.972072072072
touch
