contour_details : [1345 1755],[1345 2109],[1824 2109],[1824 1755] : cuisine : [1556,1926]
contour_details : [1498 1545],[1498 1644],[1497 1645],[1340 1645],[1340 1739],[1824 1739],[1824 1545] : hall : [1592,1666]
contour_details : [550 1545],[550 2014],[595 2014],[596 2015],[750 2015],[751 2016],[905 2016],[906 2017],[1060 2017],[1061 2018],[1215 2018],[1216 2019],[1324 2019],[1324 1640],[1095 1640],[1094 1639],[1095 1638],[1095 1636],[1096 1635],[1096 1633],[1097 1632],[1097 1630],[1098 1629],[1098 1626],[1099 1625],[1099 1623],[1100 1622],[1100 1620],[1101 1619],[1101 1617],[1102 1616],[1102 1614],[1103 1613],[1103 1611],[1104 1610],[1104 1607],[1105 1606],[1105 1604],[1106 1603],[1106 1601],[1107 1600],[1107 1598],[1108 1597],[1108 1595],[1109 1594],[1109 1592],[1110 1591],[1110 1588],[1111 1587],[1111 1585],[1112 1584],[1112 1582],[1113 1581],[1113 1579],[1114 1578],[1114 1576],[1115 1575],[1115 1573],[1116 1572],[1116 1569],[1117 1568],[1117 1566],[1118 1565],[1118 1563],[1119 1562],[1119 1560],[1120 1559],[1120 1557],[1121 1556],[1121 1554],[1122 1553],[1122 1550],[1123 1549],[1123 1547],[1124 1546],[1124 1545] : sejour : [958,1768]
contour_details : [1270 1420],[1270 1534],[1379 1534],[1380 1535],[1380 1629],[1474 1629],[1474 1420] : degt : [1367,1475]
contour_details : [1275 1265],[1275 1409],[1374 1409],[1374 1265] : wc : [1329,1321]
