contour_details : [1329 1807],[1329 1814],[1328 1815],[1328 1981],[1327 1982],[1327 2148],[1326 2149],[1326 2309],[1658 2309],[1658 1807] : cuisine : [1539,2113]
contour_details : [1501 1705],[1501 1796],[1659 1796],[1659 1772],[1658 1771],[1658 1741],[1657 1740],[1657 1711],[1656 1710],[1656 1705] : wc : [1561,1732]
contour_details : [1402 1705],[1402 1797],[1493 1797],[1493 1707],[1490 1707],[1489 1706],[1429 1706],[1428 1705] : pl : [1464,1752]
contour_details : [1326 1509],[1326 1794],[1327 1794],[1328 1795],[1373 1795],[1374 1796],[1394 1796],[1394 1693],[1395 1692],[1658 1692],[1658 1530],[1536 1530],[1535 1529],[1535 1509] : hall : [1432,1569]
contour_details : [1329 1299],[1329 1326],[1328 1327],[1271 1327],[1270 1328],[1118 1328],[1117 1329],[965 1329],[964 1330],[870 1330],[870 2310],[1299 2310],[1299 1689],[1300 1688],[1314 1688],[1314 1409],[1315 1408],[1435 1408],[1438 1405],[1438 1404],[1439 1403],[1439 1402],[1441 1400],[1441 1399],[1442 1398],[1442 1397],[1444 1395],[1444 1394],[1445 1393],[1445 1392],[1447 1390],[1447 1389],[1448 1388],[1448 1387],[1450 1385],[1450 1384],[1451 1383],[1451 1382],[1453 1380],[1453 1379],[1454 1378],[1454 1377],[1456 1375],[1456 1374],[1457 1373],[1457 1372],[1459 1370],[1459 1369],[1460 1368],[1460 1367],[1462 1365],[1462 1364],[1463 1363],[1463 1362],[1465 1360],[1465 1359],[1467 1357],[1467 1356],[1468 1355],[1468 1354],[1470 1352],[1470 1351],[1471 1350],[1471 1349],[1473 1347],[1473 1346],[1474 1345],[1474 1344],[1476 1342],[1476 1341],[1477 1340],[1477 1339],[1479 1337],[1479 1336],[1480 1335],[1480 1334],[1482 1332],[1482 1331],[1483 1330],[1483 1329],[1485 1327],[1485 1326],[1486 1325],[1486 1324],[1488 1322],[1488 1321],[1489 1320],[1489 1319],[1491 1317],[1491 1316],[1492 1315],[1492 1314],[1494 1312],[1494 1311],[1495 1310],[1495 1309],[1497 1307],[1497 1306],[1498 1305],[1498 1304],[1500 1302],[1500 1301],[1501 1300],[1501 1299] : sejour : [1130,1875]
