25
3
3.60555127546
4
unknown
49
157
199
352
99.7446740433
0.0
0.0
0.0345911949686
0.059748427673
0.0566037735849
0.0471698113208
0.0440251572327
0.0471698113208
0.0408805031447
0.0408805031447
0.0408805031447
0.0440251572327
0.0440251572327
0.0408805031447
0.0408805031447
0.0471698113208
0.0471698113208
0.0503144654088
0.0880503144654
0.0471698113208
0.0283018867925
0.0283018867925
0.0283018867925
0.0283018867925
0.0220125786164
0.0449465562095
0.00943396226415
0.00943396226415
0.0188679245283
0.0251572327044
0.0786163522013
0.0408805031447
0.0314465408805
0.0283018867925
0.0754716981132
0.0314465408805
0.0220125786164
0.0157232704403
0.0062893081761
0.00943396226415
0.0125786163522
0.0283018867925
0.251572327044
0.0314465408805
0.062893081761
0.0534591194969
0.0283018867925
0.0188679245283
0.0125786163522
0.00943396226415
0.0062893081761
2
unknown
25
247
23
232
150.083310198
0.01393728223
0.0156794425087
0.0174216027875
0.01393728223
0.0487804878049
0.0470383275261
0.0418118466899
0.0400696864111
0.0400696864111
0.0365853658537
0.0435540069686
0.0383275261324
0.0400696864111
0.0418118466899
0.0418118466899
0.0383275261324
0.0470383275261
0.0435540069686
0.0418118466899
0.0452961672474
0.0435540069686
0.0470383275261
0.0435540069686
0.0487804878049
0.0783972125436
0.0353536240707
0.0
0.0
0.0
0.0557491289199
0.121951219512
0.132404181185
0.0592334494774
0.0383275261324
0.0243902439024
0.0174216027875
0.0104529616725
0.0104529616725
0.00696864111498
0.00522648083624
0.00696864111498
0.00522648083624
0.00522648083624
0.00348432055749
0.00522648083624
0.00348432055749
0.00522648083624
0.00348432055749
0.00696864111498
0.00522648083624
0.00696864111498
3
unknown
63
374
57
372
166.868211472
0.0
0.0
0.0
0.0
0.0
0.0
0.0
0.0
0.0
0.0
0.0
0.0
0.0
0.0
0.0
0.0
0.0
0.0
0.227393617021
0.208776595745
0.191489361702
0.182180851064
0.0664893617021
0.0452127659574
0.0771276595745
0.1825059589
0.0545212765957
0.0438829787234
0.0558510638298
0.0359042553191
0.031914893617
0.031914893617
0.0292553191489
0.031914893617
0.031914893617
0.0372340425532
0.0398936170213
0.0452127659574
0.0385638297872
0.0226063829787
0.0212765957447
0.0186170212766
0.0186170212766
0.0172872340426
0.0159574468085
0.0159574468085
0.0159574468085
0.0186170212766
0.0212765957447
0.0226063829787
0.0239361702128
3
2
4
1
1
0.460313315927
touch
3
4
1
1
0.0606321147299
floor
2
3
1
1
0.131719228256
floor
