contour_details : [1532 2082],[1532 2155],[1531 2156],[1444 2156],[1444 2256],[1535 2256],[1535 2183],[1536 2182],[1835 2182],[1835 2082]
contour_details : [1380 1950],[1380 2110],[1479 2110],[1479 1950]
contour_details : [1540 1902],[1540 2002],[1663 2002],[1663 1902]
contour_details : [1684 1646],[1684 1746],[1773 1746],[1773 1646]
contour_details : [734 1594],[734 2108],[833 2108],[833 1594]
