contour_details : [1096 1775],[1096 1888],[1196 1888],[1196 1775]
contour_details : [859 1732],[859 1758],[858 1759],[858 1808],[857 1809],[857 1831],[858 1831],[859 1832],[907 1832],[908 1833],[956 1833],[957 1834],[1005 1834],[1006 1835],[1054 1835],[1055 1836],[1077 1836],[1077 1815],[1078 1814],[1078 1766],[1079 1765],[1079 1737],[1078 1737],[1077 1736],[1029 1736],[1028 1735],[980 1735],[979 1734],[931 1734],[930 1733],[882 1733],[881 1732]
contour_details : [1268 1568],[1268 1757],[1322 1757],[1323 1758],[1323 1804],[2018 1804],[2018 1705],[1369 1705],[1368 1704],[1368 1568]
