contour_details : [1415 1330],[1415 1669],[1499 1669],[1501 1671],[1501 1672],[1502 1673],[1502 1674],[1503 1675],[1503 1676],[1504 1677],[1504 1678],[1505 1679],[1669 1679],[1669 1670],[1670 1669],[1739 1669],[1739 1330] : cuisine : [1541,1472]
contour_details : [832 1329],[832 1668],[1406 1668],[1406 1329] : repas : [1074,1511]
contour_details : [1610 1260],[1610 1319],[1739 1319],[1739 1260] : pl : [1671,1290]
contour_details : [1400 1080],[1400 1159],[1419 1159],[1420 1160],[1420 1319],[1444 1319],[1445 1318],[1480 1318],[1481 1317],[1516 1317],[1517 1316],[1552 1316],[1553 1315],[1588 1315],[1589 1314],[1599 1314],[1599 1240],[1600 1239],[2284 1239],[2284 1180],[1865 1180],[1864 1179],[1864 1145],[1595 1145],[1594 1144],[1594 1080] : hall : [1528,1183]
contour_details : [1660 960],[1660 1079],[1659 1080],[1605 1080],[1605 1087],[1606 1088],[1606 1098],[1607 1099],[1607 1109],[1608 1110],[1608 1120],[1609 1121],[1609 1131],[1610 1132],[1610 1134],[1869 1134],[1869 960] : cellier : [1750,1053]
contour_details : [1315 960],[1315 972],[1314 973],[1314 1012],[1313 1013],[1313 1052],[1312 1053],[1312 1092],[1311 1093],[1311 1132],[1310 1133],[1310 1159],[1389 1159],[1389 960] : wc : [1362,1088]
contour_details : [830 960],[830 1319],[1409 1319],[1409 1170],[1300 1170],[1299 1169],[1299 960] : sejour : [1079,1135]
