contour_details : [2210 1360],[2210 1789],[2255 1789],[2256 1788],[2321 1788],[2322 1787],[2387 1787],[2388 1786],[2453 1786],[2454 1785],[2519 1785],[2520 1784],[2539 1784],[2539 1360] : chambre : [2354,1595]
contour_details : [900 975],[900 1454],[1219 1454],[1219 975] : repas : [1034,1193]
contour_details : [1345 770],[1345 869],[1344 870],[1230 870],[1230 969],[1954 969],[1955 970],[1955 1444],[2189 1444],[2189 1360],[2182 1360],[2181 1359],[2157 1359],[2156 1358],[2132 1358],[2131 1357],[2107 1357],[2106 1356],[2082 1356],[2081 1355],[2065 1355],[2064 1354],[2064 870],[1705 870],[1700 865],[1585 865],[1584 864],[1584 770] : hall : [1430,920]
contour_details : [1600 640],[1600 854],[1699 854],[1699 640] : wc : [1647,783]
contour_details : [550 600],[550 1209],[879 1209],[879 965],[880 964],[1214 964],[1214 865],[1075 865],[1074 864],[1074 600] : sejour : [796,770]
