contour_details : [2210 1360],[2210 1789],[2255 1789],[2256 1788],[2321 1788],[2322 1787],[2387 1787],[2388 1786],[2453 1786],[2454 1785],[2519 1785],[2520 1784],[2539 1784],[2539 1360] : chambre : [2354,1595]
contour_details : [1085 865],[1083 867],[1083 868],[1082 869],[1082 870],[1081 871],[1081 872],[1080 873],[1080 874],[1079 875],[1079 876],[1078 877],[1078 878],[1076 880],[1076 881],[1075 882],[1075 883],[1074 884],[1074 885],[1073 886],[1073 887],[1072 888],[1072 889],[1071 890],[1071 891],[1070 892],[1070 893],[1068 895],[1068 896],[1067 897],[1067 898],[1066 899],[1066 900],[1065 901],[1065 902],[1064 903],[1064 904],[1063 905],[1063 906],[1061 908],[1061 909],[1060 910],[1060 911],[1059 912],[1059 913],[1058 914],[1058 915],[1057 916],[1057 917],[1056 918],[1056 919],[1055 920],[1055 921],[1053 923],[1053 924],[1052 925],[1052 926],[1051 927],[1051 928],[1050 929],[1050 930],[1049 931],[1049 932],[1048 933],[1048 934],[1046 936],[1046 937],[1045 938],[1045 939],[1044 940],[1044 941],[1043 942],[1043 943],[1042 944],[1042 945],[1041 946],[1041 947],[1039 949],[1039 950],[1038 951],[1038 952],[1037 953],[1037 954],[1036 955],[1036 956],[1035 957],[1035 958],[1034 959],[1034 960],[1033 961],[1033 962],[1031 964],[1031 965],[1030 966],[1030 967],[1029 968],[1029 969],[1028 970],[1028 971],[1027 972],[1027 973],[1026 974],[1026 975],[1024 977],[1024 978],[1023 979],[1023 980],[1022 981],[1022 982],[1021 983],[1021 984],[1020 985],[1020 986],[1019 987],[1019 988],[1018 989],[1018 990],[1016 992],[1016 993],[1015 994],[1015 995],[1014 996],[1014 997],[1013 998],[1013 999],[1012 1000],[1012 1001],[1011 1002],[1011 1003],[1009 1005],[1009 1006],[1008 1007],[1008 1008],[1007 1009],[1007 1010],[1006 1011],[1006 1012],[1005 1013],[1005 1014],[1004 1015],[1004 1016],[1002 1018],[1002 1019],[1001 1020],[1001 1021],[1000 1022],[1000 1023],[999 1024],[999 1025],[998 1026],[998 1027],[997 1028],[997 1029],[996 1030],[996 1031],[994 1033],[994 1034],[993 1035],[993 1036],[992 1037],[992 1038],[991 1039],[991 1040],[990 1041],[990 1042],[989 1043],[989 1044],[987 1046],[987 1047],[986 1048],[986 1049],[985 1050],[985 1051],[984 1052],[984 1053],[983 1054],[983 1055],[982 1056],[982 1057],[981 1058],[981 1059],[979 1061],[979 1062],[978 1063],[978 1064],[977 1065],[977 1066],[976 1067],[976 1068],[975 1069],[975 1070],[974 1071],[974 1072],[972 1074],[972 1075],[971 1076],[971 1077],[970 1078],[970 1079],[969 1080],[969 1081],[968 1082],[968 1083],[967 1084],[967 1085],[965 1087],[965 1088],[964 1089],[964 1090],[963 1091],[963 1092],[962 1093],[962 1094],[961 1095],[961 1096],[960 1097],[960 1098],[959 1099],[959 1100],[957 1102],[957 1103],[956 1104],[956 1105],[955 1106],[955 1107],[954 1108],[954 1109],[953 1110],[953 1111],[952 1112],[952 1113],[950 1115],[950 1116],[949 1117],[949 1118],[948 1119],[948 1120],[947 1121],[947 1122],[946 1123],[946 1124],[945 1125],[945 1126],[944 1127],[944 1128],[942 1130],[942 1131],[941 1132],[941 1133],[940 1134],[940 1135],[939 1136],[939 1137],[938 1138],[938 1139],[937 1140],[937 1141],[935 1143],[935 1144],[934 1145],[934 1146],[933 1147],[933 1148],[932 1149],[932 1150],[931 1151],[931 1152],[930 1153],[930 1154],[928 1156],[928 1157],[927 1158],[927 1159],[926 1160],[926 1161],[925 1162],[925 1163],[924 1164],[924 1165],[923 1166],[923 1167],[922 1168],[922 1169],[920 1171],[920 1172],[919 1173],[919 1174],[918 1175],[918 1176],[917 1177],[917 1178],[916 1179],[916 1180],[915 1181],[915 1182],[913 1184],[913 1185],[912 1186],[912 1187],[911 1188],[911 1189],[910 1190],[910 1191],[909 1192],[909 1193],[908 1194],[908 1195],[907 1196],[907 1197],[905 1199],[905 1200],[904 1201],[904 1202],[903 1203],[903 1204],[902 1205],[902 1206],[901 1207],[901 1208],[900 1209],[900 1245],[901 1246],[901 1294],[902 1295],[902 1343],[903 1344],[903 1391],[904 1392],[904 1439],[905 1440],[905 1454],[1219 1454],[1219 865] : repas : [1034,1193]
contour_details : [1345 770],[1345 869],[1344 870],[1230 870],[1230 969],[1954 969],[1955 970],[1955 1444],[2189 1444],[2189 1360],[2183 1360],[2182 1359],[2158 1359],[2157 1358],[2133 1358],[2132 1357],[2108 1357],[2107 1356],[2083 1356],[2082 1355],[2065 1355],[2064 1354],[2064 870],[1705 870],[1700 865],[1585 865],[1584 864],[1584 770] : hall : [1430,920]
contour_details : [1600 640],[1600 854],[1699 854],[1699 640] : wc : [1647,783]
contour_details : [550 600],[550 1209],[879 1209],[881 1207],[881 1206],[882 1205],[882 1204],[883 1203],[883 1202],[884 1201],[884 1200],[885 1199],[885 1198],[886 1197],[886 1196],[887 1195],[887 1194],[889 1192],[889 1191],[890 1190],[890 1189],[891 1188],[891 1187],[892 1186],[892 1185],[893 1184],[893 1183],[894 1182],[894 1181],[896 1179],[896 1178],[897 1177],[897 1176],[898 1175],[898 1174],[899 1173],[899 1172],[900 1171],[900 1170],[901 1169],[901 1168],[902 1167],[902 1166],[904 1164],[904 1163],[905 1162],[905 1161],[906 1160],[906 1159],[907 1158],[907 1157],[908 1156],[908 1155],[909 1154],[909 1153],[911 1151],[911 1150],[912 1149],[912 1148],[913 1147],[913 1146],[914 1145],[914 1144],[915 1143],[915 1142],[916 1141],[916 1140],[917 1139],[917 1138],[919 1136],[919 1135],[920 1134],[920 1133],[921 1132],[921 1131],[922 1130],[922 1129],[923 1128],[923 1127],[924 1126],[924 1125],[925 1124],[925 1123],[927 1121],[927 1120],[928 1119],[928 1118],[929 1117],[929 1116],[930 1115],[930 1114],[931 1113],[931 1112],[932 1111],[932 1110],[934 1108],[934 1107],[935 1106],[935 1105],[936 1104],[936 1103],[937 1102],[937 1101],[938 1100],[938 1099],[939 1098],[939 1097],[940 1096],[940 1095],[942 1093],[942 1092],[943 1091],[943 1090],[944 1089],[944 1088],[945 1087],[945 1086],[946 1085],[946 1084],[947 1083],[947 1082],[949 1080],[949 1079],[950 1078],[950 1077],[951 1076],[951 1075],[952 1074],[952 1073],[953 1072],[953 1071],[954 1070],[954 1069],[955 1068],[955 1067],[957 1065],[957 1064],[958 1063],[958 1062],[959 1061],[959 1060],[960 1059],[960 1058],[961 1057],[961 1056],[962 1055],[962 1054],[963 1053],[963 1052],[965 1050],[965 1049],[966 1048],[966 1047],[967 1046],[967 1045],[968 1044],[968 1043],[969 1042],[969 1041],[970 1040],[970 1039],[972 1037],[972 1036],[973 1035],[973 1034],[974 1033],[974 1032],[975 1031],[975 1030],[976 1029],[976 1028],[977 1027],[977 1026],[978 1025],[978 1024],[980 1022],[980 1021],[981 1020],[981 1019],[982 1018],[982 1017],[983 1016],[983 1015],[984 1014],[984 1013],[985 1012],[985 1011],[987 1009],[987 1008],[988 1007],[988 1006],[989 1005],[989 1004],[990 1003],[990 1002],[991 1001],[991 1000],[992 999],[992 998],[993 997],[993 996],[995 994],[995 993],[996 992],[996 991],[997 990],[997 989],[998 988],[998 987],[999 986],[999 985],[1000 984],[1000 983],[1001 982],[1001 981],[1003 979],[1003 978],[1004 977],[1004 976],[1005 975],[1005 974],[1006 973],[1006 972],[1007 971],[1007 970],[1008 969],[1008 968],[1010 966],[1010 965],[1011 964],[1011 963],[1012 962],[1012 961],[1013 960],[1013 959],[1014 958],[1014 957],[1015 956],[1015 955],[1016 954],[1016 953],[1018 951],[1018 950],[1019 949],[1019 948],[1020 947],[1020 946],[1021 945],[1021 944],[1022 943],[1022 942],[1023 941],[1023 940],[1025 938],[1025 937],[1026 936],[1026 935],[1027 934],[1027 933],[1028 932],[1028 931],[1029 930],[1029 929],[1030 928],[1030 927],[1031 926],[1031 925],[1033 923],[1033 922],[1034 921],[1034 920],[1035 919],[1035 918],[1036 917],[1036 916],[1037 915],[1037 914],[1038 913],[1038 912],[1039 911],[1039 910],[1041 908],[1041 907],[1042 906],[1042 905],[1043 904],[1043 903],[1044 902],[1044 901],[1045 900],[1045 899],[1046 898],[1046 897],[1048 895],[1048 894],[1049 893],[1049 892],[1050 891],[1050 890],[1051 889],[1051 888],[1052 887],[1052 886],[1053 885],[1053 884],[1054 883],[1054 882],[1056 880],[1056 879],[1057 878],[1057 877],[1058 876],[1058 875],[1059 874],[1059 873],[1060 872],[1060 871],[1061 870],[1061 869],[1063 867],[1063 866],[1064 865],[1064 864],[1065 863],[1065 862],[1066 861],[1066 860],[1067 859],[1067 858],[1068 857],[1068 856],[1069 855],[1069 600] : sejour : [796,770]
