25
3
1.94227479411
2
rectangle
38
107
33
106
49.5176736126
0.0
0.0
0.0
0.0
0.0001953125
5.58035714286e-05
0.000251116071429
0.000362723214286
0.000418526785714
0.000167410714286
0.000111607142857
0.000167410714286
0.000111607142857
0.000167410714286
0.000111607142857
0.000167410714286
0.000111607142857
0.00128348214286
0.00200892857143
0.00122767857143
0.000948660714286
0.00100446428571
0.00078125
0.0009765625
0.000613839285714
0.0
0.0
0.0
0.0
0.0001953125
5.58035714286e-05
0.000251116071429
0.000362723214286
0.000418526785714
0.000167410714286
0.000111607142857
0.000167410714286
0.000111607142857
0.000167410714286
0.000111607142857
0.000167410714286
0.000111607142857
0.00128348214286
0.00200892857143
0.00122767857143
0.000948660714286
0.00100446428571
0.00078125
0.0009765625
0.000613839285714
0.172341009565
0.000279017857143
0.000279017857143
0.000279017857143
0.000334821428571
0.000390625
0.000446428571429
0.000613839285714
0.000446428571429
0.000502232142857
0.000558035714286
0.000892857142857
0.000474330357143
0.000418526785714
0.000279017857143
0.000306919642857
0.000223214285714
0.0001953125
0.000223214285714
0.000306919642857
0.000223214285714
0.0001953125
0.000167410714286
0.000167410714286
0.000139508928571
0.000139508928571
0.000279017857143
0.000279017857143
0.000279017857143
0.000334821428571
0.000390625
0.000446428571429
0.000613839285714
0.000446428571429
0.000502232142857
0.000558035714286
0.000892857142857
0.000474330357143
0.000418526785714
0.000279017857143
0.000306919642857
0.000223214285714
0.0001953125
0.000223214285714
0.000306919642857
0.000223214285714
0.0001953125
0.000167410714286
0.000167410714286
0.000139508928571
0.000139508928571
3
rectangle
118
162
47
94
27.6586333719
0.0
0.0
0.0
0.0
0.0
0.0
0.0
0.0
0.0
0.0
0.0
0.0
0.0
0.0
0.0
0.0
0.0
0.0
0.0933333333333
0.12
0.16
0.24
0.153333333333
0.16
0.0666666666667
0.257083168575
0.0333333333333
0.04
0.04
0.04
0.0466666666667
0.04
0.04
0.04
0.04
0.04
0.0333333333333
0.04
0.0266666666667
0.02
0.02
0.02
0.02
0.02
0.02
0.02
0.0266666666667
0.02
0.0133333333333
0.02
0.0133333333333
4
rectangle
38
107
107
165
44.687805943
0.0
0.0
0.0
0.0
0.0
0.0
0.0
0.0
0.0
0.0
0.0
0.0
0.0
0.0
0.0
0.044
0.124
0.064
0.064
0.232
0.112
0.104
0.112
0.08
0.056
0.244854916338
0.036
0.032
0.04
0.04
0.048
0.064
0.052
0.044
0.036
0.032
0.032
0.032
0.016
0.016
0.016
0.016
0.016
0.024
0.024
0.032
0.024
0.02
0.02
0.016
0.016
1
2
4
1
1
0.791666666667
floor
